main/simulation/qsim/main.msim.vcd
$comment
	File created using the following command:
		vcd file main.msim.vcd -direction
$end
$date
	Tue Aug 20 22:45:44 2019
$end
$version
	ModelSim Version 10.1d
$end
$timescale
	1ps
$end
$scope module main_vlg_vec_tst $end
$var reg 1 ! clock $end
$var reg 1 " input_button $end
$var wire 1 # code_test0 [2] $end
$var wire 1 $ code_test0 [1] $end
$var wire 1 % code_test0 [0] $end
$var wire 1 & code_test1 [2] $end
$var wire 1 ' code_test1 [1] $end
$var wire 1 ( code_test1 [0] $end
$var wire 1 ) code_test2 [2] $end
$var wire 1 * code_test2 [1] $end
$var wire 1 + code_test2 [0] $end
$var wire 1 , code_test3 [2] $end
$var wire 1 - code_test3 [1] $end
$var wire 1 . code_test3 [0] $end
$var wire 1 / code_test4 [2] $end
$var wire 1 0 code_test4 [1] $end
$var wire 1 1 code_test4 [0] $end
$var wire 1 2 index_test [2] $end
$var wire 1 3 index_test [1] $end
$var wire 1 4 index_test [0] $end
$var wire 1 5 led [0] $end
$var wire 1 6 led [1] $end
$var wire 1 7 led [2] $end
$var wire 1 8 led [3] $end
$var wire 1 9 led [4] $end
$var wire 1 : sampler $end
$scope module i1 $end
$var wire 1 ; gnd $end
$var wire 1 < vcc $end
$var wire 1 = unknown $end
$var tri1 1 > devclrn $end
$var tri1 1 ? devpor $end
$var tri1 1 @ devoe $end
$var wire 1 A brightness_loop:0:led_intensity_module|c[3]~11_combout $end
$var wire 1 B brightness_loop:0:led_intensity_module|c[5]~15_combout $end
$var wire 1 C code_writer|Add1~6_combout $end
$var wire 1 D code_writer|Add1~10_combout $end
$var wire 1 E code_writer|Add1~12_combout $end
$var wire 1 F code_writer|Add1~16_combout $end
$var wire 1 G code_writer|Add1~20_combout $end
$var wire 1 H code_writer|Add1~24_combout $end
$var wire 1 I code_writer|Add1~38_combout $end
$var wire 1 J code_writer|Add1~48_combout $end
$var wire 1 K code_writer|LessThan0~0_combout $end
$var wire 1 L code_writer|LessThan0~1_combout $end
$var wire 1 M code_writer|LessThan0~2_combout $end
$var wire 1 N code_writer|LessThan0~3_combout $end
$var wire 1 O code_writer|LessThan0~4_combout $end
$var wire 1 P code_writer|LessThan0~5_combout $end
$var wire 1 Q clock~clkctrl_outclk $end
$var wire 1 R brightness_loop:0:led_intensity_module|c[1]~7_combout $end
$var wire 1 S brightness_loop:0:led_intensity_module|c[1]~8 $end
$var wire 1 T brightness_loop:0:led_intensity_module|c[2]~10 $end
$var wire 1 U brightness_loop:0:led_intensity_module|c[3]~12 $end
$var wire 1 V brightness_loop:0:led_intensity_module|c[4]~13_combout $end
$var wire 1 W brightness_loop:0:led_intensity_module|c[4]~14 $end
$var wire 1 X brightness_loop:0:led_intensity_module|c[5]~16 $end
$var wire 1 Y brightness_loop:0:led_intensity_module|c[6]~17_combout $end
$var wire 1 Z brightness_loop:0:led_intensity_module|c[6]~18 $end
$var wire 1 [ brightness_loop:0:led_intensity_module|c[7]~19_combout $end
$var wire 1 \ brightness_loop:4:led_intensity_module|LessThan0~1_combout $end
$var wire 1 ] brightness_loop:0:led_intensity_module|c[0]~21_combout $end
$var wire 1 ^ brightness_loop:0:led_intensity_module|c[2]~9_combout $end
$var wire 1 _ brightness_loop:4:led_intensity_module|LessThan0~0_combout $end
$var wire 1 ` brightness_loop:4:led_intensity_module|LessThan0~2_combout $end
$var wire 1 a input_button~combout $end
$var wire 1 b code_writer|Add1~0_combout $end
$var wire 1 c code_writer|Add1~1 $end
$var wire 1 d code_writer|Add1~2_combout $end
$var wire 1 e code_writer|Add1~3 $end
$var wire 1 f code_writer|Add1~4_combout $end
$var wire 1 g code_writer|Add1~5 $end
$var wire 1 h code_writer|Add1~7 $end
$var wire 1 i code_writer|Add1~8_combout $end
$var wire 1 j code_writer|Add1~9 $end
$var wire 1 k code_writer|Add1~11 $end
$var wire 1 l code_writer|Add1~13 $end
$var wire 1 m code_writer|Add1~14_combout $end
$var wire 1 n code_writer|Add1~15 $end
$var wire 1 o code_writer|Add1~17 $end
$var wire 1 p code_writer|Add1~18_combout $end
$var wire 1 q code_writer|Add1~19 $end
$var wire 1 r code_writer|Add1~21 $end
$var wire 1 s code_writer|Add1~22_combout $end
$var wire 1 t code_writer|Add1~23 $end
$var wire 1 u code_writer|Add1~25 $end
$var wire 1 v code_writer|Add1~26_combout $end
$var wire 1 w code_writer|Add1~27 $end
$var wire 1 x code_writer|Add1~28_combout $end
$var wire 1 y code_writer|Add1~29 $end
$var wire 1 z code_writer|Add1~30_combout $end
$var wire 1 { code_writer|Add1~31 $end
$var wire 1 | code_writer|Add1~32_combout $end
$var wire 1 } code_writer|Add1~33 $end
$var wire 1 ~ code_writer|Add1~34_combout $end
$var wire 1 !! code_writer|Add1~35 $end
$var wire 1 "! code_writer|Add1~36_combout $end
$var wire 1 #! code_writer|Add1~37 $end
$var wire 1 $! code_writer|Add1~39 $end
$var wire 1 %! code_writer|Add1~40_combout $end
$var wire 1 &! code_writer|Add1~41 $end
$var wire 1 '! code_writer|Add1~43 $end
$var wire 1 (! code_writer|Add1~45 $end
$var wire 1 )! code_writer|Add1~46_combout $end
$var wire 1 *! code_writer|Add1~47 $end
$var wire 1 +! code_writer|Add1~49 $end
$var wire 1 ,! code_writer|Add1~50_combout $end
$var wire 1 -! code_writer|Add1~51 $end
$var wire 1 .! code_writer|Add1~53 $end
$var wire 1 /! code_writer|Add1~54_combout $end
$var wire 1 0! code_writer|Add1~55 $end
$var wire 1 1! code_writer|Add1~57 $end
$var wire 1 2! code_writer|Add1~58_combout $end
$var wire 1 3! code_writer|Add1~59 $end
$var wire 1 4! code_writer|Add1~60_combout $end
$var wire 1 5! code_writer|Add1~61 $end
$var wire 1 6! code_writer|Add1~62_combout $end
$var wire 1 7! code_writer|Add1~44_combout $end
$var wire 1 8! code_writer|Add1~42_combout $end
$var wire 1 9! code_writer|LessThan0~6_combout $end
$var wire 1 :! code_writer|LessThan0~7_combout $end
$var wire 1 ;! code_writer|Add1~56_combout $end
$var wire 1 <! code_writer|Add1~52_combout $end
$var wire 1 =! code_writer|LessThan0~8_combout $end
$var wire 1 >! code_writer|LessThan0~9_combout $end
$var wire 1 ?! code_writer|LessThan0~10_combout $end
$var wire 1 @! code_writer|output_value[1]~feeder_combout $end
$var wire 1 A! brightness_loop:0:led_intensity_module|LessThan0~0_combout $end
$var wire 1 B! brightness_loop:0:led_intensity_module|LessThan0~1_combout $end
$var wire 1 C! clock~combout $end
$var wire 1 D! code_writer|output_value[0]~0_combout $end
$var wire 1 E! code_writer|index_out[2]~0_combout $end
$var wire 1 F! code_writer|index_out[2]~0clkctrl_outclk $end
$var wire 1 G! code_writer|Mux1~0_combout $end
$var wire 1 H! code_writer|Mux0~0_combout $end
$var wire 1 I! code_writer|Mux2~0_combout $end
$var wire 1 J! code_writer|output_value [1] $end
$var wire 1 K! code_writer|output_value [0] $end
$var wire 1 L! brightness_loop:0:led_intensity_module|c [7] $end
$var wire 1 M! brightness_loop:0:led_intensity_module|c [6] $end
$var wire 1 N! brightness_loop:0:led_intensity_module|c [5] $end
$var wire 1 O! brightness_loop:0:led_intensity_module|c [4] $end
$var wire 1 P! brightness_loop:0:led_intensity_module|c [3] $end
$var wire 1 Q! brightness_loop:0:led_intensity_module|c [2] $end
$var wire 1 R! brightness_loop:0:led_intensity_module|c [1] $end
$var wire 1 S! brightness_loop:0:led_intensity_module|c [0] $end
$var wire 1 T! code_writer|index_out [2] $end
$var wire 1 U! code_writer|index_out [1] $end
$var wire 1 V! code_writer|index_out [0] $end
$var wire 1 W! code_writer|count [31] $end
$var wire 1 X! code_writer|count [30] $end
$var wire 1 Y! code_writer|count [29] $end
$var wire 1 Z! code_writer|count [28] $end
$var wire 1 [! code_writer|count [27] $end
$var wire 1 \! code_writer|count [26] $end
$var wire 1 ]! code_writer|count [25] $end
$var wire 1 ^! code_writer|count [24] $end
$var wire 1 _! code_writer|count [23] $end
$var wire 1 `! code_writer|count [22] $end
$var wire 1 a! code_writer|count [21] $end
$var wire 1 b! code_writer|count [20] $end
$var wire 1 c! code_writer|count [19] $end
$var wire 1 d! code_writer|count [18] $end
$var wire 1 e! code_writer|count [17] $end
$var wire 1 f! code_writer|count [16] $end
$var wire 1 g! code_writer|count [15] $end
$var wire 1 h! code_writer|count [14] $end
$var wire 1 i! code_writer|count [13] $end
$var wire 1 j! code_writer|count [12] $end
$var wire 1 k! code_writer|count [11] $end
$var wire 1 l! code_writer|count [10] $end
$var wire 1 m! code_writer|count [9] $end
$var wire 1 n! code_writer|count [8] $end
$var wire 1 o! code_writer|count [7] $end
$var wire 1 p! code_writer|count [6] $end
$var wire 1 q! code_writer|count [5] $end
$var wire 1 r! code_writer|count [4] $end
$var wire 1 s! code_writer|count [3] $end
$var wire 1 t! code_writer|count [2] $end
$var wire 1 u! code_writer|count [1] $end
$var wire 1 v! code_writer|count [0] $end
$upscope $end
$upscope $end
$enddefinitions $end
#0
$dumpvars
0!
1"
0%
0$
0#
0(
0'
0&
0+
0*
0)
0.
0-
0,
01
00
0/
x4
x3
x2
09
08
07
06
05
x:
0;
1<
x=
1>
1?
1@
0A
0B
0C
0D
0E
0F
0G
0H
0I
0J
0K
0L
0M
0N
0O
0P
0Q
0R
0S
1T
0U
0V
1W
0X
0Y
1Z
0[
1\
1]
0^
1_
0`
1a
1b
0c
0d
1e
0f
0g
1h
0i
0j
1k
0l
0m
1n
0o
0p
1q
0r
0s
1t
0u
0v
1w
0x
0y
0z
1{
0|
0}
0~
1!!
0"!
0#!
1$!
0%!
0&!
1'!
0(!
0)!
1*!
0+!
0,!
1-!
0.!
0/!
10!
01!
02!
13!
04!
05!
06!
07!
08!
09!
0:!
0;!
0<!
0=!
0>!
0?!
0@!
0A!
0B!
0C!
1D!
0E!
0F!
xG!
xH!
xI!
0K!
0J!
0S!
0R!
0Q!
0P!
0O!
0N!
0M!
0L!
xV!
xU!
xT!
0v!
0u!
0t!
0s!
0r!
0q!
0p!
0o!
0n!
0m!
0l!
0k!
0j!
0i!
0h!
0g!
0f!
0e!
0d!
0c!
0b!
0a!
0`!
0_!
0^!
0]!
0\!
0[!
0Z!
0Y!
0X!
0W!
$end
#1000
1!
1C!
1Q
0:
#2000
0!
0C!
0Q
1:
1S!
0_
0]
1R
1A!
1`
1B!
16
17
18
19
15
#3000
1!
1C!
1Q
0:
#4000
0!
0C!
0Q
1:
1R!
0S!
1]
#5000
1!
1C!
1Q
0:
#6000
0!
0C!
0Q
1:
1S!
0]
1S
0R
1^
#7000
1!
1C!
1Q
0:
#8000
0!
0C!
0Q
1:
0R!
0S!
1Q!
0S
1]
0T
0^
1T
1^
1A
0A
#9000
1!
1C!
1Q
0:
#10000
0!
0C!
0Q
1:
1S!
0]
1R
#11000
1!
1C!
1Q
0:
#12000
0!
0C!
0Q
1:
1R!
0S!
1]
#13000
1!
1C!
1Q
0:
#14000
0!
0C!
0Q
1:
1S!
0]
1S
0R
0T
0^
1A
#15000
1!
1C!
1Q
0:
#16000
0!
0C!
0Q
1:
1P!
0R!
0S!
0Q!
1U
0A
0S
1]
1T
1^
1V
0^
0U
1A
0V
#17000
1!
1C!
1Q
0:
#18000
0!
0C!
0Q
1:
1S!
0]
1R
#19000
1!
1C!
1Q
0:
#20000
0!
0C!
0Q
1:
1R!
0S!
1]
#21000
1!
1C!
1Q
0:
#22000
0!
0C!
0Q
1:
1S!
0]
1S
0R
1^
#23000
1!
1C!
1Q
0:
#24000
0!
0C!
0Q
1:
0R!
0S!
1Q!
0S
1]
0T
0^
1T
1^
1U
0A
0U
1A
1V
0V
#25000
1!
1C!
1Q
0:
#26000
0!
0C!
0Q
1:
1S!
0]
1R
#27000
1!
1C!
1Q
0:
#28000
0!
0C!
0Q
1:
1R!
0S!
1]
#29000
1!
1C!
1Q
0:
#30000
0!
0C!
0Q
1:
1S!
0]
1S
0R
0T
0^
1U
0A
1V
#31000
1!
1C!
1Q
0:
#32000
0!
0C!
0Q
1:
0P!
0R!
1O!
0S!
0Q!
1_
0U
1A
0S
0W
0V
1]
1T
1^
1W
1V
0^
1B
0A
0B
#33000
1!
1C!
1Q
0:
#34000
0!
0C!
0Q
1:
1S!
0_
0]
1R
#35000
1!
1C!
1Q
0:
#36000
0!
0C!
0Q
1:
1R!
0S!
1]
#37000
1!
1C!
1Q
0:
#38000
0!
0C!
0Q
1:
1S!
0]
1S
0R
1^
#39000
1!
1C!
1Q
0:
#40000
0!
0C!
0Q
1:
0R!
0S!
1Q!
0S
1]
0T
0^
1T
1^
1A
0A
#41000
1!
1C!
1Q
0:
#42000
0!
0C!
0Q
1:
1S!
0]
1R
#43000
1!
1C!
1Q
0:
#44000
0!
0C!
0Q
1:
1R!
0S!
1]
#45000
1!
1C!
1Q
0:
#46000
0!
0C!
0Q
1:
1S!
0]
1S
0R
0T
0^
1A
#47000
1!
1C!
1Q
0:
#48000
0!
0C!
0Q
1:
1P!
0R!
0S!
0Q!
1U
0A
0S
1]
1T
1^
0W
0V
0^
0U
1A
1B
1W
1V
0B
#49000
1!
1C!
1Q
0:
#50000
0!
0C!
0Q
1:
1S!
0]
1R
#51000
1!
1C!
1Q
0:
#52000
0!
0C!
0Q
1:
1R!
0S!
1]
#53000
1!
1C!
1Q
0:
#54000
0!
0C!
0Q
1:
1S!
0]
1S
0R
1^
#55000
1!
1C!
1Q
0:
#56000
0!
0C!
0Q
1:
0R!
0S!
1Q!
0S
1]
0T
0^
1T
1^
1U
0A
0U
1A
0W
0V
1W
1V
1B
0B
#57000
1!
1C!
1Q
0:
#58000
0!
0C!
0Q
1:
1S!
0]
1R
#59000
1!
1C!
1Q
0:
#60000
0!
0C!
0Q
1:
1R!
0S!
1]
#61000
1!
1C!
1Q
0:
#62000
0!
0C!
0Q
1:
1S!
0]
1S
0R
0T
0^
1U
0A
0W
0V
1B
#63000
1!
1C!
1Q
0:
#64000
0!
0C!
0Q
1:
0P!
1N!
0R!
0O!
0S!
0Q!
1_
0U
1A
0\
1X
0B
0S
1W
1V
1]
1T
1^
0V
1Y
0^
0X
1B
0A
0Y
#65000
1!
1C!
1Q
0:
#66000
0!
0C!
0Q
1:
1S!
0_
0]
1R
#67000
1!
1C!
1Q
0:
#68000
0!
0C!
0Q
1:
1R!
0S!
1]
#69000
1!
1C!
1Q
0:
#70000
0!
0C!
0Q
1:
1S!
0]
1S
0R
1^
#71000
1!
1C!
1Q
0:
#72000
0!
0C!
0Q
1:
0R!
0S!
1Q!
0S
1]
0T
0^
1T
1^
1A
0A
#73000
1!
1C!
1Q
0:
#74000
0!
0C!
0Q
1:
1S!
0]
1R
#75000
1!
1C!
1Q
0:
#76000
0!
0C!
0Q
1:
1R!
0S!
1]
#77000
1!
1C!
1Q
0:
#78000
0!
0C!
0Q
1:
1S!
0]
1S
0R
0T
0^
1A
#79000
1!
1C!
1Q
0:
#80000
0!
0C!
0Q
1:
1P!
0R!
0S!
0Q!
1U
0A
0S
1]
1T
1^
1V
0^
0U
1A
0V
#81000
1!
1C!
1Q
0:
#82000
0!
0C!
0Q
1:
1S!
0]
1R
#83000
1!
1C!
1Q
0:
#84000
0!
0C!
0Q
1:
1R!
0S!
1]
#85000
1!
1C!
1Q
0:
#86000
0!
0C!
0Q
1:
1S!
0]
1S
0R
1^
#87000
1!
1C!
1Q
0:
#88000
0!
0C!
0Q
1:
0R!
0S!
1Q!
0S
1]
0T
0^
1T
1^
1U
0A
0U
1A
1V
0V
#89000
1!
1C!
1Q
0:
#90000
0!
0C!
0Q
1:
1S!
0]
1R
#91000
1!
1C!
1Q
0:
#92000
0!
0C!
0Q
1:
1R!
0S!
1]
#93000
1!
1C!
1Q
0:
#94000
0!
0C!
0Q
1:
1S!
0]
1S
0R
0T
0^
1U
0A
1V
#95000
1!
1C!
1Q
0:
#96000
0!
0C!
0Q
1:
0P!
0R!
1O!
0S!
0Q!
1_
0U
1A
0S
0W
0V
1]
1T
1^
1W
1V
0^
1X
0B
0A
0X
1B
1Y
0Y
#97000
1!
1C!
1Q
0:
#98000
0!
0C!
0Q
1:
1S!
0_
0]
1R
#99000
1!
1C!
1Q
0:
#100000
0"
0!
0a
0C!
0Q
1:
1K!
1R!
0S!
1v!
1]
1c
0b
1%
1d
#101000
1!
1C!
1Q
0:
#102000
0!
0C!
0Q
1:
1S!
0v!
1u!
0]
1S
0R
0c
1b
0e
0d
1^
1e
1d
1f
0f
#103000
1!
1C!
1Q
0:
#104000
0!
0C!
0Q
1:
0R!
0S!
1Q!
1v!
0S
1]
0T
0^
1c
0b
1T
1^
1A
0e
0d
0A
1f
#105000
1!
1C!
1Q
0:
#106000
0!
0C!
0Q
1:
1S!
0v!
0u!
1t!
0]
1R
0c
1b
1e
1d
1g
0f
0d
0g
1f
1C
1M
0C
0M
#107000
1!
1C!
1Q
0:
#108000
0!
0C!
0Q
1:
1R!
0S!
1v!
1]
1c
0b
1d
#109000
1!
1C!
1Q
0:
#110000
0!
0C!
0Q
1:
1S!
0v!
1u!
0]
1S
0R
0c
1b
0e
0d
0T
0^
1e
1d
1g
0f
1A
0g
1f
1C
0C
1M
0M
#111000
1!
1C!
1Q
0:
#112000
0!
0C!
0Q
1:
1P!
0R!
0S!
0Q!
1v!
1U
0A
0S
1]
1T
1^
1c
0b
0W
0V
0^
0U
1A
0e
0d
1X
0B
1W
1V
1g
0f
1Y
0X
1B
1C
0Y
#113000
1!
1C!
1Q
0:
#114000
0!
0C!
0Q
1:
1s!
1S!
0v!
0u!
0t!
0h
0C
0]
1R
0c
1b
1e
1d
0g
1f
1i
0d
0f
1h
1C
0i
#115000
1!
1C!
1Q
0:
#116000
0!
0C!
0Q
1:
1R!
0S!
1v!
1]
1c
0b
1d
#117000
1!
1C!
1Q
0:
#118000
0!
0C!
0Q
1:
1S!
0v!
1u!
0]
1S
0R
0c
1b
0e
0d
1^
1e
1d
1f
0f
1M
#119000
1!
1C!
1Q
0:
#120000
0!
0C!
0Q
1:
0R!
0S!
1Q!
1v!
0S
1]
0T
0^
1c
0b
1T
1^
1U
0A
0e
0d
0M
0U
1A
0W
0V
1f
1W
1V
1X
0B
1M
0X
1B
1Y
0Y
#121000
1!
1C!
1Q
0:
#122000
0!
0C!
0Q
1:
1S!
0v!
0u!
1t!
0]
1R
0c
1b
1e
1d
1g
0f
0d
0g
1f
0h
0C
0M
1h
1C
1i
0i
1M
#123000
1!
1C!
1Q
0:
#124000
0!
0C!
0Q
1:
1R!
0S!
1v!
1]
1c
0b
1d
#125000
1!
1C!
1Q
0:
#126000
0!
0C!
0Q
1:
1S!
0v!
1u!
0]
1S
0R
0c
1b
0e
0d
0T
0^
1e
1d
1g
0f
1U
0A
0g
1f
0h
0C
0W
0V
1h
1C
0M
1i
1X
0B
0i
1M
1Y
#127000
1!
1C!
1Q
0:
#128000
0!
0C!
0Q
1:
0P!
0N!
0R!
0O!
1M!
0S!
0Q!
1v!
1_
0U
1A
0X
1B
0S
1W
1V
0Z
0Y
1]
1T
1^
1c
0b
0V
1Z
1Y
0^
0B
1[
0A
0e
0d
0[
1g
0f
0h
0C
0M
1i
#129000
1!
1C!
1Q
0:
#130000
0!
0C!
0Q
1:
0s!
1S!
0v!
0u!
0t!
1r!
1h
1C
0_
0]
1R
0c
1b
1e
1d
0g
1f
1j
0i
0j
1i
1M
0d
0f
0C
1D
0D
0M
#131000
1!
1C!
1Q
0:
#132000
0!
0C!
0Q
1:
1R!
0S!
1v!
1]
1c
0b
1d
#133000
1!
1C!
1Q
0:
#134000
0!
0C!
0Q
1:
1S!
0v!
1u!
0]
1S
0R
0c
1b
0e
0d
1^
1e
1d
1f
0f
#135000
1!
1C!
1Q
0:
#136000
0!
0C!
0Q
1:
0R!
0S!
1Q!
1v!
0S
1]
0T
0^
1c
0b
1T
1^
1A
0e
0d
0A
1f
#137000
1!
1C!
1Q
0:
#138000
0!
0C!
0Q
1:
1S!
0v!
0u!
1t!
0]
1R
0c
1b
1e
1d
1g
0f
0d
0g
1f
1C
1M
0C
0M
#139000
1!
1C!
1Q
0:
#140000
0!
0C!
0Q
1:
1R!
0S!
1v!
1]
1c
0b
1d
#141000
1!
1C!
1Q
0:
#142000
0!
0C!
0Q
1:
1S!
0v!
1u!
0]
1S
0R
0c
1b
0e
0d
0T
0^
1e
1d
1g
0f
1A
0g
1f
1C
0C
1M
0M
#143000
1!
1C!
1Q
0:
#144000
0!
0C!
0Q
1:
1P!
0R!
0S!
0Q!
1v!
1U
0A
0S
1]
1T
1^
1c
0b
1V
0^
0U
1A
0e
0d
0V
1g
0f
1C
#145000
1!
1C!
1Q
0:
#146000
0!
0C!
0Q
1:
1s!
1S!
0v!
0u!
0t!
0h
0C
0]
1R
0c
1b
1e
1d
0g
1f
1j
0i
0d
0f
1h
1C
1D
0j
1i
0D
#147000
1!
1C!
1Q
0:
#148000
0!
0C!
0Q
1:
1R!
0S!
1v!
1]
1c
0b
1d
#149000
1!
1C!
1Q
0:
#150000
0!
0C!
0Q
1:
1S!
0v!
1u!
0]
1S
0R
0c
1b
0e
0d
1^
1e
1d
1f
0f
1M
#151000
1!
1C!
1Q
0:
#152000
0!
0C!
0Q
1:
0R!
0S!
1Q!
1v!
0S
1]
0T
0^
1c
0b
1T
1^
1U
0A
0e
0d
0M
0U
1A
1V
1f
0V
1M
#153000
1!
1C!
1Q
0:
#154000
0!
0C!
0Q
1:
1S!
0v!
0u!
1t!
0]
1R
0c
1b
1e
1d
1g
0f
0d
0g
1f
0h
0C
0M
1h
1C
1j
0i
0j
1i
1M
1D
0D
#155000
1!
1C!
1Q
0:
#156000
0!
0C!
0Q
1:
1R!
0S!
1v!
1]
1c
0b
1d
#157000
1!
1C!
1Q
0:
#158000
0!
0C!
0Q
1:
1S!
0v!
1u!
0]
1S
0R
0c
1b
0e
0d
0T
0^
1e
1d
1g
0f
1U
0A
0g
1f
0h
0C
1V
1h
1C
0M
1j
0i
0j
1i
1M
1D
0D
#159000
1!
1C!
1Q
0:
#160000
0!
0C!
0Q
1:
0P!
0R!
1O!
0S!
0Q!
1v!
1_
0U
1A
0S
0W
0V
1]
1T
1^
1c
0b
1W
1V
0^
1B
0A
0e
0d
0B
1g
0f
0h
0C
0M
1j
0i
1D
#161000
1!
1C!
1Q
0:
#162000
0!
0C!
0Q
1:
1q!
0s!
1S!
0v!
0u!
0t!
0r!
0k
0D
1h
1C
0_
0]
1R
0c
1b
1e
1d
0g
1f
0j
1i
1E
0i
1M
0d
0f
0C
1k
1D
0M
0E
#163000
1!
1C!
1Q
0:
#164000
0!
0C!
0Q
1:
1R!
0S!
1v!
1]
1c
0b
1d
#165000
1!
1C!
1Q
0:
#166000
0!
0C!
0Q
1:
1S!
0v!
1u!
0]
1S
0R
0c
1b
0e
0d
1^
1e
1d
1f
0f
#167000
1!
1C!
1Q
0:
#168000
0!
0C!
0Q
1:
0R!
0S!
1Q!
1v!
0S
1]
0T
0^
1c
0b
1T
1^
1A
0e
0d
0A
1f
#169000
1!
1C!
1Q
0:
#170000
0!
0C!
0Q
1:
1S!
0v!
0u!
1t!
0]
1R
0c
1b
1e
1d
1g
0f
0d
0g
1f
1C
1M
0C
0M
#171000
1!
1C!
1Q
0:
#172000
0!
0C!
0Q
1:
1R!
0S!
1v!
1]
1c
0b
1d
#173000
1!
1C!
1Q
0:
#174000
0!
0C!
0Q
1:
1S!
0v!
1u!
0]
1S
0R
0c
1b
0e
0d
0T
0^
1e
1d
1g
0f
1A
0g
1f
1C
0C
1M
0M
#175000
1!
1C!
1Q
0:
#176000
0!
0C!
0Q
1:
1P!
0R!
0S!
0Q!
1v!
1U
0A
0S
1]
1T
1^
1c
0b
0W
0V
0^
0U
1A
0e
0d
1B
1W
1V
1g
0f
0B
1C
#177000
1!
1C!
1Q
0:
#178000
0!
0C!
0Q
1:
1s!
1S!
0v!
0u!
0t!
0h
0C
0]
1R
0c
1b
1e
1d
0g
1f
1i
0d
0f
1h
1C
0i
#179000
1!
1C!
1Q
0:
#180000
0!
0C!
0Q
1:
1R!
0S!
1v!
1]
1c
0b
1d
#181000
1!
1C!
1Q
0:
#182000
0!
0C!
0Q
1:
1S!
0v!
1u!
0]
1S
0R
0c
1b
0e
0d
1^
1e
1d
1f
0f
1M
#183000
1!
1C!
1Q
0:
#184000
0!
0C!
0Q
1:
0R!
0S!
1Q!
1v!
0S
1]
0T
0^
1c
0b
1T
1^
1U
0A
0e
0d
0M
0U
1A
0W
0V
1f
1W
1V
1B
1M
0B
#185000
1!
1C!
1Q
0:
#186000
0!
0C!
0Q
1:
1S!
0v!
0u!
1t!
0]
1R
0c
1b
1e
1d
1g
0f
0d
0g
1f
0h
0C
0M
1h
1C
1i
0i
1M
#187000
1!
1C!
1Q
0:
#188000
0!
0C!
0Q
1:
1R!
0S!
1v!
1]
1c
0b
1d
#189000
1!
1C!
1Q
0:
#190000
0!
0C!
0Q
1:
1S!
0v!
1u!
0]
1S
0R
0c
1b
0e
0d
0T
0^
1e
1d
1g
0f
1U
0A
0g
1f
0h
0C
0W
0V
1h
1C
0M
1i
1B
0i
1M
#191000
1!
1C!
1Q
0:
#192000
0!
0C!
0Q
1:
0P!
1N!
0R!
0O!
0S!
0Q!
1v!
1_
0U
1A
1X
0B
0S
1W
1V
1]
1T
1^
1c
0b
0V
0Z
0Y
0^
0X
1B
0A
0e
0d
1[
1Z
1Y
1g
0f
0[
0h
0C
0M
1i
#193000
1!
1C!
1Q
0:
#194000
0!
0C!
0Q
1:
0s!
1S!
0v!
0u!
0t!
1r!
1h
1C
0_
0]
1R
0c
1b
1e
1d
0g
1f
1j
0i
0j
1i
1M
0d
0f
0C
0k
0D
1k
1D
0M
1E
0E
#195000
1!
1C!
1Q
0:
#196000
0!
0C!
0Q
1:
1R!
0S!
1v!
1]
1c
0b
1d
#197000
1!
1C!
1Q
0:
#198000
0!
0C!
0Q
1:
1S!
0v!
1u!
0]
1S
0R
0c
1b
0e
0d
1^
1e
1d
1f
0f
#199000
1!
1C!
1Q
0:
#200000
0!
0C!
0Q
1:
0R!
0S!
1Q!
1v!
0S
1]
0T
0^
1c
0b
1T
1^
1A
0e
0d
0A
1f
#201000
1!
1C!
1Q
0:
#202000
0!
0C!
0Q
1:
1S!
0v!
0u!
1t!
0]
1R
0c
1b
1e
1d
1g
0f
0d
0g
1f
1C
1M
0C
0M
#203000
1!
1C!
1Q
0:
#204000
0!
0C!
0Q
1:
1R!
0S!
1v!
1]
1c
0b
1d
#205000
1!
1C!
1Q
0:
#206000
0!
0C!
0Q
1:
1S!
0v!
1u!
0]
1S
0R
0c
1b
0e
0d
0T
0^
1e
1d
1g
0f
1A
0g
1f
1C
0C
1M
0M
#207000
1!
1C!
1Q
0:
#208000
0!
0C!
0Q
1:
1P!
0R!
0S!
0Q!
1v!
1U
0A
0S
1]
1T
1^
1c
0b
1V
0^
0U
1A
0e
0d
0V
1g
0f
1C
#209000
1!
1C!
1Q
0:
#210000
0!
0C!
0Q
1:
1s!
1S!
0v!
0u!
0t!
0h
0C
0]
1R
0c
1b
1e
1d
0g
1f
1j
0i
0d
0f
1h
1C
0k
0D
0j
1i
1E
1k
1D
0E
#211000
1!
1C!
1Q
0:
#212000
0!
0C!
0Q
1:
1R!
0S!
1v!
1]
1c
0b
1d
#213000
1!
1C!
1Q
0:
#214000
0!
0C!
0Q
1:
1S!
0v!
1u!
0]
1S
0R
0c
1b
0e
0d
1^
1e
1d
1f
0f
1M
#215000
1!
1C!
1Q
0:
#216000
0!
0C!
0Q
1:
0R!
0S!
1Q!
1v!
0S
1]
0T
0^
1c
0b
1T
1^
1U
0A
0e
0d
0M
0U
1A
1V
1f
0V
1M
#217000
1!
1C!
1Q
0:
#218000
0!
0C!
0Q
1:
1S!
0v!
0u!
1t!
0]
1R
0c
1b
1e
1d
1g
0f
0d
0g
1f
0h
0C
0M
1h
1C
1j
0i
0j
1i
1M
0k
0D
1k
1D
1E
0E
#219000
1!
1C!
1Q
0:
#220000
0!
0C!
0Q
1:
1R!
0S!
1v!
1]
1c
0b
1d
#221000
1!
1C!
1Q
0:
#222000
0!
0C!
0Q
1:
1S!
0v!
1u!
0]
1S
0R
0c
1b
0e
0d
0T
0^
1e
1d
1g
0f
1U
0A
0g
1f
0h
0C
1V
1h
1C
0M
1j
0i
0j
1i
1M
0k
0D
1k
1D
1E
0E
#223000
1!
1C!
1Q
0:
#224000
0!
0C!
0Q
1:
0P!
0R!
1O!
0S!
0Q!
1v!
1_
0U
1A
0S
0W
0V
1]
1T
1^
1c
0b
1W
1V
0^
1X
0B
0A
0e
0d
0X
1B
0Z
0Y
1g
0f
1Z
1Y
1[
0h
0C
0M
0[
1j
0i
0k
0D
1E
#225000
1!
1C!
1Q
0:
#226000
0!
0C!
0Q
1:
1p!
0q!
0s!
1S!
0v!
0u!
0t!
0r!
1l
0E
1k
1D
1h
1C
0_
0]
1R
0c
1b
1e
1d
0g
1f
0j
1i
1m
0l
1E
0i
1M
0d
0f
0C
0D
0m
0M
#227000
1!
1C!
1Q
0:
#228000
0!
0C!
0Q
1:
1R!
0S!
1v!
1]
1c
0b
1d
#229000
1!
1C!
1Q
0:
#230000
0!
0C!
0Q
1:
1S!
0v!
1u!
0]
1S
0R
0c
1b
0e
0d
1^
1e
1d
1f
0f
#231000
1!
1C!
1Q
0:
#232000
0!
0C!
0Q
1:
0R!
0S!
1Q!
1v!
0S
1]
0T
0^
1c
0b
1T
1^
1A
0e
0d
0A
1f
#233000
1!
1C!
1Q
0:
#234000
0!
0C!
0Q
1:
1S!
0v!
0u!
1t!
0]
1R
0c
1b
1e
1d
1g
0f
0d
0g
1f
1C
1M
0C
0M
#235000
1!
1C!
1Q
0:
#236000
0!
0C!
0Q
1:
1R!
0S!
1v!
1]
1c
0b
1d
