short_or_long_signal_identifier/simulation/qsim/short_or_long_signal_identifier.msim.vcd
$comment
	File created using the following command:
		vcd file short_or_long_signal_identifier.msim.vcd -direction
$end
$date
	Fri Aug 23 18:39:24 2019
$end
$version
	ModelSim Version 10.1d
$end
$timescale
	1ps
$end
$scope module short_or_long_signal_identifier_vlg_vec_tst $end
$var reg 1 ! backspace $end
$var reg 1 " button_input $end
$var reg 1 # clear $end
$var reg 1 $ clock $end
$var wire 1 % backspace_ready_signal $end
$var wire 1 & code_test0 [1] $end
$var wire 1 ' code_test0 [0] $end
$var wire 1 ( code_test1 [1] $end
$var wire 1 ) code_test1 [0] $end
$var wire 1 * code_test2 [1] $end
$var wire 1 + code_test2 [0] $end
$var wire 1 , code_test3 [1] $end
$var wire 1 - code_test3 [0] $end
$var wire 1 . code_test4 [1] $end
$var wire 1 / code_test4 [0] $end
$var wire 1 0 index_test [2] $end
$var wire 1 1 index_test [1] $end
$var wire 1 2 index_test [0] $end
$var wire 1 3 sampler $end
$scope module i1 $end
$var wire 1 4 gnd $end
$var wire 1 5 vcc $end
$var wire 1 6 unknown $end
$var tri1 1 7 devclrn $end
$var tri1 1 8 devpor $end
$var tri1 1 9 devoe $end
$var wire 1 : Add3~8_combout $end
$var wire 1 ; Add3~10_combout $end
$var wire 1 < Add3~12_combout $end
$var wire 1 = Add3~14_combout $end
$var wire 1 > Add3~16_combout $end
$var wire 1 ? Add3~34_combout $end
$var wire 1 @ backspace_wait_time[3]~40_combout $end
$var wire 1 A backspace_wait_time[5]~44_combout $end
$var wire 1 B backspace_wait_time[8]~50_combout $end
$var wire 1 C backspace_wait_time[19]~72_combout $end
$var wire 1 D backspace_wait_time[21]~76_combout $end
$var wire 1 E backspace_wait_time[24]~82_combout $end
$var wire 1 F code~0_combout $end
$var wire 1 G Equal0~0_combout $end
$var wire 1 H Equal0~5_combout $end
$var wire 1 I LessThan3~1_combout $end
$var wire 1 J LessThan3~5_combout $end
$var wire 1 K code[0][1]~6_combout $end
$var wire 1 L count~1_combout $end
$var wire 1 M count~3_combout $end
$var wire 1 N count~7_combout $end
$var wire 1 O count~10_combout $end
$var wire 1 P count~14_combout $end
$var wire 1 Q count~15_combout $end
$var wire 1 R count~16_combout $end
$var wire 1 S count~17_combout $end
$var wire 1 T count~19_combout $end
$var wire 1 U count~23_combout $end
$var wire 1 V count~24_combout $end
$var wire 1 W count~30_combout $end
$var wire 1 X clock~combout $end
$var wire 1 Y clock~clkctrl_outclk $end
$var wire 1 Z count~28_combout $end
$var wire 1 [ clear~combout $end
$var wire 1 \ clear~clkctrl_outclk $end
$var wire 1 ] backspace~combout $end
$var wire 1 ^ Add3~0_combout $end
$var wire 1 _ count~31_combout $end
$var wire 1 ` Add3~1 $end
$var wire 1 a Add3~3 $end
$var wire 1 b Add3~4_combout $end
$var wire 1 c count~29_combout $end
$var wire 1 d Add3~5 $end
$var wire 1 e Add3~6_combout $end
$var wire 1 f Add3~2_combout $end
$var wire 1 g LessThan3~0_combout $end
$var wire 1 h count~25_combout $end
$var wire 1 i count~26_combout $end
$var wire 1 j count~27_combout $end
$var wire 1 k Add3~7 $end
$var wire 1 l Add3~9 $end
$var wire 1 m Add3~11 $end
$var wire 1 n Add3~13 $end
$var wire 1 o Add3~15 $end
$var wire 1 p Add3~17 $end
$var wire 1 q Add3~18_combout $end
$var wire 1 r count~22_combout $end
$var wire 1 s Add3~19 $end
$var wire 1 t Add3~20_combout $end
$var wire 1 u count~21_combout $end
$var wire 1 v Add3~21 $end
$var wire 1 w Add3~22_combout $end
$var wire 1 x count~20_combout $end
$var wire 1 y Add3~23 $end
$var wire 1 z Add3~25 $end
$var wire 1 { Add3~26_combout $end
$var wire 1 | count~18_combout $end
$var wire 1 } Add3~27 $end
$var wire 1 ~ Add3~29 $end
$var wire 1 !! Add3~30_combout $end
$var wire 1 "! Add3~31 $end
$var wire 1 #! Add3~32_combout $end
$var wire 1 $! Add3~28_combout $end
$var wire 1 %! LessThan3~3_combout $end
$var wire 1 &! Add3~24_combout $end
$var wire 1 '! LessThan3~2_combout $end
$var wire 1 (! LessThan3~4_combout $end
$var wire 1 )! count~0_combout $end
$var wire 1 *! Add3~33 $end
$var wire 1 +! Add3~35 $end
$var wire 1 ,! Add3~36_combout $end
$var wire 1 -! count~13_combout $end
$var wire 1 .! Add3~37 $end
$var wire 1 /! Add3~38_combout $end
$var wire 1 0! count~12_combout $end
$var wire 1 1! Add3~39 $end
$var wire 1 2! Add3~40_combout $end
$var wire 1 3! count~11_combout $end
$var wire 1 4! Add3~41 $end
$var wire 1 5! Add3~43 $end
$var wire 1 6! Add3~44_combout $end
$var wire 1 7! count~9_combout $end
$var wire 1 8! Add3~45 $end
$var wire 1 9! Add3~46_combout $end
$var wire 1 :! count~8_combout $end
$var wire 1 ;! Add3~47 $end
$var wire 1 <! Add3~49 $end
$var wire 1 =! Add3~50_combout $end
$var wire 1 >! count~6_combout $end
$var wire 1 ?! Add3~51 $end
$var wire 1 @! Add3~52_combout $end
$var wire 1 A! count~5_combout $end
$var wire 1 B! Add3~53 $end
$var wire 1 C! Add3~54_combout $end
$var wire 1 D! count~4_combout $end
$var wire 1 E! Add3~55 $end
$var wire 1 F! Add3~57 $end
$var wire 1 G! Add3~58_combout $end
$var wire 1 H! count~2_combout $end
$var wire 1 I! Add3~59 $end
$var wire 1 J! Add3~61 $end
$var wire 1 K! Add3~62_combout $end
$var wire 1 L! Add3~48_combout $end
$var wire 1 M! Add3~42_combout $end
$var wire 1 N! LessThan3~6_combout $end
$var wire 1 O! Add3~56_combout $end
$var wire 1 P! LessThan3~7_combout $end
$var wire 1 Q! Add3~60_combout $end
$var wire 1 R! LessThan3~8_combout $end
$var wire 1 S! code~1_combout $end
$var wire 1 T! code~2_combout $end
$var wire 1 U! current_index~0_combout $end
$var wire 1 V! Decoder0~0_combout $end
$var wire 1 W! code[0][1]~3_combout $end
$var wire 1 X! code[0][1]~4_combout $end
$var wire 1 Y! backspace_wait_time[0]~32_combout $end
$var wire 1 Z! ~GND~combout $end
$var wire 1 [! backspace_wait_time[12]~34_combout $end
$var wire 1 \! backspace_wait_time[6]~46_combout $end
$var wire 1 ]! Equal0~1_combout $end
$var wire 1 ^! backspace_wait_time[12]~58_combout $end
$var wire 1 _! backspace~_wirecell_combout $end
$var wire 1 `! Equal0~3_combout $end
$var wire 1 a! backspace_wait_time[10]~54_combout $end
$var wire 1 b! Equal0~2_combout $end
$var wire 1 c! Equal0~4_combout $end
$var wire 1 d! Equal0~10_combout $end
$var wire 1 e! backspace_wait_time[12]~35_combout $end
$var wire 1 f! backspace_wait_time[0]~33 $end
$var wire 1 g! backspace_wait_time[1]~36_combout $end
$var wire 1 h! backspace_wait_time[1]~37 $end
$var wire 1 i! backspace_wait_time[2]~38_combout $end
$var wire 1 j! backspace_wait_time[2]~39 $end
$var wire 1 k! backspace_wait_time[3]~41 $end
$var wire 1 l! backspace_wait_time[4]~42_combout $end
$var wire 1 m! backspace_wait_time[4]~43 $end
$var wire 1 n! backspace_wait_time[5]~45 $end
$var wire 1 o! backspace_wait_time[6]~47 $end
$var wire 1 p! backspace_wait_time[7]~48_combout $end
$var wire 1 q! backspace_wait_time[7]~49 $end
$var wire 1 r! backspace_wait_time[8]~51 $end
$var wire 1 s! backspace_wait_time[9]~52_combout $end
$var wire 1 t! backspace_wait_time[9]~53 $end
$var wire 1 u! backspace_wait_time[10]~55 $end
$var wire 1 v! backspace_wait_time[11]~56_combout $end
$var wire 1 w! backspace_wait_time[11]~57 $end
$var wire 1 x! backspace_wait_time[12]~59 $end
$var wire 1 y! backspace_wait_time[13]~60_combout $end
$var wire 1 z! backspace_wait_time[13]~61 $end
$var wire 1 {! backspace_wait_time[14]~62_combout $end
$var wire 1 |! backspace_wait_time[14]~63 $end
$var wire 1 }! backspace_wait_time[15]~64_combout $end
$var wire 1 ~! backspace_wait_time[15]~65 $end
$var wire 1 !" backspace_wait_time[16]~66_combout $end
$var wire 1 "" backspace_wait_time[16]~67 $end
$var wire 1 #" backspace_wait_time[17]~68_combout $end
$var wire 1 $" backspace_wait_time[17]~69 $end
$var wire 1 %" backspace_wait_time[18]~70_combout $end
$var wire 1 &" backspace_wait_time[18]~71 $end
$var wire 1 '" backspace_wait_time[19]~73 $end
$var wire 1 (" backspace_wait_time[20]~74_combout $end
$var wire 1 )" backspace_wait_time[20]~75 $end
$var wire 1 *" backspace_wait_time[21]~77 $end
$var wire 1 +" backspace_wait_time[22]~79 $end
$var wire 1 ," backspace_wait_time[23]~80_combout $end
$var wire 1 -" backspace_wait_time[23]~81 $end
$var wire 1 ." backspace_wait_time[24]~83 $end
$var wire 1 /" backspace_wait_time[25]~84_combout $end
$var wire 1 0" backspace_wait_time[25]~85 $end
$var wire 1 1" backspace_wait_time[26]~87 $end
$var wire 1 2" backspace_wait_time[27]~88_combout $end
$var wire 1 3" backspace_wait_time[27]~89 $end
$var wire 1 4" backspace_wait_time[28]~91 $end
$var wire 1 5" backspace_wait_time[29]~92_combout $end
$var wire 1 6" backspace_wait_time[29]~93 $end
$var wire 1 7" backspace_wait_time[30]~94_combout $end
$var wire 1 8" backspace_wait_time[30]~95 $end
$var wire 1 9" backspace_wait_time[31]~96_combout $end
$var wire 1 :" backspace_wait_time[28]~90_combout $end
$var wire 1 ;" Equal0~8_combout $end
$var wire 1 <" backspace_wait_time[26]~86_combout $end
$var wire 1 =" Equal0~7_combout $end
$var wire 1 >" backspace_wait_time[22]~78_combout $end
$var wire 1 ?" Equal0~6_combout $end
$var wire 1 @" Equal0~9_combout $end
$var wire 1 A" process_0~1_combout $end
$var wire 1 B" code[0][1]~5_combout $end
$var wire 1 C" code[0][1]~7_combout $end
$var wire 1 D" code[0][0]~regout $end
$var wire 1 E" Mux1~0_combout $end
$var wire 1 F" code[3][1]~17_combout $end
$var wire 1 G" code[3][1]~18_combout $end
$var wire 1 H" code[3][1]~19_combout $end
$var wire 1 I" code[3][1]~20_combout $end
$var wire 1 J" code[3][0]~regout $end
$var wire 1 K" Decoder0~1_combout $end
$var wire 1 L" code[2][1]~14_combout $end
$var wire 1 M" code[2][1]~15_combout $end
$var wire 1 N" code[2][1]~13_combout $end
$var wire 1 O" code[2][1]~16_combout $end
$var wire 1 P" code[2][0]~regout $end
$var wire 1 Q" Mux1~1_combout $end
$var wire 1 R" code~8_combout $end
$var wire 1 S" code[2][1]~regout $end
$var wire 1 T" code[3][1]~regout $end
$var wire 1 U" code[1][1]~9_combout $end
$var wire 1 V" code[1][1]~10_combout $end
$var wire 1 W" code[1][1]~11_combout $end
$var wire 1 X" code[1][1]~12_combout $end
$var wire 1 Y" code[1][1]~regout $end
$var wire 1 Z" Mux0~0_combout $end
$var wire 1 [" Mux0~1_combout $end
$var wire 1 \" current_index~1_combout $end
$var wire 1 ]" code[4][1]~23_combout $end
$var wire 1 ^" button_input~combout $end
$var wire 1 _" code[4][1]~21_combout $end
$var wire 1 `" code[4][1]~22_combout $end
$var wire 1 a" code[4][1]~24_combout $end
$var wire 1 b" code[4][0]~regout $end
$var wire 1 c" code[4][1]~regout $end
$var wire 1 d" current_index~2_combout $end
$var wire 1 e" current_index~3_combout $end
$var wire 1 f" current_index[0]~5_combout $end
$var wire 1 g" Add1~0_combout $end
$var wire 1 h" current_index[2]~8_combout $end
$var wire 1 i" current_index[2]~9_combout $end
$var wire 1 j" process_0~0_combout $end
$var wire 1 k" current_index[0]~4_combout $end
$var wire 1 l" current_index[1]~6_combout $end
$var wire 1 m" current_index[1]~7_combout $end
$var wire 1 n" backspace_ready~0_combout $end
$var wire 1 o" backspace_ready~1_combout $end
$var wire 1 p" backspace_ready~regout $end
$var wire 1 q" code[0][1]~regout $end
$var wire 1 r" code[1][0]~regout $end
$var wire 1 s" count [31] $end
$var wire 1 t" count [30] $end
$var wire 1 u" count [29] $end
$var wire 1 v" count [28] $end
$var wire 1 w" count [27] $end
$var wire 1 x" count [26] $end
$var wire 1 y" count [25] $end
$var wire 1 z" count [24] $end
$var wire 1 {" count [23] $end
$var wire 1 |" count [22] $end
$var wire 1 }" count [21] $end
$var wire 1 ~" count [20] $end
$var wire 1 !# count [19] $end
$var wire 1 "# count [18] $end
$var wire 1 ## count [17] $end
$var wire 1 $# count [16] $end
$var wire 1 %# count [15] $end
$var wire 1 &# count [14] $end
$var wire 1 '# count [13] $end
$var wire 1 (# count [12] $end
$var wire 1 )# count [11] $end
$var wire 1 *# count [10] $end
$var wire 1 +# count [9] $end
$var wire 1 ,# count [8] $end
$var wire 1 -# count [7] $end
$var wire 1 .# count [6] $end
$var wire 1 /# count [5] $end
$var wire 1 0# count [4] $end
$var wire 1 1# count [3] $end
$var wire 1 2# count [2] $end
$var wire 1 3# count [1] $end
$var wire 1 4# count [0] $end
$var wire 1 5# current_index [2] $end
$var wire 1 6# current_index [1] $end
$var wire 1 7# current_index [0] $end
$var wire 1 8# backspace_wait_time [31] $end
$var wire 1 9# backspace_wait_time [30] $end
$var wire 1 :# backspace_wait_time [29] $end
$var wire 1 ;# backspace_wait_time [28] $end
$var wire 1 <# backspace_wait_time [27] $end
$var wire 1 =# backspace_wait_time [26] $end
$var wire 1 ># backspace_wait_time [25] $end
$var wire 1 ?# backspace_wait_time [24] $end
$var wire 1 @# backspace_wait_time [23] $end
$var wire 1 A# backspace_wait_time [22] $end
$var wire 1 B# backspace_wait_time [21] $end
$var wire 1 C# backspace_wait_time [20] $end
$var wire 1 D# backspace_wait_time [19] $end
$var wire 1 E# backspace_wait_time [18] $end
$var wire 1 F# backspace_wait_time [17] $end
$var wire 1 G# backspace_wait_time [16] $end
$var wire 1 H# backspace_wait_time [15] $end
$var wire 1 I# backspace_wait_time [14] $end
$var wire 1 J# backspace_wait_time [13] $end
$var wire 1 K# backspace_wait_time [12] $end
$var wire 1 L# backspace_wait_time [11] $end
$var wire 1 M# backspace_wait_time [10] $end
$var wire 1 N# backspace_wait_time [9] $end
$var wire 1 O# backspace_wait_time [8] $end
$var wire 1 P# backspace_wait_time [7] $end
$var wire 1 Q# backspace_wait_time [6] $end
$var wire 1 R# backspace_wait_time [5] $end
$var wire 1 S# backspace_wait_time [4] $end
$var wire 1 T# backspace_wait_time [3] $end
$var wire 1 U# backspace_wait_time [2] $end
$var wire 1 V# backspace_wait_time [1] $end
$var wire 1 W# backspace_wait_time [0] $end
$upscope $end
$upscope $end
$enddefinitions $end
#0
$dumpvars
1!
0"
1#
0$
1%
0'
0&
0)
0(
0+
0*
0-
0,
0/
0.
02
01
00
x3
04
15
x6
17
18
19
0:
0;
0<
0=
0>
0?
1@
1A
1B
1C
1D
1E
1F
1G
1H
0I
0J
0K
0L
0M
0N
0O
0P
0Q
0R
0S
0T
0U
0V
0W
0X
0Y
0Z
1[
1\
1]
1^
1_
0`
1a
0b
0c
0d
0e
0f
0g
0h
0i
0j
1k
0l
1m
0n
1o
0p
0q
0r
1s
0t
0u
0v
0w
0x
1y
0z
0{
0|
1}
0~
0!!
1"!
0#!
0$!
0%!
0&!
0'!
0(!
0)!
0*!
1+!
0,!
0-!
0.!
0/!
00!
11!
02!
03!
04!
15!
06!
07!
08!
09!
0:!
1;!
0<!
0=!
0>!
1?!
0@!
0A!
0B!
0C!
0D!
1E!
0F!
0G!
0H!
1I!
0J!
0K!
0L!
0M!
0N!
0O!
0P!
0Q!
0R!
0S!
1T!
0U!
0V!
1W!
0X!
1Y!
0Z!
1[!
1\!
1]!
1^!
0_!
1`!
1a!
1b!
1c!
1d!
1e!
0f!
1g!
1h!
1i!
0j!
1k!
1l!
0m!
1n!
0o!
1p!
1q!
0r!
1s!
1t!
0u!
1v!
1w!
0x!
1y!
1z!
1{!
0|!
1}!
1~!
1!"
0""
1#"
1$"
1%"
0&"
1'"
1("
0)"
1*"
0+"
1,"
1-"
0."
1/"
10"
01"
12"
13"
04"
15"
16"
17"
08"
19"
1:"
1;"
1<"
1="
1>"
1?"
1@"
1A"
0B"
1C"
0D"
0E"
0F"
0G"
0H"
0I"
0J"
0K"
1L"
1M"
0N"
0O"
0P"
0Q"
0R"
0S"
0T"
1U"
1V"
1W"
0X"
0Y"
0Z"
0["
0\"
1]"
0^"
1_"
1`"
0a"
0b"
0c"
1d"
1e"
0f"
0g"
0h"
0i"
0j"
1k"
1l"
0m"
1n"
0o"
0p"
0q"
0r"
04#
03#
02#
01#
00#
0/#
0.#
0-#
0,#
0+#
0*#
0)#
0(#
0'#
0&#
0%#
0$#
0##
0"#
0!#
0~"
0}"
0|"
0{"
0z"
0y"
0x"
0w"
0v"
0u"
0t"
0s"
07#
06#
05#
0W#
0V#
0U#
0T#
0S#
0R#
0Q#
0P#
0O#
0N#
0M#
0L#
0K#
0J#
0I#
0H#
0G#
0F#
0E#
0D#
0C#
0B#
0A#
0@#
0?#
0>#
0=#
0<#
0;#
0:#
09#
08#
$end
#1000
1$
1X
1Y
03
#2000
0$
0X
0Y
13
14#
1D"
1`
0^
1E"
1'
1f
0_
1Q"
1W
0e"
0U"
1K
#3000
1$
1X
1Y
03
#4000
0$
0X
0Y
13
13#
04#
0a
0f
0`
1^
1b
0W
1a
1f
1_
1c
0b
1W
0c
#5000
1$
1X
1Y
03
#6000
0$
0X
0Y
13
14#
1`
0^
0a
0f
0_
1b
0W
1c
#7000
1$
1X
1Y
03
#8000
0$
0X
0Y
13
03#
04#
12#
1a
1f
0`
1^
1d
0b
0d
1b
1W
0f
1_
1e
0c
0e
1c
0W
1Z
0Z
#9000
1$
1X
1Y
03
#10000
0$
0X
0Y
13
14#
1`
0^
1f
0_
1W
#11000
1$
1X
1Y
03
#12000
0$
0X
0Y
13
13#
04#
0a
0f
0`
1^
1d
0b
0W
1a
1f
1_
1e
0c
0d
1b
1W
1Z
0e
1c
0Z
#13000
1$
1X
1Y
03
#14000
0$
0X
0Y
13
14#
1`
0^
0a
0f
0_
1d
0b
0W
1e
0c
1Z
#15000
1$
1X
1Y
03
#16000
0$
0X
0Y
13
03#
11#
04#
02#
1a
1f
0k
0e
0`
1^
0d
1b
0b
1W
1:
0Z
0f
1_
1k
1e
1c
0c
1j
0W
0:
1Z
0j
#17000
1$
1X
1Y
03
#18000
0$
0X
0Y
13
14#
1`
0^
1f
0_
1W
#19000
1$
1X
1Y
03
#20000
0$
0X
0Y
13
13#
04#
0a
0f
0`
1^
1b
0W
1a
1f
1_
1c
0b
1W
0c
#21000
1$
1X
1Y
03
#22000
0$
0X
0Y
13
14#
1`
0^
0a
0f
0_
1b
0W
1c
#23000
1$
1X
1Y
03
#24000
0$
0X
0Y
13
03#
04#
12#
1a
1f
0`
1^
1d
0b
0d
1b
1W
0f
1_
0k
0e
0c
1k
1e
1c
0W
1:
0Z
0:
1g
1Z
1j
0j
0g
1(!
0(!
1R"
0T!
0R"
1T!
#25000
1$
1X
1Y
03
#26000
0$
0X
0Y
13
14#
1`
0^
1f
0_
1W
#27000
1$
1X
1Y
03
#28000
0$
0X
0Y
13
13#
04#
0a
0f
0`
1^
1d
0b
0W
1a
1f
1_
0k
0e
0c
0d
1b
1W
1:
0Z
1k
1e
1c
1j
1g
0:
1Z
1(!
0j
0g
1R"
0T!
0(!
0R"
1T!
#29000
1$
1X
1Y
03
#30000
0$
0X
0Y
13
14#
1`
0^
0a
0f
0_
1d
0b
0W
0k
0e
0c
1:
0Z
1j
#31000
1$
1X
1Y
03
#32000
0$
0X
0Y
13
03#
01#
04#
02#
10#
1a
1f
1k
1e
0`
1^
0d
1b
1l
0:
0b
1W
0l
1:
1Z
0f
1_
0e
1c
1;
0j
0c
0;
1j
0W
0Z
1i
1I
0i
0I
1(!
0(!
1R"
0T!
0R"
1T!
#33000
1$
1X
1Y
03
#34000
0$
0X
0Y
13
14#
1`
0^
1f
0_
1W
#35000
1$
1X
1Y
03
#36000
0$
0X
0Y
13
13#
04#
0a
0f
0`
1^
1b
0W
1a
1f
1_
1c
0b
1W
0c
#37000
1$
1X
1Y
03
#38000
0$
0X
0Y
13
14#
1`
0^
0a
0f
0_
1b
0W
1c
#39000
1$
1X
1Y
03
#40000
0$
0X
0Y
13
03#
04#
12#
1a
1f
0`
1^
1d
0b
0d
1b
1W
0f
1_
1e
0c
0e
1g
1c
0W
1Z
0g
0Z
1(!
0(!
1R"
0T!
0R"
1T!
#41000
1$
1X
1Y
03
#42000
0$
0X
0Y
13
14#
1`
0^
1f
0_
1W
#43000
1$
1X
1Y
03
#44000
0$
0X
0Y
13
13#
04#
0a
0f
0`
1^
1d
0b
0W
1a
1f
1_
1e
0c
0d
1b
1W
1g
1Z
0e
1c
1(!
0g
0Z
1R"
0T!
0(!
0R"
1T!
#45000
1$
1X
1Y
03
#46000
0$
0X
0Y
13
14#
1`
0^
0a
0f
0_
1d
0b
0W
1e
0c
1Z
#47000
1$
1X
1Y
03
#48000
0$
0X
0Y
13
03#
11#
04#
02#
1a
1f
0k
0e
0`
1^
0d
1b
0b
1W
1l
0:
0Z
0f
1_
1k
1e
1c
0c
1;
0j
0W
0l
1:
1Z
1i
1I
0;
1j
1(!
0i
0I
1R"
0T!
0(!
0R"
1T!
#49000
1$
1X
1Y
03
#50000
1"
0$
1^"
0X
0Y
13
1j"
0`"
0k"
0V"
1G"
1F"
0C"
0e!
0[!
0j
0_
0Z
0F
1f"
1X"
0T!
14#
1`
0^
1f
1g
1(!
#51000
1$
1X
1Y
03
#52000
0$
0X
0Y
13
01#
04#
00#
17#
0e
0`
1^
0:
0l"
1g"
0f"
1U"
0L"
1H"
0E"
0W!
1V!
12
0g
0f
1m"
1V"
0M"
0Q"
0A"
0(!
0X"
1O"
1e"
0W"
1l"
1f"
0U"
1L"
0H"
0m"
0V"
1M"
1X"
0O"
#53000
1$
1X
1Y
03
#54000
0$
0X
0Y
13
#55000
1$
1X
1Y
03
#56000
0$
0X
0Y
13
#57000
1$
1X
1Y
03
#58000
0$
0X
0Y
13
#59000
1$
1X
1Y
03
#60000
0$
0X
0Y
13
#61000
1$
1X
1Y
03
#62000
0$
0X
0Y
13
#63000
1$
1X
1Y
03
#64000
0$
0X
0Y
13
#65000
1$
1X
1Y
03
#66000
0$
0X
0Y
13
#67000
1$
1X
1Y
03
#68000
0$
0X
0Y
13
#69000
1$
1X
1Y
03
#70000
0$
0X
0Y
13
#71000
1$
1X
1Y
03
#72000
0$
0X
0Y
13
#73000
1$
1X
1Y
03
#74000
0$
0X
0Y
13
#75000
1$
1X
1Y
03
#76000
0$
0X
0Y
13
#77000
1$
1X
1Y
03
#78000
0$
0X
0Y
13
#79000
1$
1X
1Y
03
#80000
0$
0X
0Y
13
#81000
1$
1X
1Y
03
#82000
0$
0X
0Y
13
#83000
1$
1X
1Y
03
#84000
0$
0X
0Y
13
#85000
1$
1X
1Y
03
#86000
0$
0X
0Y
13
#87000
1$
1X
1Y
03
#88000
0$
0X
0Y
13
#89000
1$
1X
1Y
03
#90000
0$
0X
0Y
13
#91000
1$
1X
1Y
03
#92000
0$
0X
0Y
13
#93000
1$
1X
1Y
03
#94000
0$
0X
0Y
13
#95000
1$
1X
1Y
03
#96000
0$
0X
0Y
13
#97000
1$
1X
1Y
03
#98000
0$
0X
0Y
13
#99000
1$
1X
1Y
03
#100000
0"
0$
0^"
0X
0Y
13
0j"
1`"
1k"
0G"
0F"
1C"
1e!
1[!
1X!
1_
1F
1H"
1B"
1T!
0C"
#101000
1$
1X
1Y
03
#102000
0$
0X
0Y
13
14#
1r"
1`
0^
1E"
1)
1f
0_
1Q"
1W
0e"
0l"
1U"
0L"
#103000
1$
1X
1Y
03
#104000
0$
0X
0Y
13
13#
04#
0a
0f
0`
1^
1b
0W
1a
1f
1_
1c
0b
1W
0c
#105000
1$
1X
1Y
03
#106000
0$
0X
0Y
13
14#
1`
0^
0a
0f
0_
1b
0W
1c
#107000
1$
1X
1Y
03
#108000
0$
0X
0Y
13
03#
04#
12#
1a
1f
0`
1^
1d
0b
0d
1b
1W
0f
1_
1e
0c
0e
1c
0W
1Z
0Z
#109000
1$
1X
1Y
03
#110000
0$
0X
0Y
13
14#
1`
0^
1f
0_
1W
#111000
1$
1X
1Y
03
#112000
0$
0X
0Y
13
13#
04#
0a
0f
0`
1^
1d
0b
0W
1a
1f
1_
1e
0c
0d
1b
1W
1Z
0e
1c
0Z
#113000
1$
1X
1Y
03
#114000
0$
0X
0Y
13
14#
1`
0^
0a
0f
0_
1d
0b
0W
1e
0c
1Z
#115000
1$
1X
1Y
03
#116000
0$
0X
0Y
13
03#
11#
04#
02#
1a
1f
0k
0e
0`
1^
0d
1b
0b
1W
1:
0Z
0f
1_
1k
1e
1c
0c
1j
0W
0:
1Z
0j
#117000
1$
1X
1Y
03
#118000
0$
0X
0Y
13
14#
1`
0^
1f
0_
1W
#119000
1$
1X
1Y
03
#120000
0$
0X
0Y
13
13#
04#
0a
0f
0`
1^
1b
0W
1a
1f
1_
1c
0b
1W
0c
#121000
1$
1X
1Y
03
#122000
0$
0X
0Y
13
14#
1`
0^
0a
0f
0_
1b
0W
1c
#123000
1$
1X
1Y
03
#124000
0$
0X
0Y
13
03#
04#
12#
1a
1f
0`
1^
1d
0b
0d
1b
1W
0f
1_
0k
0e
0c
1k
1e
1c
0W
1:
0Z
0:
1g
1Z
1j
0j
0g
1(!
0(!
1R"
0T!
0R"
1T!
#125000
1$
1X
1Y
03
#126000
0$
0X
0Y
13
14#
1`
0^
1f
0_
1W
#127000
1$
1X
1Y
03
#128000
0$
0X
0Y
13
13#
04#
0a
0f
0`
1^
1d
0b
0W
1a
1f
1_
0k
0e
0c
0d
1b
1W
1:
0Z
1k
1e
1c
1j
1g
0:
1Z
1(!
0j
0g
1R"
0T!
0(!
0R"
1T!
#129000
1$
1X
1Y
03
#130000
0$
0X
0Y
13
14#
1`
0^
0a
0f
0_
1d
0b
0W
0k
0e
0c
1:
0Z
1j
#131000
1$
1X
1Y
03
#132000
0$
0X
0Y
13
03#
01#
04#
02#
10#
1a
1f
1k
1e
0`
1^
0d
1b
1l
0:
0b
1W
0l
1:
1Z
0f
1_
0e
1c
1;
0j
0c
0;
1j
0W
0Z
1i
1I
0i
0I
1(!
0(!
1R"
0T!
0R"
1T!
#133000
1$
1X
1Y
03
#134000
0$
0X
0Y
13
14#
1`
0^
1f
0_
1W
#135000
1$
1X
1Y
03
#136000
0$
0X
0Y
13
13#
04#
0a
0f
0`
1^
1b
0W
1a
1f
1_
1c
0b
1W
0c
#137000
1$
1X
1Y
03
#138000
0$
0X
0Y
13
14#
1`
0^
0a
0f
0_
1b
0W
1c
#139000
1$
1X
1Y
03
#140000
0$
0X
0Y
13
03#
04#
12#
1a
1f
0`
1^
1d
0b
0d
1b
1W
0f
1_
1e
0c
0e
1g
1c
0W
1Z
0g
0Z
1(!
0(!
1R"
0T!
0R"
1T!
#141000
1$
1X
1Y
03
#142000
0$
0X
0Y
13
14#
1`
0^
1f
0_
1W
#143000
1$
1X
1Y
03
#144000
0$
0X
0Y
13
13#
04#
0a
0f
0`
1^
1d
0b
0W
1a
1f
1_
1e
0c
0d
1b
1W
1g
1Z
0e
1c
1(!
0g
0Z
1R"
0T!
0(!
0R"
1T!
#145000
1$
1X
1Y
03
#146000
0$
0X
0Y
13
14#
1`
0^
0a
0f
0_
1d
0b
0W
1e
0c
1Z
#147000
1$
1X
1Y
03
#148000
0$
0X
0Y
13
03#
11#
04#
02#
1a
1f
0k
0e
0`
1^
0d
1b
0b
1W
1l
0:
0Z
0f
1_
1k
1e
1c
0c
1;
0j
0W
0l
1:
1Z
1i
1I
0;
1j
1(!
0i
0I
1R"
0T!
0(!
0R"
1T!
#149000
1$
1X
1Y
03
#150000
1"
0$
1^"
0X
0Y
13
1j"
0`"
0k"
1V"
0M"
1G"
1F"
0e!
0[!
0X!
0j
0_
0Z
0F
1m"
0f"
0X"
1O"
0B"
0T!
14#
1`
0^
1f
1g
1(!
#151000
1$
1X
1Y
03
#152000
0$
0X
0Y
13
01#
04#
00#
07#
16#
0e
0`
1^
0:
1l"
1f"
1L"
0H"
0E"
0V!
0m"
0Q"
1K"
02
11
0g
0f
1m"
1M"
1I"
1e"
0(!
0O"
0f"
0L"
1H"
0M"
0I"
1O"
#153000
1$
1X
1Y
03
#154000
0$
0X
0Y
13
#155000
1$
1X
1Y
03
#156000
0$
0X
0Y
13
#157000
1$
1X
1Y
03
#158000
0$
0X
0Y
13
#159000
1$
1X
1Y
03
#160000
0$
0X
0Y
13
#161000
1$
1X
1Y
03
#162000
0$
0X
0Y
13
#163000
1$
1X
1Y
03
#164000
0$
0X
0Y
13
#165000
1$
1X
1Y
03
#166000
0$
0X
0Y
13
#167000
1$
1X
1Y
03
#168000
0$
0X
0Y
13
#169000
1$
1X
1Y
03
#170000
0$
0X
0Y
13
#171000
1$
1X
1Y
03
#172000
0$
0X
0Y
13
#173000
1$
1X
1Y
03
#174000
0$
0X
0Y
13
#175000
1$
1X
1Y
03
#176000
0$
0X
0Y
13
#177000
1$
1X
1Y
03
#178000
0$
0X
0Y
13
#179000
1$
1X
1Y
03
#180000
0$
0X
0Y
13
#181000
1$
1X
1Y
03
#182000
0$
0X
0Y
13
#183000
1$
1X
1Y
03
#184000
0$
0X
0Y
13
#185000
1$
1X
1Y
03
#186000
0$
0X
0Y
13
#187000
1$
1X
1Y
03
#188000
0$
0X
0Y
13
#189000
1$
1X
1Y
03
#190000
0$
0X
0Y
13
#191000
1$
1X
1Y
03
#192000
0$
0X
0Y
13
#193000
1$
1X
1Y
03
#194000
0$
0X
0Y
13
#195000
1$
1X
1Y
03
#196000
0$
0X
0Y
13
#197000
1$
1X
1Y
03
#198000
0$
0X
0Y
13
#199000
1$
1X
1Y
03
