short_or_long_signal_identifier/simulation/qsim/short_or_long_signal_identifier.msim.vcd
$comment
	File created using the following command:
		vcd file short_or_long_signal_identifier.msim.vcd -direction
$end
$date
	Wed Aug 21 14:53:11 2019
$end
$version
	ModelSim Version 10.1d
$end
$timescale
	1ps
$end
$scope module short_or_long_signal_identifier_vlg_vec_tst $end
$var reg 1 ! button_input $end
$var reg 1 " clock $end
$var wire 1 # code_current_index_test [1] $end
$var wire 1 $ code_current_index_test [0] $end
$var wire 1 % code_test0 [1] $end
$var wire 1 & code_test0 [0] $end
$var wire 1 ' code_test1 [1] $end
$var wire 1 ( code_test1 [0] $end
$var wire 1 ) code_test2 [1] $end
$var wire 1 * code_test2 [0] $end
$var wire 1 + code_test3 [1] $end
$var wire 1 , code_test3 [0] $end
$var wire 1 - code_test4 [1] $end
$var wire 1 . code_test4 [0] $end
$var wire 1 / index_test [2] $end
$var wire 1 0 index_test [1] $end
$var wire 1 1 index_test [0] $end
$var wire 1 2 sampler $end
$scope module i1 $end
$var wire 1 3 gnd $end
$var wire 1 4 vcc $end
$var wire 1 5 unknown $end
$var tri1 1 6 devclrn $end
$var tri1 1 7 devpor $end
$var tri1 1 8 devoe $end
$var wire 1 9 Add0~10_combout $end
$var wire 1 : Add0~12_combout $end
$var wire 1 ; Add0~16_combout $end
$var wire 1 < Add0~38_combout $end
$var wire 1 = Add0~42_combout $end
$var wire 1 > Add0~48_combout $end
$var wire 1 ? Add0~52_combout $end
$var wire 1 @ LessThan0~0_combout $end
$var wire 1 A LessThan0~1_combout $end
$var wire 1 B LessThan0~5_combout $end
$var wire 1 C clock~combout $end
$var wire 1 D clock~clkctrl_outclk $end
$var wire 1 E button_input~combout $end
$var wire 1 F button_input~clkctrl_outclk $end
$var wire 1 G Add0~0_combout $end
$var wire 1 H Add0~1 $end
$var wire 1 I Add0~2_combout $end
$var wire 1 J Add0~3 $end
$var wire 1 K Add0~4_combout $end
$var wire 1 L Add0~5 $end
$var wire 1 M Add0~7 $end
$var wire 1 N Add0~8_combout $end
$var wire 1 O Add0~9 $end
$var wire 1 P Add0~11 $end
$var wire 1 Q Add0~13 $end
$var wire 1 R Add0~14_combout $end
$var wire 1 S Add0~15 $end
$var wire 1 T Add0~17 $end
$var wire 1 U Add0~18_combout $end
$var wire 1 V Add0~19 $end
$var wire 1 W Add0~21 $end
$var wire 1 X Add0~22_combout $end
$var wire 1 Y Add0~23 $end
$var wire 1 Z Add0~25 $end
$var wire 1 [ Add0~26_combout $end
$var wire 1 \ Add0~27 $end
$var wire 1 ] Add0~28_combout $end
$var wire 1 ^ Add0~29 $end
$var wire 1 _ Add0~30_combout $end
$var wire 1 ` Add0~31 $end
$var wire 1 a Add0~32_combout $end
$var wire 1 b Add0~33 $end
$var wire 1 c Add0~34_combout $end
$var wire 1 d Add0~35 $end
$var wire 1 e Add0~36_combout $end
$var wire 1 f Add0~37 $end
$var wire 1 g Add0~39 $end
$var wire 1 h Add0~40_combout $end
$var wire 1 i Add0~41 $end
$var wire 1 j Add0~43 $end
$var wire 1 k Add0~45 $end
$var wire 1 l Add0~46_combout $end
$var wire 1 m Add0~47 $end
$var wire 1 n Add0~49 $end
$var wire 1 o Add0~50_combout $end
$var wire 1 p Add0~51 $end
$var wire 1 q Add0~53 $end
$var wire 1 r Add0~54_combout $end
$var wire 1 s Add0~55 $end
$var wire 1 t Add0~57 $end
$var wire 1 u Add0~58_combout $end
$var wire 1 v Add0~59 $end
$var wire 1 w Add0~60_combout $end
$var wire 1 x Add0~61 $end
$var wire 1 y Add0~62_combout $end
$var wire 1 z Add0~56_combout $end
$var wire 1 { LessThan0~2_combout $end
$var wire 1 | LessThan0~3_combout $end
$var wire 1 } Add0~44_combout $end
$var wire 1 ~ Add0~6_combout $end
$var wire 1 !! LessThan0~4_combout $end
$var wire 1 "! Add0~20_combout $end
$var wire 1 #! Add0~24_combout $end
$var wire 1 $! LessThan0~6_combout $end
$var wire 1 %! LessThan0~7_combout $end
$var wire 1 &! LessThan0~8_combout $end
$var wire 1 '! LessThan0~9_combout $end
$var wire 1 (! new_value[0]~0_combout $end
$var wire 1 )! next_value[0]~1_combout $end
$var wire 1 *! next_value[0]~3_combout $end
$var wire 1 +! next_value[0]~_emulated_regout $end
$var wire 1 ,! next_value[0]~2_combout $end
$var wire 1 -! new_value[1]~feeder_combout $end
$var wire 1 .! next_value[1]~5_combout $end
$var wire 1 /! next_value[1]~7_combout $end
$var wire 1 0! next_value[1]~_emulated_regout $end
$var wire 1 1! next_value[1]~6_combout $end
$var wire 1 2! new_value [1] $end
$var wire 1 3! new_value [0] $end
$var wire 1 4! count [31] $end
$var wire 1 5! count [30] $end
$var wire 1 6! count [29] $end
$var wire 1 7! count [28] $end
$var wire 1 8! count [27] $end
$var wire 1 9! count [26] $end
$var wire 1 :! count [25] $end
$var wire 1 ;! count [24] $end
$var wire 1 <! count [23] $end
$var wire 1 =! count [22] $end
$var wire 1 >! count [21] $end
$var wire 1 ?! count [20] $end
$var wire 1 @! count [19] $end
$var wire 1 A! count [18] $end
$var wire 1 B! count [17] $end
$var wire 1 C! count [16] $end
$var wire 1 D! count [15] $end
$var wire 1 E! count [14] $end
$var wire 1 F! count [13] $end
$var wire 1 G! count [12] $end
$var wire 1 H! count [11] $end
$var wire 1 I! count [10] $end
$var wire 1 J! count [9] $end
$var wire 1 K! count [8] $end
$var wire 1 L! count [7] $end
$var wire 1 M! count [6] $end
$var wire 1 N! count [5] $end
$var wire 1 O! count [4] $end
$var wire 1 P! count [3] $end
$var wire 1 Q! count [2] $end
$var wire 1 R! count [1] $end
$var wire 1 S! count [0] $end
$upscope $end
$upscope $end
$enddefinitions $end
#0
$dumpvars
0!
0"
x$
x#
0&
0%
0(
0'
0*
0)
0,
0+
0.
0-
11
00
0/
x2
03
14
x5
16
17
18
09
0:
0;
0<
0=
0>
0?
0@
0A
0B
0C
0D
0E
0F
1G
0H
0I
1J
0K
0L
1M
0N
0O
1P
0Q
0R
1S
0T
0U
1V
0W
0X
1Y
0Z
0[
1\
0]
0^
0_
1`
0a
0b
0c
1d
0e
0f
1g
0h
0i
1j
0k
0l
1m
0n
0o
1p
0q
0r
1s
0t
0u
1v
0w
0x
0y
0z
0{
0|
0}
0~
0!!
0"!
0#!
0$!
0%!
0&!
0'!
1(!
x)!
x*!
0+!
x,!
0-!
x.!
x/!
00!
x1!
03!
02!
0S!
0R!
0Q!
0P!
0O!
0N!
0M!
0L!
0K!
0J!
0I!
0H!
0G!
0F!
0E!
0D!
0C!
0B!
0A!
0@!
0?!
0>!
0=!
0<!
0;!
0:!
09!
08!
07!
06!
05!
04!
$end
#1000
1"
1C
1D
02
#2000
0"
0C
0D
12
1S!
13!
x+!
x0!
1H
0G
1I
#3000
1"
1C
1D
02
#4000
0"
0C
0D
12
0S!
1R!
0H
1G
0J
0I
1J
1I
1K
0K
#5000
1"
1C
1D
02
#6000
0"
0C
0D
12
1S!
1H
0G
0J
0I
1K
#7000
1"
1C
1D
02
#8000
0"
0C
0D
12
0S!
0R!
1Q!
0H
1G
1J
1I
1L
0K
0I
0L
1K
1~
0~
#9000
1"
1C
1D
02
#10000
0"
0C
0D
12
1S!
1H
0G
1I
#11000
1"
1C
1D
02
#12000
0"
0C
0D
12
0S!
1R!
0H
1G
0J
0I
1J
1I
1L
0K
0L
1K
1~
0~
#13000
1"
1C
1D
02
#14000
0"
0C
0D
12
1S!
1H
0G
0J
0I
1L
0K
1~
#15000
1"
1C
1D
02
#16000
0"
0C
0D
12
1P!
0S!
0R!
0Q!
0M
0~
0H
1G
1J
1I
0L
1K
1N
0I
0K
1M
1~
0N
#17000
1"
1C
1D
02
#18000
0"
0C
0D
12
1S!
1H
0G
1I
#19000
1"
1C
1D
02
#20000
0"
0C
0D
12
0S!
1R!
0H
1G
0J
0I
1J
1I
1K
0K
#21000
1"
1C
1D
02
#22000
0"
0C
0D
12
1S!
1H
0G
0J
0I
1K
#23000
1"
1C
1D
02
#24000
0"
0C
0D
12
0S!
0R!
1Q!
0H
1G
1J
1I
1L
0K
0I
0L
1K
0M
0~
1M
1~
1N
0N
1!!
0!!
1%!
0%!
1&!
0&!
1'!
0'!
1-!
0(!
0-!
1(!
#25000
1"
1C
1D
02
#26000
0"
0C
0D
12
1S!
1H
0G
1I
#27000
1"
1C
1D
02
#28000
0"
0C
0D
12
0S!
1R!
0H
1G
0J
0I
1J
1I
1L
0K
0L
1K
0M
0~
1M
1~
1N
0N
1!!
0!!
1%!
0%!
1&!
0&!
1'!
0'!
1-!
0(!
0-!
1(!
#29000
1"
1C
1D
02
#30000
0"
0C
0D
12
1S!
1H
0G
0J
0I
1L
0K
0M
0~
1N
#31000
1"
1C
1D
02
#32000
0"
0C
0D
12
0P!
0S!
0R!
0Q!
1O!
1M
1~
0H
1G
1J
1I
0L
1K
1O
0N
0O
1N
0I
0K
0~
19
09
1B
0B
1%!
0%!
1&!
0&!
1'!
0'!
1-!
0(!
0-!
1(!
#33000
1"
1C
1D
02
#34000
0"
0C
0D
12
1S!
1H
0G
1I
#35000
1"
1C
1D
02
#36000
0"
0C
0D
12
0S!
1R!
0H
1G
0J
0I
1J
1I
1K
0K
#37000
1"
1C
1D
02
#38000
0"
0C
0D
12
1S!
1H
0G
0J
0I
1K
#39000
1"
1C
1D
02
#40000
0"
0C
0D
12
0S!
0R!
1Q!
0H
1G
1J
1I
1L
0K
0I
0L
1K
1~
1!!
0~
1%!
0!!
1&!
0%!
1'!
0&!
1-!
0(!
0'!
0-!
1(!
#41000
1"
1C
1D
02
#42000
0"
0C
0D
12
1S!
1H
0G
1I
#43000
1"
1C
1D
02
#44000
0"
0C
0D
12
0S!
1R!
0H
1G
0J
0I
1J
1I
1L
0K
0L
1K
1~
0~
1!!
0!!
1%!
0%!
1&!
0&!
1'!
0'!
1-!
0(!
0-!
1(!
#45000
1"
1C
1D
02
#46000
0"
0C
0D
12
1S!
1H
0G
0J
0I
1L
0K
1~
#47000
1"
1C
1D
02
#48000
0"
0C
0D
12
1P!
0S!
0R!
0Q!
0M
0~
0H
1G
1J
1I
0L
1K
1O
0N
0I
0K
1M
1~
19
0O
1N
1B
09
1%!
0B
1&!
0%!
1'!
0&!
1-!
0(!
0'!
0-!
1(!
#49000
1"
1C
1D
02
#50000
0"
0C
0D
12
1S!
1H
0G
1I
1!!
1%!
1&!
1'!
1-!
0(!
#51000
1"
1C
1D
02
#52000
0"
0C
0D
12
0S!
1R!
03!
12!
0H
1G
0J
0I
1J
1I
1K
0!!
0K
1!!
0%!
1%!
0&!
1&!
0'!
1'!
0-!
1(!
1-!
0(!
#53000
1"
1C
1D
02
#54000
0"
0C
0D
12
1S!
1H
0G
0J
0I
1K
0!!
1!!
0%!
1%!
0&!
1&!
0'!
1'!
0-!
1(!
1-!
0(!
#55000
1"
1C
1D
02
#56000
0"
0C
0D
12
0S!
0R!
1Q!
0H
1G
1J
1I
1L
0K
0I
0L
1K
0M
0~
0!!
1M
1~
1O
0N
0%!
0O
1N
19
0&!
09
1!!
1B
0'!
0B
1%!
0-!
1(!
1&!
1'!
1-!
0(!
#57000
1"
1C
1D
02
#58000
0"
0C
0D
12
1S!
1H
0G
1I
#59000
1"
1C
1D
02
#60000
0"
0C
0D
12
0S!
1R!
0H
1G
0J
0I
1J
1I
1L
0K
0L
1K
0M
0~
1M
1~
0!!
1O
0N
0O
1N
0%!
19
09
1!!
0&!
1B
0B
1%!
0'!
1&!
0-!
1(!
1'!
1-!
0(!
#61000
1"
1C
1D
02
#62000
0"
0C
0D
12
1S!
1H
0G
0J
0I
1L
0K
0M
0~
0!!
1O
0N
0%!
19
0&!
1B
0'!
1%!
0-!
1(!
1&!
1'!
1-!
0(!
#63000
1"
1C
1D
02
#64000
0"
0C
0D
12
1N!
0P!
0S!
0R!
0Q!
0O!
0P
09
1M
1~
0H
1G
1J
1I
0L
1K
0O
1N
1:
0B
0N
1!!
0I
0K
0~
1P
19
1B
0!!
0:
#65000
1"
1C
1D
02
#66000
0"
0C
0D
12
1S!
1H
0G
1I
#67000
1"
1C
1D
02
#68000
0"
0C
0D
12
0S!
1R!
0H
1G
0J
0I
1J
1I
1K
0K
#69000
1"
1C
1D
02
#70000
0"
0C
0D
12
1S!
1H
0G
0J
0I
1K
#71000
1"
1C
1D
02
#72000
0"
0C
0D
12
0S!
0R!
1Q!
0H
1G
1J
1I
1L
0K
0I
0L
1K
1~
0~
#73000
1"
1C
1D
02
#74000
0"
0C
0D
12
1S!
1H
0G
1I
#75000
1"
1C
1D
02
#76000
0"
0C
0D
12
0S!
1R!
0H
1G
0J
0I
1J
1I
1L
0K
0L
1K
1~
0~
#77000
1"
1C
1D
02
#78000
0"
0C
0D
12
1S!
1H
0G
0J
0I
1L
0K
1~
#79000
1"
1C
1D
02
#80000
0"
0C
0D
12
1P!
0S!
0R!
0Q!
0M
0~
0H
1G
1J
1I
0L
1K
1N
0I
0K
1M
1~
0N
#81000
1"
1C
1D
02
#82000
0"
0C
0D
12
1S!
1H
0G
1I
#83000
1"
1C
1D
02
#84000
0"
0C
0D
12
0S!
1R!
0H
1G
0J
0I
1J
1I
1K
0K
#85000
1"
1C
1D
02
#86000
0"
0C
0D
12
1S!
1H
0G
0J
0I
1K
#87000
1"
1C
1D
02
#88000
0"
0C
0D
12
0S!
0R!
1Q!
0H
1G
1J
1I
1L
0K
0I
0L
1K
0M
0~
1M
1~
1N
0N
1!!
0!!
#89000
1"
1C
1D
02
#90000
0"
0C
0D
12
1S!
1H
0G
1I
#91000
1"
1C
1D
02
#92000
0"
0C
0D
12
0S!
1R!
0H
1G
0J
0I
1J
1I
1L
0K
0L
1K
0M
0~
1M
1~
1N
0N
1!!
0!!
#93000
1"
1C
1D
02
#94000
0"
0C
0D
12
1S!
1H
0G
0J
0I
1L
0K
0M
0~
1N
#95000
1"
1C
1D
02
#96000
0"
0C
0D
12
0P!
0S!
0R!
0Q!
1O!
1M
1~
0H
1G
1J
1I
0L
1K
1O
0N
0O
1N
0I
0K
0~
0P
09
1P
19
1:
0B
0:
1B
0%!
1%!
0&!
1&!
0'!
1'!
0-!
1(!
1-!
0(!
#97000
1"
1C
1D
02
#98000
0"
0C
0D
12
1S!
1H
0G
1I
#99000
1"
1C
1D
02
#100000
1!
0"
1E
0C
0D
1F
12
11!
0,!
1.!
0)!
0/!
0*!
1#
0$
00!
02!
0+!
0O!
0S!
0N!
01!
0.!
0N
0H
1G
09
1/!
0I
0B
0#
0%!
0&!
0'!
0/!
0-!
1*!
1(!
#101000
1"
1C
1D
02
#102000
0"
0C
0D
12
#103000
1"
1C
1D
02
#104000
0"
0C
0D
12
#105000
1"
1C
1D
02
#106000
0"
0C
0D
12
#107000
1"
1C
1D
02
#108000
0"
0C
0D
12
#109000
1"
1C
1D
02
#110000
0"
0C
0D
12
#111000
1"
1C
1D
02
#112000
0"
0C
0D
12
#113000
1"
1C
1D
02
#114000
0"
0C
0D
12
#115000
1"
1C
1D
02
#116000
0"
0C
0D
12
#117000
1"
1C
1D
02
#118000
0"
0C
0D
12
#119000
1"
1C
1D
02
#120000
0"
0C
0D
12
#121000
1"
1C
1D
02
#122000
0"
0C
0D
12
#123000
1"
1C
1D
02
#124000
0"
0C
0D
12
#125000
1"
1C
1D
02
#126000
0"
0C
0D
12
#127000
1"
1C
1D
02
#128000
0"
0C
0D
12
#129000
1"
1C
1D
02
#130000
0"
0C
0D
12
#131000
1"
1C
1D
02
#132000
0"
0C
0D
12
#133000
1"
1C
1D
02
#134000
0"
0C
0D
12
#135000
1"
1C
1D
02
#136000
0"
0C
0D
12
#137000
1"
1C
1D
02
#138000
0"
0C
0D
12
#139000
1"
1C
1D
02
#140000
0"
0C
0D
12
#141000
1"
1C
1D
02
#142000
0"
0C
0D
12
#143000
1"
1C
1D
02
#144000
0"
0C
0D
12
#145000
1"
1C
1D
02
#146000
0"
0C
0D
12
#147000
1"
1C
1D
02
#148000
0"
0C
0D
12
#149000
1"
1C
1D
02
#150000
0"
0C
0D
12
#151000
1"
1C
1D
02
#152000
0"
0C
0D
12
#153000
1"
1C
1D
02
#154000
0"
0C
0D
12
#155000
1"
1C
1D
02
#156000
0"
0C
0D
12
#157000
1"
1C
1D
02
#158000
0"
0C
0D
12
#159000
1"
1C
1D
02
#160000
0"
0C
0D
12
#161000
1"
1C
1D
02
#162000
0"
0C
0D
12
#163000
1"
1C
1D
02
#164000
0"
0C
0D
12
#165000
1"
1C
1D
02
#166000
0"
0C
0D
12
#167000
1"
1C
1D
02
#168000
0"
0C
0D
12
#169000
1"
1C
1D
02
#170000
0"
0C
0D
12
#171000
1"
1C
1D
02
#172000
0"
0C
0D
12
#173000
1"
1C
1D
02
#174000
0"
0C
0D
12
#175000
1"
1C
1D
02
#176000
0"
0C
0D
12
#177000
1"
1C
1D
02
#178000
0"
0C
0D
12
#179000
1"
1C
1D
02
#180000
0"
0C
0D
12
#181000
1"
1C
1D
02
#182000
0"
0C
0D
12
#183000
1"
1C
1D
02
#184000
0"
0C
0D
12
#185000
1"
1C
1D
02
#186000
0"
0C
0D
12
#187000
1"
1C
1D
02
#188000
0"
0C
0D
12
#189000
1"
1C
1D
02
#190000
0"
0C
0D
12
#191000
1"
1C
1D
02
#192000
0"
0C
0D
12
#193000
1"
1C
1D
02
#194000
0"
0C
0D
12
#195000
1"
1C
1D
02
#196000
0"
0C
0D
12
#197000
1"
1C
1D
02
#198000
0"
0C
0D
12
#199000
1"
1C
1D
02
#200000
0"
0C
0D
12
#201000
1"
1C
1D
02
#202000
0"
0C
0D
12
#203000
1"
1C
1D
02
#204000
0"
0C
0D
12
#205000
1"
1C
1D
02
#206000
0"
0C
0D
12
#207000
1"
1C
1D
02
#208000
0"
0C
0D
12
#209000
1"
1C
1D
02
#210000
0"
0C
0D
12
#211000
1"
1C
1D
02
#212000
0"
0C
0D
12
#213000
1"
1C
1D
02
#214000
0"
0C
0D
12
#215000
1"
1C
1D
02
#216000
0"
0C
0D
12
#217000
1"
1C
1D
02
#218000
0"
0C
0D
12
#219000
1"
1C
1D
02
#220000
0"
0C
0D
12
#221000
1"
1C
1D
02
#222000
0"
0C
0D
12
#223000
1"
1C
1D
02
#224000
0"
0C
0D
12
#225000
1"
1C
1D
02
#226000
0"
0C
0D
12
#227000
1"
1C
1D
02
#228000
0"
0C
0D
12
#229000
1"
1C
1D
02
#230000
0"
0C
0D
12
#231000
1"
1C
1D
02
#232000
0"
0C
0D
12
#233000
1"
1C
1D
02
#234000
0"
0C
0D
12
#235000
1"
1C
1D
02
#236000
0"
0C
0D
12
#237000
1"
1C
1D
02
#238000
0"
0C
0D
12
#239000
1"
1C
1D
02
#240000
0"
0C
0D
12
#241000
1"
1C
1D
02
#242000
0"
0C
0D
12
#243000
1"
1C
1D
02
#244000
0"
0C
0D
12
#245000
1"
1C
1D
02
#246000
0"
0C
0D
12
#247000
1"
1C
1D
02
#248000
0"
0C
0D
12
#249000
1"
1C
1D
02
#250000
0"
0C
0D
12
#251000
1"
1C
1D
02
#252000
0"
0C
0D
12
#253000
1"
1C
1D
02
#254000
0"
0C
0D
12
#255000
1"
1C
1D
02
#256000
0"
0C
0D
12
#257000
1"
1C
1D
02
#258000
0"
0C
0D
12
#259000
1"
1C
1D
02
#260000
0"
0C
0D
12
#261000
1"
1C
1D
02
#262000
0"
0C
0D
12
#263000
1"
1C
1D
02
#264000
0"
0C
0D
12
#265000
1"
1C
1D
02
#266000
0"
0C
0D
12
#267000
1"
1C
1D
02
#268000
0"
0C
0D
12
#269000
1"
1C
1D
02
#270000
0"
0C
0D
12
#271000
1"
1C
1D
02
#272000
0"
0C
0D
12
#273000
1"
1C
1D
02
#274000
0"
0C
0D
12
#275000
1"
1C
1D
02
#276000
0"
0C
0D
12
#277000
1"
1C
1D
02
#278000
0"
0C
0D
12
#279000
1"
1C
1D
02
#280000
0"
0C
0D
12
#281000
1"
1C
1D
02
#282000
0"
0C
0D
12
#283000
1"
1C
1D
02
#284000
0"
0C
0D
12
#285000
1"
1C
1D
02
#286000
0"
0C
0D
12
#287000
1"
1C
1D
02
#288000
0"
0C
0D
12
#289000
1"
1C
1D
02
#290000
0"
0C
0D
12
#291000
1"
1C
1D
02
#292000
0"
0C
0D
12
#293000
1"
1C
1D
02
#294000
0"
0C
0D
12
#295000
1"
1C
1D
02
#296000
0"
0C
0D
12
#297000
1"
1C
1D
02
#298000
0"
0C
0D
12
#299000
1"
1C
1D
02
#300000
0!
0"
0E
0C
0D
0F
12
1S!
13!
1+!
1H
0G
1,!
1I
1$
#301000
1"
1C
1D
02
#302000
0"
0C
0D
12
0S!
1R!
0H
1G
0J
0I
1J
1I
1K
0K
#303000
1"
1C
1D
02
#304000
0"
0C
0D
12
1S!
1H
0G
0J
0I
1K
#305000
1"
1C
1D
02
#306000
0"
0C
0D
12
0S!
0R!
1Q!
0H
1G
1J
1I
1L
0K
0I
0L
1K
1~
0~
#307000
1"
1C
1D
02
#308000
0"
0C
0D
12
1S!
1H
0G
1I
#309000
1"
1C
1D
02
#310000
0"
0C
0D
12
0S!
1R!
0H
1G
0J
0I
1J
1I
1L
0K
0L
1K
1~
0~
#311000
1"
1C
1D
02
#312000
0"
0C
0D
12
1S!
1H
0G
0J
0I
1L
0K
1~
#313000
1"
1C
1D
02
#314000
0"
0C
0D
12
1P!
0S!
0R!
0Q!
0M
0~
0H
1G
1J
1I
0L
1K
1N
0I
0K
1M
1~
0N
#315000
1"
1C
1D
02
#316000
0"
0C
0D
12
1S!
1H
0G
1I
#317000
1"
1C
1D
02
#318000
0"
0C
0D
12
0S!
1R!
0H
1G
0J
0I
1J
1I
1K
0K
#319000
1"
1C
1D
02
#320000
0"
0C
0D
12
1S!
1H
0G
0J
0I
1K
#321000
1"
1C
1D
02
#322000
0"
0C
0D
12
0S!
0R!
1Q!
0H
1G
1J
1I
1L
0K
0I
0L
1K
0M
0~
1M
1~
1N
0N
1!!
0!!
1%!
0%!
1&!
0&!
1'!
0'!
1/!
1-!
0*!
0(!
0/!
0-!
1*!
1(!
#323000
1"
1C
1D
02
#324000
0"
0C
0D
12
1S!
1H
0G
1I
#325000
1"
1C
1D
02
#326000
0"
0C
0D
12
0S!
1R!
0H
1G
0J
0I
1J
1I
1L
0K
0L
1K
0M
0~
1M
1~
1N
0N
1!!
0!!
1%!
0%!
1&!
0&!
1'!
0'!
1/!
1-!
0*!
0(!
0/!
0-!
1*!
1(!
#327000
1"
1C
1D
02
#328000
0"
0C
0D
12
1S!
1H
0G
0J
0I
1L
0K
0M
0~
1N
#329000
1"
1C
1D
02
#330000
0"
0C
0D
12
0P!
0S!
0R!
0Q!
1O!
1M
1~
0H
1G
1J
1I
0L
1K
1O
0N
0O
1N
0I
0K
0~
19
09
1B
0B
1%!
0%!
1&!
0&!
1'!
0'!
1/!
1-!
0*!
0(!
0/!
0-!
1*!
1(!
#331000
1"
1C
1D
02
#332000
0"
0C
0D
12
1S!
1H
0G
1I
#333000
1"
1C
1D
02
#334000
0"
0C
0D
12
0S!
1R!
0H
1G
0J
0I
1J
1I
1K
0K
#335000
1"
1C
1D
02
#336000
0"
0C
0D
12
1S!
1H
0G
0J
0I
1K
#337000
1"
1C
1D
02
#338000
0"
0C
0D
12
0S!
0R!
1Q!
0H
1G
1J
1I
1L
0K
0I
0L
1K
1~
1!!
0~
1%!
0!!
1&!
0%!
1'!
0&!
1/!
1-!
0*!
0(!
0'!
0/!
0-!
1*!
1(!
#339000
1"
1C
1D
02
#340000
0"
0C
0D
12
1S!
1H
0G
1I
#341000
1"
1C
1D
02
#342000
0"
0C
0D
12
0S!
1R!
0H
1G
0J
0I
1J
1I
1L
0K
0L
1K
1~
0~
1!!
0!!
1%!
0%!
1&!
0&!
1'!
0'!
1/!
1-!
0*!
0(!
0/!
0-!
1*!
1(!
#343000
1"
1C
1D
02
#344000
0"
0C
0D
12
1S!
1H
0G
0J
0I
1L
0K
1~
#345000
1"
1C
1D
02
#346000
0"
0C
0D
12
1P!
0S!
0R!
0Q!
0M
0~
0H
1G
1J
1I
0L
1K
1O
0N
0I
0K
1M
1~
19
0O
1N
1B
09
1%!
0B
1&!
0%!
1'!
0&!
1/!
1-!
0*!
0(!
0'!
0/!
0-!
1*!
1(!
#347000
1"
1C
1D
02
#348000
0"
0C
0D
12
1S!
1H
0G
1I
1!!
1%!
1&!
1'!
1/!
1-!
0*!
0(!
#349000
1"
1C
1D
02
#350000
0"
0C
0D
12
0S!
1R!
03!
0+!
12!
10!
0H
1G
0J
0I
0,!
11!
1J
1I
1K
0!!
0$
1#
0K
1!!
0%!
1%!
0&!
1&!
0'!
1'!
0/!
0-!
1*!
1(!
1/!
1-!
0*!
0(!
#351000
1"
1C
1D
02
#352000
0"
0C
0D
12
1S!
1H
0G
0J
0I
1K
0!!
1!!
0%!
1%!
0&!
1&!
0'!
1'!
0/!
0-!
1*!
1(!
1/!
1-!
0*!
0(!
#353000
1"
1C
1D
02
#354000
0"
0C
0D
12
0S!
0R!
1Q!
0H
1G
1J
1I
1L
0K
0I
0L
1K
0M
0~
0!!
1M
1~
1O
0N
0%!
0O
1N
19
0&!
09
1!!
1B
0'!
0B
1%!
0/!
0-!
1*!
1(!
1&!
1'!
1/!
1-!
0*!
0(!
#355000
1"
1C
1D
02
#356000
0"
0C
0D
12
1S!
1H
0G
1I
#357000
1"
1C
1D
02
#358000
0"
0C
0D
12
0S!
1R!
0H
1G
0J
0I
1J
1I
1L
0K
0L
1K
0M
0~
1M
1~
0!!
1O
0N
0O
1N
0%!
19
09
1!!
0&!
1B
0B
1%!
0'!
1&!
0/!
0-!
1*!
1(!
1'!
1/!
1-!
0*!
0(!
#359000
1"
1C
1D
02
#360000
0"
0C
0D
12
1S!
1H
0G
0J
0I
1L
0K
0M
0~
0!!
1O
0N
0%!
19
0&!
1B
0'!
1%!
0/!
0-!
1*!
1(!
1&!
1'!
1/!
1-!
0*!
0(!
#361000
1"
1C
1D
02
#362000
0"
0C
0D
12
1N!
0P!
0S!
0R!
0Q!
0O!
0P
09
1M
1~
0H
1G
1J
1I
0L
1K
0O
1N
1:
0B
0N
1!!
0I
0K
0~
1P
19
1B
0!!
0:
#363000
1"
1C
1D
02
#364000
0"
0C
0D
12
1S!
1H
0G
1I
#365000
1"
1C
1D
02
#366000
0"
0C
0D
12
0S!
1R!
0H
1G
0J
0I
1J
1I
1K
0K
#367000
1"
1C
1D
02
#368000
0"
0C
0D
12
1S!
1H
0G
0J
0I
1K
#369000
1"
1C
1D
02
#370000
0"
0C
0D
12
0S!
0R!
1Q!
0H
1G
1J
1I
1L
0K
0I
0L
1K
1~
0~
#371000
1"
1C
1D
02
#372000
0"
0C
0D
12
1S!
1H
0G
1I
#373000
1"
1C
1D
02
#374000
0"
0C
0D
12
0S!
1R!
0H
1G
0J
0I
1J
1I
1L
0K
0L
1K
1~
0~
#375000
1"
1C
1D
02
#376000
0"
0C
0D
12
1S!
1H
0G
0J
0I
1L
0K
1~
#377000
1"
1C
1D
02
#378000
0"
0C
0D
12
1P!
0S!
0R!
0Q!
0M
0~
0H
1G
1J
1I
0L
1K
1N
0I
0K
1M
1~
0N
#379000
1"
1C
1D
02
#380000
0"
0C
0D
12
1S!
1H
0G
1I
#381000
1"
1C
1D
02
#382000
0"
0C
0D
12
0S!
1R!
0H
1G
0J
0I
1J
1I
1K
0K
#383000
1"
1C
1D
02
#384000
0"
0C
0D
12
1S!
1H
0G
0J
0I
1K
#385000
1"
1C
1D
02
#386000
0"
0C
0D
12
0S!
0R!
1Q!
0H
1G
1J
1I
1L
0K
0I
0L
1K
0M
0~
1M
1~
1N
0N
1!!
0!!
#387000
1"
1C
1D
02
#388000
0"
0C
0D
12
1S!
1H
0G
1I
#389000
1"
1C
1D
02
#390000
0"
0C
0D
12
0S!
1R!
0H
1G
0J
0I
1J
1I
1L
0K
0L
1K
0M
0~
1M
1~
1N
0N
1!!
0!!
#391000
1"
1C
1D
02
#392000
0"
0C
0D
12
1S!
1H
0G
0J
0I
1L
0K
0M
0~
1N
#393000
1"
1C
1D
02
#394000
0"
0C
0D
12
0P!
0S!
0R!
0Q!
1O!
1M
1~
0H
1G
1J
1I
0L
1K
1O
0N
0O
1N
0I
0K
0~
0P
09
1P
19
1:
0B
0:
1B
0%!
1%!
0&!
1&!
0'!
1'!
0/!
0-!
1*!
1(!
1/!
1-!
0*!
0(!
#395000
1"
1C
1D
02
#396000
0"
0C
0D
12
1S!
1H
0G
1I
#397000
1"
1C
1D
02
#398000
0"
0C
0D
12
0S!
1R!
0H
1G
0J
0I
1J
1I
1K
0K
#399000
1"
1C
1D
02
#400000
0"
0C
0D
12
1S!
1H
0G
0J
0I
1K
#401000
1"
1C
1D
02
#402000
0"
0C
0D
12
0S!
0R!
1Q!
0H
1G
1J
1I
1L
0K
0I
0L
1K
1~
1!!
0~
0!!
#403000
1"
1C
1D
02
#404000
0"
0C
0D
12
1S!
1H
0G
1I
#405000
1"
1C
1D
02
#406000
0"
0C
0D
12
0S!
1R!
0H
1G
0J
0I
1J
1I
1L
0K
0L
1K
1~
0~
1!!
0!!
#407000
1"
1C
1D
02
#408000
0"
0C
0D
12
1S!
1H
0G
0J
0I
1L
0K
1~
#409000
1"
1C
1D
02
#410000
0"
0C
0D
12
1P!
0S!
0R!
0Q!
0M
0~
0H
1G
1J
1I
0L
1K
1O
0N
0I
0K
1M
1~
0P
09
0O
1N
1:
0B
1P
19
1B
0%!
0:
1%!
0&!
1&!
0'!
1'!
0/!
0-!
1*!
1(!
1/!
1-!
0*!
0(!
#411000
1"
1C
1D
02
#412000
0"
0C
0D
12
1S!
1H
0G
1I
1!!
#413000
1"
1C
1D
02
