short_or_long_signal_identifier/simulation/qsim/short_or_long_signal_identifier.msim.vcd
$comment
	File created using the following command:
		vcd file short_or_long_signal_identifier.msim.vcd -direction
$end
$date
	Fri Aug 23 11:26:46 2019
$end
$version
	ModelSim Version 10.1d
$end
$timescale
	1ps
$end
$scope module short_or_long_signal_identifier_vlg_vec_tst $end
$var reg 1 ! backspace $end
$var reg 1 " button_input $end
$var reg 1 # clear $end
$var reg 1 $ clock $end
$var wire 1 % code_test0 [1] $end
$var wire 1 & code_test0 [0] $end
$var wire 1 ' code_test1 [1] $end
$var wire 1 ( code_test1 [0] $end
$var wire 1 ) code_test2 [1] $end
$var wire 1 * code_test2 [0] $end
$var wire 1 + code_test3 [1] $end
$var wire 1 , code_test3 [0] $end
$var wire 1 - code_test4 [1] $end
$var wire 1 . code_test4 [0] $end
$var wire 1 / index_test [2] $end
$var wire 1 0 index_test [1] $end
$var wire 1 1 index_test [0] $end
$var wire 1 2 sampler $end
$scope module i1 $end
$var wire 1 3 gnd $end
$var wire 1 4 vcc $end
$var wire 1 5 unknown $end
$var tri1 1 6 devclrn $end
$var tri1 1 7 devpor $end
$var tri1 1 8 devoe $end
$var wire 1 9 Add1~4_combout $end
$var wire 1 : Add1~14_combout $end
$var wire 1 ; Add1~48_combout $end
$var wire 1 < LessThan1~1_combout $end
$var wire 1 = LessThan1~5_combout $end
$var wire 1 > code[3][1]~19_combout $end
$var wire 1 ? code[3][1]~20_combout $end
$var wire 1 @ code[4][0]~23_combout $end
$var wire 1 A code[4][0]~25_combout $end
$var wire 1 B current_index[0]~5_combout $end
$var wire 1 C count~1_combout $end
$var wire 1 D count~2_combout $end
$var wire 1 E count~7_combout $end
$var wire 1 F count~10_combout $end
$var wire 1 G count~11_combout $end
$var wire 1 H count~12_combout $end
$var wire 1 I count~23_combout $end
$var wire 1 J count~24_combout $end
$var wire 1 K count~25_combout $end
$var wire 1 L count~26_combout $end
$var wire 1 M current_index[2]~11_combout $end
$var wire 1 N clock~combout $end
$var wire 1 O clock~clkctrl_outclk $end
$var wire 1 P count~31_combout $end
$var wire 1 Q clear~combout $end
$var wire 1 R clear~clkctrl_outclk $end
$var wire 1 S backspace~combout $end
$var wire 1 T button_input~combout $end
$var wire 1 U code[1][1]~13_combout $end
$var wire 1 V Add1~0_combout $end
$var wire 1 W count~3_combout $end
$var wire 1 X Add1~1 $end
$var wire 1 Y Add1~3 $end
$var wire 1 Z Add1~5 $end
$var wire 1 [ Add1~6_combout $end
$var wire 1 \ count~0_combout $end
$var wire 1 ] Add1~7 $end
$var wire 1 ^ Add1~8_combout $end
$var wire 1 _ count~4_combout $end
$var wire 1 ` Add1~9 $end
$var wire 1 a Add1~10_combout $end
$var wire 1 b count~5_combout $end
$var wire 1 c Add1~11 $end
$var wire 1 d Add1~12_combout $end
$var wire 1 e count~6_combout $end
$var wire 1 f Add1~13 $end
$var wire 1 g Add1~15 $end
$var wire 1 h Add1~16_combout $end
$var wire 1 i count~8_combout $end
$var wire 1 j Add1~17 $end
$var wire 1 k Add1~18_combout $end
$var wire 1 l count~9_combout $end
$var wire 1 m Add1~19 $end
$var wire 1 n Add1~21 $end
$var wire 1 o Add1~23 $end
$var wire 1 p Add1~25 $end
$var wire 1 q Add1~26_combout $end
$var wire 1 r count~13_combout $end
$var wire 1 s Add1~27 $end
$var wire 1 t Add1~28_combout $end
$var wire 1 u count~14_combout $end
$var wire 1 v Add1~29 $end
$var wire 1 w Add1~30_combout $end
$var wire 1 x count~15_combout $end
$var wire 1 y Add1~31 $end
$var wire 1 z Add1~32_combout $end
$var wire 1 { count~16_combout $end
$var wire 1 | Add1~33 $end
$var wire 1 } Add1~34_combout $end
$var wire 1 ~ count~17_combout $end
$var wire 1 !! Add1~35 $end
$var wire 1 "! Add1~36_combout $end
$var wire 1 #! count~18_combout $end
$var wire 1 $! Add1~37 $end
$var wire 1 %! Add1~38_combout $end
$var wire 1 &! count~19_combout $end
$var wire 1 '! Add1~39 $end
$var wire 1 (! Add1~40_combout $end
$var wire 1 )! count~20_combout $end
$var wire 1 *! Add1~41 $end
$var wire 1 +! Add1~42_combout $end
$var wire 1 ,! count~21_combout $end
$var wire 1 -! Add1~43 $end
$var wire 1 .! Add1~44_combout $end
$var wire 1 /! count~22_combout $end
$var wire 1 0! Add1~45 $end
$var wire 1 1! Add1~47 $end
$var wire 1 2! Add1~49 $end
$var wire 1 3! Add1~51 $end
$var wire 1 4! Add1~53 $end
$var wire 1 5! Add1~54_combout $end
$var wire 1 6! count~27_combout $end
$var wire 1 7! Add1~55 $end
$var wire 1 8! Add1~56_combout $end
$var wire 1 9! count~28_combout $end
$var wire 1 :! Add1~57 $end
$var wire 1 ;! Add1~58_combout $end
$var wire 1 <! count~29_combout $end
$var wire 1 =! Add1~59 $end
$var wire 1 >! Add1~60_combout $end
$var wire 1 ?! count~30_combout $end
$var wire 1 @! Add1~61 $end
$var wire 1 A! Add1~62_combout $end
$var wire 1 B! Add1~2_combout $end
$var wire 1 C! LessThan1~0_combout $end
$var wire 1 D! Add1~22_combout $end
$var wire 1 E! Add1~20_combout $end
$var wire 1 F! Add1~24_combout $end
$var wire 1 G! LessThan1~2_combout $end
$var wire 1 H! LessThan1~3_combout $end
$var wire 1 I! LessThan1~4_combout $end
$var wire 1 J! Add1~46_combout $end
$var wire 1 K! LessThan1~6_combout $end
$var wire 1 L! Add1~50_combout $end
$var wire 1 M! Add1~52_combout $end
$var wire 1 N! LessThan1~7_combout $end
$var wire 1 O! LessThan1~8_combout $end
$var wire 1 P! LessThan1~9_combout $end
$var wire 1 Q! code~8_combout $end
$var wire 1 R! code[0][0]~feeder_combout $end
$var wire 1 S! code[1][1]~11_combout $end
$var wire 1 T! current_index[1]~7_combout $end
$var wire 1 U! current_index[1]~8_combout $end
$var wire 1 V! code[1][1]~12_combout $end
$var wire 1 W! current_index[1]~9_combout $end
$var wire 1 X! Decoder0~0_combout $end
$var wire 1 Y! current_index[2]~10_combout $end
$var wire 1 Z! code~10_combout $end
$var wire 1 [! code[1][1]~29_combout $end
$var wire 1 \! code[3][1]~18_combout $end
$var wire 1 ]! code[1][1]~28_combout $end
$var wire 1 ^! code[3][1]~21_combout $end
$var wire 1 _! code[3][1]~regout $end
$var wire 1 `! code[0][1]~feeder_combout $end
$var wire 1 a! code[0][1]~regout $end
$var wire 1 b! Mux0~0_combout $end
$var wire 1 c! Mux0~1_combout $end
$var wire 1 d! code[1][1]~30_combout $end
$var wire 1 e! code[1][1]~31_combout $end
$var wire 1 f! code[1][1]~14_combout $end
$var wire 1 g! code[1][0]~regout $end
$var wire 1 h! code[3][0]~regout $end
$var wire 1 i! code[2][0]~feeder_combout $end
$var wire 1 j! code[2][0]~15_combout $end
$var wire 1 k! code[2][0]~16_combout $end
$var wire 1 l! code[2][0]~17_combout $end
$var wire 1 m! code[2][0]~regout $end
$var wire 1 n! Mux1~0_combout $end
$var wire 1 o! Mux1~1_combout $end
$var wire 1 p! current_index~4_combout $end
$var wire 1 q! code[4][0]~24_combout $end
$var wire 1 r! code[4][0]~22_combout $end
$var wire 1 s! code[4][0]~26_combout $end
$var wire 1 t! code[4][0]~regout $end
$var wire 1 u! code[4][1]~regout $end
$var wire 1 v! current_index~2_combout $end
$var wire 1 w! current_index~3_combout $end
$var wire 1 x! current_index[0]~6_combout $end
$var wire 1 y! code[0][1]~9_combout $end
$var wire 1 z! code[0][1]~27_combout $end
$var wire 1 {! code[0][0]~regout $end
$var wire 1 |! code[1][1]~regout $end
$var wire 1 }! code[2][1]~regout $end
$var wire 1 ~! count [31] $end
$var wire 1 !" count [30] $end
$var wire 1 "" count [29] $end
$var wire 1 #" count [28] $end
$var wire 1 $" count [27] $end
$var wire 1 %" count [26] $end
$var wire 1 &" count [25] $end
$var wire 1 '" count [24] $end
$var wire 1 (" count [23] $end
$var wire 1 )" count [22] $end
$var wire 1 *" count [21] $end
$var wire 1 +" count [20] $end
$var wire 1 ," count [19] $end
$var wire 1 -" count [18] $end
$var wire 1 ." count [17] $end
$var wire 1 /" count [16] $end
$var wire 1 0" count [15] $end
$var wire 1 1" count [14] $end
$var wire 1 2" count [13] $end
$var wire 1 3" count [12] $end
$var wire 1 4" count [11] $end
$var wire 1 5" count [10] $end
$var wire 1 6" count [9] $end
$var wire 1 7" count [8] $end
$var wire 1 8" count [7] $end
$var wire 1 9" count [6] $end
$var wire 1 :" count [5] $end
$var wire 1 ;" count [4] $end
$var wire 1 <" count [3] $end
$var wire 1 =" count [2] $end
$var wire 1 >" count [1] $end
$var wire 1 ?" count [0] $end
$var wire 1 @" current_index [2] $end
$var wire 1 A" current_index [1] $end
$var wire 1 B" current_index [0] $end
$upscope $end
$upscope $end
$enddefinitions $end
#0
$dumpvars
1!
0"
1#
0$
0&
0%
0(
0'
0*
0)
0,
0+
0.
0-
01
00
0/
x2
03
14
x5
16
17
18
09
0:
0;
0<
0=
1>
1?
1@
1A
0B
0C
0D
0E
0F
0G
0H
0I
0J
0K
0L
0M
0N
0O
0P
1Q
1R
1S
0T
1U
1V
1W
0X
1Y
0Z
0[
0\
1]
0^
0_
0`
0a
0b
1c
0d
0e
0f
1g
0h
0i
0j
0k
0l
1m
0n
1o
0p
0q
0r
1s
0t
0u
0v
0w
0x
1y
0z
0{
0|
0}
0~
1!!
0"!
0#!
0$!
0%!
0&!
1'!
0(!
0)!
0*!
0+!
0,!
1-!
0.!
0/!
00!
11!
02!
13!
04!
05!
06!
17!
08!
09!
0:!
0;!
0<!
1=!
0>!
0?!
0@!
0A!
0B!
0C!
0D!
0E!
0F!
0G!
0H!
0I!
0J!
0K!
0L!
0M!
0N!
0O!
0P!
1Q!
1R!
0S!
0T!
0U!
0V!
0W!
1X!
0Y!
0Z!
0[!
0\!
0]!
0^!
0_!
0`!
0a!
0b!
0c!
1d!
1e!
0f!
0g!
0h!
1i!
0j!
0k!
0l!
0m!
0n!
0o!
0p!
1q!
0r!
0s!
0t!
0u!
1v!
1w!
0x!
0y!
1z!
0{!
0|!
0}!
0?"
0>"
0="
0<"
0;"
0:"
09"
08"
07"
06"
05"
04"
03"
02"
01"
00"
0/"
0."
0-"
0,"
0+"
0*"
0)"
0("
0'"
0&"
0%"
0$"
0#"
0""
0!"
0~!
0B"
0A"
0@"
$end
#1000
1$
1N
1O
02
#2000
0$
0N
0O
12
1?"
1{!
1X
0V
1n!
1&
1B!
0W
1o!
1D
0w!
1j!
#3000
1$
1N
1O
02
#4000
0$
0N
0O
12
1>"
0?"
0Y
0B!
0X
1V
19
0D
1Y
1B!
1W
1C
09
1D
0C
#5000
1$
1N
1O
02
#6000
0$
0N
0O
12
1?"
1X
0V
0Y
0B!
0W
19
0D
1C
#7000
1$
1N
1O
02
#8000
0$
0N
0O
12
1="
0>"
0?"
1Z
09
1Y
1B!
0X
1V
1[
0C
0Z
19
1D
0B!
1W
1\
0[
1C
0D
0\
#9000
1$
1N
1O
02
#10000
0$
0N
0O
12
1?"
1X
0V
1B!
0W
1D
#11000
1$
1N
1O
02
#12000
0$
0N
0O
12
1>"
0?"
0Y
0B!
0X
1V
1Z
09
0D
1Y
1B!
1W
1[
0C
0Z
19
1D
1\
0[
1C
0\
#13000
1$
1N
1O
02
#14000
0$
0N
0O
12
1?"
1X
0V
0Y
0B!
0W
1Z
09
0D
1[
0C
1\
#15000
1$
1N
1O
02
#16000
0$
0N
0O
12
0="
0>"
0?"
1<"
0Z
19
1Y
1B!
0X
1V
0]
0[
1]
1[
1C
09
1D
0B!
1W
1^
0\
0^
1\
0C
0D
1_
0_
#17000
1$
1N
1O
02
#18000
0$
0N
0O
12
1?"
1X
0V
1B!
0W
1D
#19000
1$
1N
1O
02
#20000
0$
0N
0O
12
1>"
0?"
0Y
0B!
0X
1V
19
0D
1Y
1B!
1W
1C
09
1D
0C
#21000
1$
1N
1O
02
#22000
0$
0N
0O
12
1?"
1X
0V
0Y
0B!
0W
19
0D
1C
#23000
1$
1N
1O
02
#24000
0$
0N
0O
12
1="
0>"
0?"
1Z
09
1Y
1B!
0X
1V
0]
0[
0C
0Z
19
1D
0B!
1W
1^
0\
1]
1[
1C
0D
1C!
1_
0^
1\
1I!
0C!
0_
1Z!
0Q!
0I!
1`!
0i!
0R!
0Z!
1Q!
0`!
1i!
1R!
#25000
1$
1N
1O
02
#26000
0$
0N
0O
12
1?"
1X
0V
1B!
0W
1D
#27000
1$
1N
1O
02
#28000
0$
0N
0O
12
1>"
0?"
0Y
0B!
0X
1V
1Z
09
0D
1Y
1B!
1W
0]
0[
0C
0Z
19
1D
1^
0\
1]
1[
1C
1C!
1_
0^
1\
1I!
0C!
0_
1Z!
0Q!
0I!
1`!
0i!
0R!
0Z!
1Q!
0`!
1i!
1R!
#29000
1$
1N
1O
02
#30000
0$
0N
0O
12
1?"
1X
0V
0Y
0B!
0W
1Z
09
0D
0]
0[
0C
1^
0\
1_
#31000
1$
1N
1O
02
#32000
0$
0N
0O
12
0="
0>"
0?"
0<"
1;"
0Z
19
1Y
1B!
0X
1V
1]
1[
1`
0^
0[
1C
09
1D
0B!
1W
0`
1^
1\
1a
0_
0\
0C
0D
0a
1_
1b
1<
0b
0<
1I!
0I!
1Z!
0Q!
0Z!
1Q!
1`!
0i!
0R!
0`!
1i!
1R!
#33000
1$
1N
1O
02
#34000
0$
0N
0O
12
1?"
1X
0V
1B!
0W
1D
#35000
1$
1N
1O
02
#36000
0$
0N
0O
12
1>"
0?"
0Y
0B!
0X
1V
19
0D
1Y
1B!
1W
1C
09
1D
0C
#37000
1$
1N
1O
02
#38000
0$
0N
0O
12
1?"
1X
0V
0Y
0B!
0W
19
0D
1C
#39000
1$
1N
1O
02
#40000
0$
0N
0O
12
1="
0>"
0?"
1Z
09
1Y
1B!
0X
1V
1[
0C
0Z
19
1D
0B!
1W
1C!
1\
0[
1C
0D
1I!
0C!
0\
1Z!
0Q!
0I!
1`!
0i!
0R!
0Z!
1Q!
0`!
1i!
1R!
#41000
1$
1N
1O
02
#42000
0$
0N
0O
12
1?"
1X
0V
1B!
0W
1D
#43000
1$
1N
1O
02
#44000
0$
0N
0O
12
1>"
0?"
0Y
0B!
0X
1V
1Z
09
0D
1Y
1B!
1W
1[
0C
0Z
19
1D
1C!
1\
0[
1C
1I!
0C!
0\
1Z!
0Q!
0I!
1`!
0i!
0R!
0Z!
1Q!
0`!
1i!
1R!
#45000
1$
1N
1O
02
#46000
0$
0N
0O
12
1?"
1X
0V
0Y
0B!
0W
1Z
09
0D
1[
0C
1\
#47000
1$
1N
1O
02
#48000
0$
0N
0O
12
0="
0>"
0?"
1<"
0Z
19
1Y
1B!
0X
1V
0]
0[
1]
1[
1C
09
1D
0B!
1W
1`
0^
0\
0`
1^
1\
0C
0D
1a
0_
0a
1_
1b
1<
0b
0<
1I!
0I!
1Z!
0Q!
0Z!
1Q!
1`!
0i!
0R!
0`!
1i!
1R!
#49000
1$
1N
1O
02
#50000
0$
0N
0O
12
1?"
1X
0V
1B!
0W
1C!
1D
1I!
1Z!
0Q!
1`!
0i!
0R!
#51000
1$
1N
1O
02
#52000
0$
0N
0O
12
1>"
0?"
1a!
0{!
0Y
0B!
0X
1V
1b!
0n!
1%
0&
19
0C!
0D
1Y
1B!
1W
1c!
0o!
1C!
1C
0I!
09
1D
1I!
0Z!
1Q!
0C
1Z!
0Q!
0`!
1i!
1R!
1`!
0i!
0R!
#53000
1$
1N
1O
02
#54000
0$
0N
0O
12
1?"
1X
0V
0Y
0B!
0W
19
0C!
0D
1C!
1C
0I!
1I!
0Z!
1Q!
1Z!
0Q!
0`!
1i!
1R!
1`!
0i!
0R!
#55000
1$
1N
1O
02
#56000
0$
0N
0O
12
1="
0>"
0?"
1Z
09
1Y
1B!
0X
1V
0]
0[
0C
0Z
19
1D
0B!
1W
1`
0^
0C!
0\
1]
1[
1C
0D
1a
0_
0I!
0`
1^
1\
1b
1<
0Z!
1Q!
0a
1C!
1_
1I!
0`!
1i!
1R!
0b
0<
1Z!
0Q!
1`!
0i!
0R!
#57000
1$
1N
1O
02
#58000
0$
0N
0O
12
1?"
1X
0V
1B!
0W
1D
#59000
1$
1N
1O
02
#60000
0$
0N
0O
12
1>"
0?"
0Y
0B!
0X
1V
1Z
09
0D
1Y
1B!
1W
0]
0[
0C
0Z
19
1D
1`
0^
0C!
0\
1]
1[
1C
1a
0_
0I!
0`
1^
1\
1b
1<
0Z!
1Q!
0a
1C!
1_
1I!
0`!
1i!
1R!
0b
0<
1Z!
0Q!
1`!
0i!
0R!
#61000
1$
1N
1O
02
#62000
0$
0N
0O
12
1?"
1X
0V
0Y
0B!
0W
1Z
09
0D
0]
0[
0C!
0C
1`
0^
0\
0I!
1a
0_
0Z!
1Q!
1b
1<
0`!
1i!
1R!
1I!
1Z!
0Q!
1`!
0i!
0R!
#63000
1$
1N
1O
02
#64000
0$
0N
0O
12
0="
0>"
0?"
0<"
0;"
1:"
0Z
19
1Y
1B!
0X
1V
1]
1[
0`
1^
0c
0a
0[
1C!
1C
09
1D
0B!
1W
0^
1\
1c
1a
1_
1d
0b
0<
0C!
0\
0C
0D
0_
0d
1b
1<
1e
0e
#65000
1$
1N
1O
02
#66000
0$
0N
0O
12
1?"
1X
0V
1B!
0W
1D
#67000
1$
1N
1O
02
#68000
0$
0N
0O
12
1>"
0?"
0Y
0B!
0X
1V
19
0D
1Y
1B!
1W
1C
09
1D
0C
#69000
1$
1N
1O
02
#70000
0$
0N
0O
12
1?"
1X
0V
0Y
0B!
0W
19
0D
1C
#71000
1$
1N
1O
02
#72000
0$
0N
0O
12
1="
0>"
0?"
1Z
09
1Y
1B!
0X
1V
1[
0C
0Z
19
1D
0B!
1W
1\
0[
1C
0D
0\
#73000
1$
1N
1O
02
#74000
0$
0N
0O
12
1?"
1X
0V
1B!
0W
1D
#75000
1$
1N
1O
02
#76000
0$
0N
0O
12
1>"
0?"
0Y
0B!
0X
1V
1Z
09
0D
1Y
1B!
1W
1[
0C
0Z
19
1D
1\
0[
1C
0\
#77000
1$
1N
1O
02
#78000
0$
0N
0O
12
1?"
1X
0V
0Y
0B!
0W
1Z
09
0D
1[
0C
1\
#79000
1$
1N
1O
02
#80000
0$
0N
0O
12
0="
0>"
0?"
1<"
0Z
19
1Y
1B!
0X
1V
0]
0[
1]
1[
1C
09
1D
0B!
1W
1^
0\
0^
1\
0C
0D
1_
0_
#81000
1$
1N
1O
02
#82000
0$
0N
0O
12
1?"
1X
0V
1B!
0W
1D
#83000
1$
1N
1O
02
#84000
0$
0N
0O
12
1>"
0?"
0Y
0B!
0X
1V
19
0D
1Y
1B!
1W
1C
09
1D
0C
#85000
1$
1N
1O
02
#86000
0$
0N
0O
12
1?"
1X
0V
0Y
0B!
0W
19
0D
1C
#87000
1$
1N
1O
02
#88000
0$
0N
0O
12
1="
0>"
0?"
1Z
09
1Y
1B!
0X
1V
0]
0[
0C
0Z
19
1D
0B!
1W
1^
0\
1]
1[
1C
0D
1C!
1_
0^
1\
0C!
0_
#89000
1$
1N
1O
02
#90000
0$
0N
0O
12
1?"
1X
0V
1B!
0W
1D
#91000
1$
1N
1O
02
#92000
0$
0N
0O
12
1>"
0?"
0Y
0B!
0X
1V
1Z
09
0D
1Y
1B!
1W
0]
0[
0C
0Z
19
1D
1^
0\
1]
1[
1C
1C!
1_
0^
1\
0C!
0_
#93000
1$
1N
1O
02
#94000
0$
0N
0O
12
1?"
1X
0V
0Y
0B!
0W
1Z
09
0D
0]
0[
0C
1^
0\
1_
#95000
1$
1N
1O
02
#96000
0$
0N
0O
12
0="
0>"
0?"
0<"
1;"
0Z
19
1Y
1B!
0X
1V
1]
1[
1`
0^
0[
1C
09
1D
0B!
1W
0`
1^
1\
0c
0a
0_
0\
0C
0D
1c
1a
1_
1d
0b
0<
0d
1b
1<
1e
0I!
0e
1I!
0Z!
1Q!
1Z!
0Q!
0`!
1i!
1R!
1`!
0i!
0R!
#97000
1$
1N
1O
02
#98000
0$
0N
0O
12
1?"
1X
0V
1B!
0W
1D
#99000
1$
1N
1O
02
#100000
1"
0$
1T
0N
0O
12
1y!
0e!
0Z!
1S!
0b
0_
0D
1B
0@
0>
0z!
1f!
0`!
1r!
1\!
1x!
0?
1>"
0?"
0Y
0B!
0X
1V
19
1Y
1B!
09
#101000
1$
1N
1O
02
#102000
0$
0N
0O
12
0>"
0;"
0:"
1B"
0B!
0^
0a
0x!
1k!
0d!
0b!
1]!
0\!
0X!
1V!
11
0<
1l!
0c!
0f!
1W!
0I!
0y!
1w!
0j!
1x!
0]!
1\!
0V!
0k!
1f!
0W!
0l!
#103000
1$
1N
1O
02
#104000
0$
0N
0O
12
#105000
1$
1N
1O
02
#106000
0$
0N
0O
12
#107000
1$
1N
1O
02
#108000
0$
0N
0O
12
#109000
1$
1N
1O
02
#110000
0$
0N
0O
12
#111000
1$
1N
1O
02
#112000
0$
0N
0O
12
#113000
1$
1N
1O
02
#114000
0$
0N
0O
12
#115000
1$
1N
1O
02
#116000
0$
0N
0O
12
#117000
1$
1N
1O
02
#118000
0$
0N
0O
12
#119000
1$
1N
1O
02
#120000
0$
0N
0O
12
#121000
1$
1N
1O
02
#122000
0$
0N
0O
12
#123000
1$
1N
1O
02
#124000
0$
0N
0O
12
#125000
1$
1N
1O
02
#126000
0$
0N
0O
12
#127000
1$
1N
1O
02
#128000
0$
0N
0O
12
#129000
1$
1N
1O
02
#130000
0$
0N
0O
12
#131000
1$
1N
1O
02
#132000
0$
0N
0O
12
#133000
1$
1N
1O
02
#134000
0$
0N
0O
12
#135000
1$
1N
1O
02
#136000
0$
0N
0O
12
#137000
1$
1N
1O
02
#138000
0$
0N
0O
12
#139000
1$
1N
1O
02
#140000
0$
0N
0O
12
#141000
1$
1N
1O
02
#142000
0$
0N
0O
12
#143000
1$
1N
1O
02
#144000
0$
0N
0O
12
#145000
1$
1N
1O
02
#146000
0$
0N
0O
12
#147000
1$
1N
1O
02
#148000
0$
0N
0O
12
#149000
1$
1N
1O
02
#150000
0"
0$
0T
0N
0O
12
0S!
1Q!
1W
0B
1@
1>
0r!
0\!
1i!
1R!
1?
#151000
1$
1N
1O
02
#152000
0$
0N
0O
12
1?"
1g!
1X
0V
1o!
1(
1B!
0W
0w!
1j!
1D
1k!
#153000
1$
1N
1O
02
#154000
0$
0N
0O
12
1>"
0?"
0Y
0B!
0X
1V
19
0D
1Y
1B!
1W
1C
09
1D
0C
#155000
1$
1N
1O
02
#156000
0$
0N
0O
12
1?"
1X
0V
0Y
0B!
0W
19
0D
1C
#157000
1$
1N
1O
02
#158000
0$
0N
0O
12
1="
0>"
0?"
1Z
09
1Y
1B!
0X
1V
1[
0C
0Z
19
1D
0B!
1W
1\
0[
1C
0D
0\
#159000
1$
1N
1O
02
#160000
0$
0N
0O
12
1?"
1X
0V
1B!
0W
1D
#161000
1$
1N
1O
02
#162000
0$
0N
0O
12
1>"
0?"
0Y
0B!
0X
1V
1Z
09
0D
1Y
1B!
1W
1[
0C
0Z
19
1D
1\
0[
1C
0\
#163000
1$
1N
1O
02
#164000
0$
0N
0O
12
1?"
1X
0V
0Y
0B!
0W
1Z
09
0D
1[
0C
1\
#165000
1$
1N
1O
02
#166000
0$
0N
0O
12
0="
0>"
0?"
1<"
0Z
19
1Y
1B!
0X
1V
0]
0[
1]
1[
1C
09
1D
0B!
1W
1^
0\
0^
1\
0C
0D
1_
0_
#167000
1$
1N
1O
02
#168000
0$
0N
0O
12
1?"
1X
0V
1B!
0W
1D
#169000
1$
1N
1O
02
#170000
0$
0N
0O
12
1>"
0?"
0Y
0B!
0X
1V
19
0D
1Y
1B!
1W
1C
09
1D
0C
#171000
1$
1N
1O
02
#172000
0$
0N
0O
12
1?"
1X
0V
0Y
0B!
0W
19
0D
1C
#173000
1$
1N
1O
02
#174000
0$
0N
0O
12
1="
0>"
0?"
1Z
09
1Y
1B!
0X
1V
0]
0[
0C
0Z
19
1D
0B!
1W
1^
0\
1]
1[
1C
0D
1C!
1_
0^
1\
1I!
0C!
0_
1Z!
0Q!
0I!
1`!
0i!
0R!
0Z!
1Q!
0`!
1i!
1R!
#175000
1$
1N
1O
02
#176000
0$
0N
0O
12
1?"
1X
0V
1B!
0W
1D
#177000
1$
1N
1O
02
#178000
0$
0N
0O
12
1>"
0?"
0Y
0B!
0X
1V
1Z
09
0D
1Y
1B!
1W
0]
0[
0C
0Z
19
1D
1^
0\
1]
1[
1C
1C!
1_
0^
1\
1I!
0C!
0_
1Z!
0Q!
0I!
1`!
0i!
0R!
0Z!
1Q!
0`!
1i!
1R!
#179000
1$
1N
1O
02
#180000
0$
0N
0O
12
1?"
1X
0V
0Y
0B!
0W
1Z
09
0D
0]
0[
0C
1^
0\
1_
#181000
1$
1N
1O
02
#182000
0$
0N
0O
12
0="
0>"
0?"
0<"
1;"
0Z
19
1Y
1B!
0X
1V
1]
1[
1`
0^
0[
1C
09
1D
0B!
1W
0`
1^
1\
1a
0_
0\
0C
0D
0a
1_
1b
1<
0b
0<
1I!
0I!
1Z!
0Q!
0Z!
1Q!
1`!
0i!
0R!
0`!
1i!
1R!
#183000
1$
1N
1O
02
#184000
0$
0N
0O
12
1?"
1X
0V
1B!
0W
1D
#185000
1$
1N
1O
02
#186000
0$
0N
0O
12
1>"
0?"
0Y
0B!
0X
1V
19
0D
1Y
1B!
1W
1C
09
1D
0C
#187000
1$
1N
1O
02
#188000
0$
0N
0O
12
1?"
1X
0V
0Y
0B!
0W
19
0D
1C
#189000
1$
1N
1O
02
#190000
0$
0N
0O
12
1="
0>"
0?"
1Z
09
1Y
1B!
0X
1V
1[
0C
0Z
19
1D
0B!
1W
1C!
1\
0[
1C
0D
1I!
0C!
0\
1Z!
0Q!
0I!
1`!
0i!
0R!
0Z!
1Q!
0`!
1i!
1R!
#191000
1$
1N
1O
02
#192000
0$
0N
0O
12
1?"
1X
0V
1B!
0W
1D
#193000
1$
1N
1O
02
#194000
0$
0N
0O
12
1>"
0?"
0Y
0B!
0X
1V
1Z
09
0D
1Y
1B!
1W
1[
0C
0Z
19
1D
1C!
1\
0[
1C
1I!
0C!
0\
1Z!
0Q!
0I!
1`!
0i!
0R!
0Z!
1Q!
0`!
1i!
1R!
#195000
1$
1N
1O
02
#196000
0$
0N
0O
12
1?"
1X
0V
0Y
0B!
0W
1Z
09
0D
1[
0C
1\
#197000
1$
1N
1O
02
#198000
0$
0N
0O
12
0="
0>"
0?"
1<"
0Z
19
1Y
1B!
0X
1V
0]
0[
1]
1[
1C
09
1D
0B!
1W
1`
0^
0\
0`
1^
1\
0C
0D
1a
0_
0a
1_
1b
1<
0b
0<
1I!
0I!
1Z!
0Q!
0Z!
1Q!
1`!
0i!
0R!
0`!
1i!
1R!
#199000
1$
1N
1O
02
#200000
0$
0N
0O
12
1?"
1X
0V
1B!
0W
1C!
1D
1I!
1Z!
0Q!
1`!
0i!
0R!
#201000
1$
1N
1O
02
#202000
0$
0N
0O
12
1>"
0?"
0g!
1|!
0Y
0B!
0X
1V
0o!
1b!
0(
1'
19
0C!
0D
1Y
1B!
1W
1w!
0j!
1c!
1C!
1C
0I!
09
1D
0k!
0w!
1j!
1I!
0Z!
1Q!
0C
1k!
1Z!
0Q!
0`!
1i!
1R!
1`!
0i!
0R!
#203000
1$
1N
1O
02
#204000
0$
0N
0O
12
1?"
1X
0V
0Y
0B!
0W
19
0C!
0D
1C!
1C
0I!
1I!
0Z!
1Q!
1Z!
0Q!
0`!
1i!
1R!
1`!
0i!
0R!
#205000
1$
1N
1O
02
#206000
0$
0N
0O
12
1="
0>"
0?"
1Z
09
1Y
1B!
0X
1V
0]
0[
0C
0Z
19
1D
0B!
1W
1`
0^
0C!
0\
1]
1[
1C
0D
1a
0_
0I!
0`
1^
1\
1b
1<
0Z!
1Q!
0a
1C!
1_
1I!
0`!
1i!
1R!
0b
0<
1Z!
0Q!
1`!
0i!
0R!
#207000
1$
1N
1O
02
#208000
0$
0N
0O
12
1?"
1X
0V
1B!
0W
1D
#209000
1$
1N
1O
02
#210000
0$
0N
0O
12
1>"
0?"
0Y
0B!
0X
1V
1Z
09
0D
1Y
1B!
1W
0]
0[
0C
0Z
19
1D
1`
0^
0C!
0\
1]
1[
1C
1a
0_
0I!
0`
1^
1\
1b
1<
0Z!
1Q!
0a
1C!
1_
1I!
0`!
1i!
1R!
0b
0<
1Z!
0Q!
1`!
0i!
0R!
#211000
1$
1N
1O
02
#212000
0$
0N
0O
12
1?"
1X
0V
0Y
0B!
0W
1Z
09
0D
0]
0[
0C!
0C
1`
0^
0\
0I!
1a
0_
0Z!
1Q!
1b
1<
0`!
1i!
1R!
1I!
1Z!
0Q!
1`!
0i!
0R!
#213000
1$
1N
1O
02
#214000
0$
0N
0O
12
0="
0>"
0?"
0<"
0;"
1:"
0Z
19
1Y
1B!
0X
1V
1]
1[
0`
1^
0c
0a
0[
1C!
1C
09
1D
0B!
1W
0^
1\
1c
1a
1_
1d
0b
0<
0C!
0\
0C
0D
0_
0d
1b
1<
1e
0e
#215000
1$
1N
1O
02
#216000
0$
0N
0O
12
1?"
1X
0V
1B!
0W
1D
#217000
1$
1N
1O
02
#218000
0$
0N
0O
12
1>"
0?"
0Y
0B!
0X
1V
19
0D
1Y
1B!
1W
1C
09
1D
0C
#219000
1$
1N
1O
02
#220000
0$
0N
0O
12
1?"
1X
0V
0Y
0B!
0W
19
0D
1C
#221000
1$
1N
1O
02
#222000
0$
0N
0O
12
1="
0>"
0?"
1Z
09
1Y
1B!
0X
1V
1[
0C
0Z
19
1D
0B!
1W
1\
0[
1C
0D
0\
#223000
1$
1N
1O
02
#224000
0$
0N
0O
12
1?"
1X
0V
1B!
0W
1D
#225000
1$
1N
1O
02
