short_or_long_signal_identifier/simulation/qsim/short_or_long_signal_identifier.msim.vcd
$comment
	File created using the following command:
		vcd file short_or_long_signal_identifier.msim.vcd -direction
$end
$date
	Thu Aug 22 18:46:11 2019
$end
$version
	ModelSim Version 10.1d
$end
$timescale
	1ps
$end
$scope module short_or_long_signal_identifier_vlg_vec_tst $end
$var reg 1 ! button_input $end
$var reg 1 " clear $end
$var reg 1 # clock $end
$var wire 1 $ code_test0 [1] $end
$var wire 1 % code_test0 [0] $end
$var wire 1 & code_test1 [1] $end
$var wire 1 ' code_test1 [0] $end
$var wire 1 ( code_test2 [1] $end
$var wire 1 ) code_test2 [0] $end
$var wire 1 * code_test3 [1] $end
$var wire 1 + code_test3 [0] $end
$var wire 1 , code_test4 [1] $end
$var wire 1 - code_test4 [0] $end
$var wire 1 . sampler $end
$scope module i1 $end
$var wire 1 / gnd $end
$var wire 1 0 vcc $end
$var wire 1 1 unknown $end
$var tri1 1 2 devclrn $end
$var tri1 1 3 devpor $end
$var tri1 1 4 devoe $end
$var wire 1 5 Add1~16_combout $end
$var wire 1 6 Add1~24_combout $end
$var wire 1 7 Add1~34_combout $end
$var wire 1 8 Add1~38_combout $end
$var wire 1 9 Equal0~0_combout $end
$var wire 1 : count~0_combout $end
$var wire 1 ; count~3_combout $end
$var wire 1 < count~4_combout $end
$var wire 1 = count~5_combout $end
$var wire 1 > count~6_combout $end
$var wire 1 ? count~8_combout $end
$var wire 1 @ count~16_combout $end
$var wire 1 A count~17_combout $end
$var wire 1 B count~21_combout $end
$var wire 1 C count~26_combout $end
$var wire 1 D count~30_combout $end
$var wire 1 E clock~combout $end
$var wire 1 F clock~clkctrl_outclk $end
$var wire 1 G Add1~1 $end
$var wire 1 H Add1~2_combout $end
$var wire 1 I count~15_combout $end
$var wire 1 J clear~combout $end
$var wire 1 K clear~clkctrl_outclk $end
$var wire 1 L Add1~3 $end
$var wire 1 M Add1~4_combout $end
$var wire 1 N count~14_combout $end
$var wire 1 O Add1~5 $end
$var wire 1 P Add1~6_combout $end
$var wire 1 Q count~13_combout $end
$var wire 1 R Add1~7 $end
$var wire 1 S Add1~8_combout $end
$var wire 1 T button_input~combout $end
$var wire 1 U count~12_combout $end
$var wire 1 V Add1~9 $end
$var wire 1 W Add1~10_combout $end
$var wire 1 X count~11_combout $end
$var wire 1 Y Add1~11 $end
$var wire 1 Z Add1~12_combout $end
$var wire 1 [ count~10_combout $end
$var wire 1 \ Add1~13 $end
$var wire 1 ] Add1~14_combout $end
$var wire 1 ^ count~9_combout $end
$var wire 1 _ Add1~15 $end
$var wire 1 ` Add1~17 $end
$var wire 1 a Add1~18_combout $end
$var wire 1 b count~7_combout $end
$var wire 1 c Add1~19 $end
$var wire 1 d Add1~21 $end
$var wire 1 e Add1~23 $end
$var wire 1 f Add1~25 $end
$var wire 1 g Add1~27 $end
$var wire 1 h Add1~28_combout $end
$var wire 1 i count~2_combout $end
$var wire 1 j Add1~29 $end
$var wire 1 k Add1~30_combout $end
$var wire 1 l count~1_combout $end
$var wire 1 m Add1~31 $end
$var wire 1 n Add1~32_combout $end
$var wire 1 o Add1~20_combout $end
$var wire 1 p LessThan0~5_combout $end
$var wire 1 q Add1~0_combout $end
$var wire 1 r LessThan0~3_combout $end
$var wire 1 s LessThan0~4_combout $end
$var wire 1 t Add1~22_combout $end
$var wire 1 u Add1~26_combout $end
$var wire 1 v LessThan0~2_combout $end
$var wire 1 w LessThan0~6_combout $end
$var wire 1 x count~23_combout $end
$var wire 1 y Add1~33 $end
$var wire 1 z Add1~35 $end
$var wire 1 { Add1~36_combout $end
$var wire 1 | count~22_combout $end
$var wire 1 } Add1~37 $end
$var wire 1 ~ Add1~39 $end
$var wire 1 !! Add1~40_combout $end
$var wire 1 "! count~20_combout $end
$var wire 1 #! Add1~41 $end
$var wire 1 $! Add1~42_combout $end
$var wire 1 %! count~19_combout $end
$var wire 1 &! Add1~43 $end
$var wire 1 '! Add1~44_combout $end
$var wire 1 (! count~18_combout $end
$var wire 1 )! Add1~45 $end
$var wire 1 *! Add1~46_combout $end
$var wire 1 +! count~24_combout $end
$var wire 1 ,! Add1~47 $end
$var wire 1 -! Add1~48_combout $end
$var wire 1 .! LessThan0~0_combout $end
$var wire 1 /! LessThan0~1_combout $end
$var wire 1 0! LessThan0~7_combout $end
$var wire 1 1! count~25_combout $end
$var wire 1 2! Add1~49 $end
$var wire 1 3! Add1~50_combout $end
$var wire 1 4! count~31_combout $end
$var wire 1 5! Add1~51 $end
$var wire 1 6! Add1~53 $end
$var wire 1 7! Add1~54_combout $end
$var wire 1 8! count~29_combout $end
$var wire 1 9! Add1~55 $end
$var wire 1 :! Add1~56_combout $end
$var wire 1 ;! count~28_combout $end
$var wire 1 <! Add1~57 $end
$var wire 1 =! Add1~58_combout $end
$var wire 1 >! count~27_combout $end
$var wire 1 ?! Add1~59 $end
$var wire 1 @! Add1~61 $end
$var wire 1 A! Add1~62_combout $end
$var wire 1 B! Add1~52_combout $end
$var wire 1 C! LessThan0~8_combout $end
$var wire 1 D! Add1~60_combout $end
$var wire 1 E! LessThan0~9_combout $end
$var wire 1 F! code~0_combout $end
$var wire 1 G! code~1_combout $end
$var wire 1 H! code[0][0]~feeder_combout $end
$var wire 1 I! current_index~2_combout $end
$var wire 1 J! current_index[1]~feeder_combout $end
$var wire 1 K! code~5_combout $end
$var wire 1 L! code[2][1]~feeder_combout $end
$var wire 1 M! code[3][0]~7_combout $end
$var wire 1 N! code[2][1]~9_combout $end
$var wire 1 O! code[2][1]~10_combout $end
$var wire 1 P! code[2][1]~regout $end
$var wire 1 Q! code[0][1]~feeder_combout $end
$var wire 1 R! code[0][1]~regout $end
$var wire 1 S! Mux0~0_combout $end
$var wire 1 T! Mux0~1_combout $end
$var wire 1 U! code[2][0]~feeder_combout $end
$var wire 1 V! code[2][0]~regout $end
$var wire 1 W! code[1][0]~6_combout $end
$var wire 1 X! code[1][0]~8_combout $end
$var wire 1 Y! code[1][0]~regout $end
$var wire 1 Z! Mux1~0_combout $end
$var wire 1 [! Mux1~1_combout $end
$var wire 1 \! Equal0~1_combout $end
$var wire 1 ]! current_index~1_combout $end
$var wire 1 ^! current_index~0_combout $end
$var wire 1 _! current_index[2]~feeder_combout $end
$var wire 1 `! code[0][1]~2_combout $end
$var wire 1 a! code[4][0]~3_combout $end
$var wire 1 b! code[0][1]~4_combout $end
$var wire 1 c! code[0][0]~regout $end
$var wire 1 d! code[1][1]~regout $end
$var wire 1 e! code[3][0]~feeder_combout $end
$var wire 1 f! code[3][0]~11_combout $end
$var wire 1 g! code[3][0]~12_combout $end
$var wire 1 h! code[3][0]~regout $end
$var wire 1 i! code[3][1]~feeder_combout $end
$var wire 1 j! code[3][1]~regout $end
$var wire 1 k! Equal1~0_combout $end
$var wire 1 l! code[4][0]~13_combout $end
$var wire 1 m! code[4][0]~regout $end
$var wire 1 n! code[4][1]~regout $end
$var wire 1 o! current_index [2] $end
$var wire 1 p! current_index [1] $end
$var wire 1 q! current_index [0] $end
$var wire 1 r! count [31] $end
$var wire 1 s! count [30] $end
$var wire 1 t! count [29] $end
$var wire 1 u! count [28] $end
$var wire 1 v! count [27] $end
$var wire 1 w! count [26] $end
$var wire 1 x! count [25] $end
$var wire 1 y! count [24] $end
$var wire 1 z! count [23] $end
$var wire 1 {! count [22] $end
$var wire 1 |! count [21] $end
$var wire 1 }! count [20] $end
$var wire 1 ~! count [19] $end
$var wire 1 !" count [18] $end
$var wire 1 "" count [17] $end
$var wire 1 #" count [16] $end
$var wire 1 $" count [15] $end
$var wire 1 %" count [14] $end
$var wire 1 &" count [13] $end
$var wire 1 '" count [12] $end
$var wire 1 (" count [11] $end
$var wire 1 )" count [10] $end
$var wire 1 *" count [9] $end
$var wire 1 +" count [8] $end
$var wire 1 ," count [7] $end
$var wire 1 -" count [6] $end
$var wire 1 ." count [5] $end
$var wire 1 /" count [4] $end
$var wire 1 0" count [3] $end
$var wire 1 1" count [2] $end
$var wire 1 2" count [1] $end
$var wire 1 3" count [0] $end
$upscope $end
$upscope $end
$enddefinitions $end
#0
$dumpvars
0!
1"
0#
0%
0$
0'
0&
0)
0(
0+
0*
0-
0,
x.
0/
10
x1
12
13
14
05
06
07
08
09
0:
0;
0<
0=
0>
0?
1@
0A
0B
0C
0D
0E
0F
0G
0H
0I
1J
1K
1L
0M
0N
0O
0P
0Q
1R
0S
0T
0U
0V
0W
0X
1Y
0Z
0[
0\
0]
0^
1_
0`
0a
0b
1c
0d
1e
0f
1g
0h
0i
0j
0k
0l
1m
0n
0o
0p
1q
1r
0s
0t
0u
0v
0w
0x
0y
1z
0{
0|
0}
1~
0!!
0"!
0#!
0$!
0%!
1&!
0'!
0(!
0)!
0*!
0+!
1,!
0-!
0.!
0/!
00!
01!
02!
03!
04!
15!
06!
07!
08!
19!
0:!
0;!
0<!
0=!
0>!
1?!
0@!
0A!
0B!
0C!
0D!
0E!
0F!
1G!
1H!
0I!
0J!
0K!
0L!
1M!
0N!
0O!
0P!
0Q!
0R!
0S!
0T!
1U!
0V!
0W!
0X!
0Y!
0Z!
0[!
0\!
0]!
0^!
0_!
1`!
1a!
1b!
0c!
0d!
1e!
0f!
0g!
0h!
0i!
0j!
0k!
0l!
0m!
0n!
0q!
0p!
0o!
03"
02"
01"
00"
0/"
0."
0-"
0,"
0+"
0*"
0)"
0("
0'"
0&"
0%"
0$"
0#"
0""
0!"
0~!
0}!
0|!
0{!
0z!
0y!
0x!
0w!
0v!
0u!
0t!
0s!
0r!
$end
#1000
1#
1E
1F
0.
#2000
0#
0E
0F
1.
13"
1c!
1G
0q
1Z!
1%
1H
0r
0@
1[!
1r
1I
1\!
0a!
1]!
#3000
1#
1E
1F
0.
#4000
0#
0E
0F
1.
03"
12"
0G
1q
0L
0H
1L
1H
1@
1M
0I
0M
1I
1N
0N
#5000
1#
1E
1F
0.
#6000
0#
0E
0F
1.
13"
1G
0q
0L
0H
0@
1M
0r
0I
1r
1N
#7000
1#
1E
1F
0.
#8000
0#
0E
0F
1.
03"
02"
11"
0G
1q
1L
1H
1O
0M
0H
1@
0O
1M
1I
1P
0N
0I
0P
1N
1Q
0Q
#9000
1#
1E
1F
0.
#10000
0#
0E
0F
1.
13"
1G
0q
1H
0@
1I
#11000
1#
1E
1F
0.
#12000
0#
0E
0F
1.
03"
12"
0G
1q
0L
0H
1L
1H
1@
1O
0M
0I
0O
1M
1I
1P
0N
0P
1N
1Q
0Q
#13000
1#
1E
1F
0.
#14000
0#
0E
0F
1.
13"
1G
0q
0L
0H
0@
1O
0M
0I
1P
0r
0N
1r
1Q
#15000
1#
1E
1F
0.
#16000
0#
0E
0F
1.
03"
02"
01"
10"
0G
1q
1L
1H
0O
1M
0R
0P
0H
1@
0M
1I
1R
1P
1N
1S
0Q
0I
0N
0S
1Q
1U
0U
#17000
1#
1E
1F
0.
#18000
0#
0E
0F
1.
13"
1G
0q
1H
0@
1I
#19000
1#
1E
1F
0.
#20000
0#
0E
0F
1.
03"
12"
0G
1q
0L
0H
1L
1H
1@
1M
0I
0M
1I
1N
0N
#21000
1#
1E
1F
0.
#22000
0#
0E
0F
1.
13"
1G
0q
0L
0H
0@
1M
0I
1N
#23000
1#
1E
1F
0.
#24000
0#
0E
0F
1.
03"
02"
11"
0G
1q
1L
1H
1O
0M
0H
1@
0O
1M
1I
0R
0P
0N
0I
1R
1P
1N
1S
0Q
0S
1Q
1U
0U
#25000
1#
1E
1F
0.
#26000
0#
0E
0F
1.
13"
1G
0q
1H
0@
1I
#27000
1#
1E
1F
0.
#28000
0#
0E
0F
1.
03"
12"
0G
1q
0L
0H
1L
1H
1@
1O
0M
0I
0O
1M
1I
0R
0P
0N
1R
1P
1N
1S
0Q
0S
1Q
1U
0U
#29000
1#
1E
1F
0.
#30000
0#
0E
0F
1.
13"
1G
0q
0L
0H
0@
1O
0M
0I
0R
0P
0N
1S
0r
0Q
1U
#31000
1#
1E
1F
0.
#32000
0#
0E
0F
1.
03"
02"
01"
00"
1/"
0G
1q
1L
1H
0O
1M
1R
1P
1V
0S
0H
1r
1@
0M
1I
0P
1N
0V
1S
1Q
1W
0U
0I
0N
0Q
0W
1U
1X
0X
#33000
1#
1E
1F
0.
#34000
0#
0E
0F
1.
13"
1G
0q
1H
0r
0@
1r
1I
#35000
1#
1E
1F
0.
#36000
0#
0E
0F
1.
03"
12"
0G
1q
0L
0H
1L
1H
1@
1M
0I
0M
1I
1N
0N
#37000
1#
1E
1F
0.
#38000
0#
0E
0F
1.
13"
1G
0q
0L
0H
0@
1M
0r
0I
1r
1N
#39000
1#
1E
1F
0.
#40000
0#
0E
0F
1.
03"
02"
11"
0G
1q
1L
1H
1O
0M
0H
1@
0O
1M
1I
1P
0N
0I
0P
1N
1Q
0Q
#41000
1#
1E
1F
0.
#42000
0#
0E
0F
1.
13"
1G
0q
1H
0@
1I
#43000
1#
1E
1F
0.
#44000
0#
0E
0F
1.
03"
12"
0G
1q
0L
0H
1L
1H
1@
1O
0M
0I
0O
1M
1I
1P
0N
0P
1N
1Q
0Q
#45000
1#
1E
1F
0.
#46000
0#
0E
0F
1.
13"
1G
0q
0L
0H
0@
1O
0M
0I
1P
0r
0N
1r
1Q
#47000
1#
1E
1F
0.
#48000
0#
0E
0F
1.
03"
02"
01"
10"
0G
1q
1L
1H
0O
1M
0R
0P
0H
1@
0M
1I
1R
1P
1N
1V
0S
0Q
0I
0N
0V
1S
1Q
1W
0U
0W
1U
1X
0X
#49000
1#
1E
1F
0.
#50000
0#
0E
0F
1.
13"
1G
0q
1H
0@
1I
#51000
1#
1E
1F
0.
#52000
0#
0E
0F
1.
03"
12"
0G
1q
0L
0H
1L
1H
1@
1M
0I
0M
1I
1N
0N
#53000
1#
1E
1F
0.
#54000
0#
0E
0F
1.
13"
1G
0q
0L
0H
0@
1M
0I
1N
#55000
1#
1E
1F
0.
#56000
0#
0E
0F
1.
03"
02"
11"
0G
1q
1L
1H
1O
0M
0H
1@
0O
1M
1I
0R
0P
0N
0I
1R
1P
1N
1V
0S
0Q
0V
1S
1Q
1W
0U
0W
1U
1X
0X
#57000
1#
1E
1F
0.
#58000
0#
0E
0F
1.
13"
1G
0q
1H
0@
1I
#59000
1#
1E
1F
0.
#60000
0#
0E
0F
1.
03"
12"
0G
1q
0L
0H
1L
1H
1@
1O
0M
0I
0O
1M
1I
0R
0P
0N
1R
1P
1N
1V
0S
0Q
0V
1S
1Q
1W
0U
0W
1U
1X
0X
#61000
1#
1E
1F
0.
#62000
0#
0E
0F
1.
13"
1G
0q
0L
0H
0@
1O
0M
0I
0R
0P
0N
1V
0S
0r
0Q
1W
0U
1X
#63000
1#
1E
1F
0.
#64000
0#
0E
0F
1.
03"
02"
01"
00"
0/"
1."
0G
1q
1L
1H
0O
1M
1R
1P
0V
1S
0Y
0W
0H
1r
1@
0M
1I
0P
1N
0S
1Q
1Y
1W
1U
1Z
0X
0I
1s
0N
0Q
0U
0Z
1X
1[
0s
0[
#65000
1#
1E
1F
0.
#66000
0#
0E
0F
1.
13"
1G
0q
1H
0r
0@
1r
1I
#67000
1#
1E
1F
0.
#68000
0#
0E
0F
1.
03"
12"
0G
1q
0L
0H
1L
1H
1@
1M
0I
0M
1I
1N
0N
#69000
1#
1E
1F
0.
#70000
0#
0E
0F
1.
13"
1G
0q
0L
0H
0@
1M
0r
0I
1r
1N
#71000
1#
1E
1F
0.
#72000
0#
0E
0F
1.
03"
02"
11"
0G
1q
1L
1H
1O
0M
0H
1@
0O
1M
1I
1P
0N
0I
0P
1N
1Q
0Q
#73000
1#
1E
1F
0.
#74000
0#
0E
0F
1.
13"
1G
0q
1H
0@
1I
#75000
1#
1E
1F
0.
#76000
0#
0E
0F
1.
03"
12"
0G
1q
0L
0H
1L
1H
1@
1O
0M
0I
0O
1M
1I
1P
0N
0P
1N
1Q
0Q
#77000
1#
1E
1F
0.
#78000
0#
0E
0F
1.
13"
1G
0q
0L
0H
0@
1O
0M
0I
1P
0r
0N
1r
1Q
#79000
1#
1E
1F
0.
#80000
0#
0E
0F
1.
03"
02"
01"
10"
0G
1q
1L
1H
0O
1M
0R
0P
0H
1@
0M
1I
1R
1P
1N
1S
0Q
0I
0N
0S
1Q
1U
0U
#81000
1#
1E
1F
0.
#82000
0#
0E
0F
1.
13"
1G
0q
1H
0@
1I
#83000
1#
1E
1F
0.
#84000
0#
0E
0F
1.
03"
12"
0G
1q
0L
0H
1L
1H
1@
1M
0I
0M
1I
1N
0N
#85000
1#
1E
1F
0.
#86000
0#
0E
0F
1.
13"
1G
0q
0L
0H
0@
1M
0I
1N
#87000
1#
1E
1F
0.
#88000
0#
0E
0F
1.
03"
02"
11"
0G
1q
1L
1H
1O
0M
0H
1@
0O
1M
1I
0R
0P
0N
0I
1R
1P
1N
1S
0Q
0S
1Q
1U
0U
#89000
1#
1E
1F
0.
#90000
0#
0E
0F
1.
13"
1G
0q
1H
0@
1I
#91000
1#
1E
1F
0.
#92000
0#
0E
0F
1.
03"
12"
0G
1q
0L
0H
1L
1H
1@
1O
0M
0I
0O
1M
1I
0R
0P
0N
1R
1P
1N
1S
0Q
0S
1Q
1U
0U
#93000
1#
1E
1F
0.
#94000
0#
0E
0F
1.
13"
1G
0q
0L
0H
0@
1O
0M
0I
0R
0P
0N
1S
0r
0Q
1U
#95000
1#
1E
1F
0.
#96000
0#
0E
0F
1.
03"
02"
01"
00"
1/"
0G
1q
1L
1H
0O
1M
1R
1P
1V
0S
0H
1r
1@
0M
1I
0P
1N
0V
1S
1Q
0Y
0W
0U
0I
0N
0Q
1Y
1W
1U
1Z
0X
0Z
1s
1X
1[
0s
0[
#97000
1#
1E
1F
0.
#98000
0#
0E
0F
1.
13"
1G
0q
1H
0r
0@
1r
1I
#99000
1#
1E
1F
0.
#100000
1!
0"
0#
1T
0J
0E
0F
0K
1.
0`!
1W!
0M!
0G!
0X
0U
0I
0b!
1X!
0e!
0U!
0H!
03"
0/"
0."
0c!
0G
1q
0S
0W
0Z!
0%
0H
0[!
0\!
1a!
0]!
1b!
0W!
0X!
#101000
1#
1E
1F
0.
#102000
0#
0E
0F
1.
#103000
1#
1E
1F
0.
#104000
0#
0E
0F
1.
#105000
1#
1E
1F
0.
#106000
0#
0E
0F
1.
#107000
1#
1E
1F
0.
#108000
0#
0E
0F
1.
#109000
1#
1E
1F
0.
#110000
0#
0E
0F
1.
#111000
1#
1E
1F
0.
#112000
0#
0E
0F
1.
#113000
1#
1E
1F
0.
#114000
0#
0E
0F
1.
#115000
1#
1E
1F
0.
#116000
0#
0E
0F
1.
#117000
1#
1E
1F
0.
#118000
0#
0E
0F
1.
#119000
1#
1E
1F
0.
#120000
0#
0E
0F
1.
#121000
1#
1E
1F
0.
#122000
0#
0E
0F
1.
#123000
1#
1E
1F
0.
#124000
0#
0E
0F
1.
#125000
1#
1E
1F
0.
#126000
0#
0E
0F
1.
#127000
1#
1E
1F
0.
#128000
0#
0E
0F
1.
#129000
1#
1E
1F
0.
#130000
0#
0E
0F
1.
#131000
1#
1E
1F
0.
#132000
0#
0E
0F
1.
#133000
1#
1E
1F
0.
#134000
0#
0E
0F
1.
#135000
1#
1E
1F
0.
#136000
0#
0E
0F
1.
#137000
1#
1E
1F
0.
#138000
0#
0E
0F
1.
#139000
1#
1E
1F
0.
#140000
0#
0E
0F
1.
#141000
1#
1E
1F
0.
#142000
0#
0E
0F
1.
#143000
1#
1E
1F
0.
#144000
0#
0E
0F
1.
#145000
1#
1E
1F
0.
#146000
0#
0E
0F
1.
#147000
1#
1E
1F
0.
#148000
0#
0E
0F
1.
#149000
1#
1E
1F
0.
#150000
0!
0#
0T
0E
0F
1.
0b!
1`!
1M!
1G!
1@
1b!
1e!
1U!
1H!
#151000
1#
1E
1F
0.
#152000
0#
0E
0F
1.
#153000
1#
1E
1F
0.
#154000
0#
0E
0F
1.
#155000
1#
1E
1F
0.
#156000
0#
0E
0F
1.
#157000
1#
1E
1F
0.
#158000
0#
0E
0F
1.
#159000
1#
1E
1F
0.
#160000
0#
0E
0F
1.
#161000
1#
1E
1F
0.
#162000
0#
0E
0F
1.
#163000
1#
1E
1F
0.
#164000
0#
0E
0F
1.
#165000
1#
1E
1F
0.
#166000
0#
0E
0F
1.
#167000
1#
1E
1F
0.
#168000
0#
0E
0F
1.
#169000
1#
1E
1F
0.
#170000
0#
0E
0F
1.
#171000
1#
1E
1F
0.
#172000
0#
0E
0F
1.
#173000
1#
1E
1F
0.
#174000
0#
0E
0F
1.
#175000
1#
1E
1F
0.
#176000
0#
0E
0F
1.
#177000
1#
1E
1F
0.
#178000
0#
0E
0F
1.
#179000
1#
1E
1F
0.
#180000
0#
0E
0F
1.
#181000
1#
1E
1F
0.
#182000
0#
0E
0F
1.
#183000
1#
1E
1F
0.
#184000
0#
0E
0F
1.
#185000
1#
1E
1F
0.
#186000
0#
0E
0F
1.
#187000
1#
1E
1F
0.
#188000
0#
0E
0F
1.
#189000
1#
1E
1F
0.
#190000
0#
0E
0F
1.
#191000
1#
1E
1F
0.
#192000
0#
0E
0F
1.
#193000
1#
1E
1F
0.
#194000
0#
0E
0F
1.
#195000
1#
1E
1F
0.
#196000
0#
0E
0F
1.
#197000
1#
1E
1F
0.
#198000
0#
0E
0F
1.
#199000
1#
1E
1F
0.
#200000
0#
0E
0F
1.
#201000
1#
1E
1F
0.
#202000
0#
0E
0F
1.
#203000
1#
1E
1F
0.
#204000
0#
0E
0F
1.
#205000
1#
1E
1F
0.
#206000
0#
0E
0F
1.
#207000
1#
1E
1F
0.
#208000
0#
0E
0F
1.
#209000
1#
1E
1F
0.
#210000
0#
0E
0F
1.
#211000
1#
1E
1F
0.
#212000
0#
0E
0F
1.
#213000
1#
1E
1F
0.
#214000
0#
0E
0F
1.
#215000
1#
1E
1F
0.
#216000
0#
0E
0F
1.
#217000
1#
1E
1F
0.
#218000
0#
0E
0F
1.
#219000
1#
1E
1F
0.
#220000
0#
0E
0F
1.
#221000
1#
1E
1F
0.
#222000
0#
0E
0F
1.
#223000
1#
1E
1F
0.
#224000
0#
0E
0F
1.
#225000
1#
1E
1F
0.
#226000
0#
0E
0F
1.
#227000
1#
1E
1F
0.
#228000
0#
0E
0F
1.
#229000
1#
1E
1F
0.
#230000
0#
0E
0F
1.
#231000
1#
1E
1F
0.
#232000
0#
0E
0F
1.
#233000
1#
1E
1F
0.
#234000
0#
0E
0F
1.
#235000
1#
1E
1F
0.
#236000
0#
0E
0F
1.
#237000
1#
1E
1F
0.
#238000
0#
0E
0F
1.
#239000
1#
1E
1F
0.
#240000
0#
0E
0F
1.
#241000
1#
1E
1F
0.
#242000
0#
0E
0F
1.
#243000
1#
1E
1F
0.
#244000
0#
0E
0F
1.
#245000
1#
1E
1F
0.
#246000
0#
0E
0F
1.
#247000
1#
1E
1F
0.
#248000
0#
0E
0F
1.
#249000
1#
1E
1F
0.
#250000
1"
0#
1J
0E
0F
1K
1.
13"
1c!
1G
0q
1Z!
1%
1H
0r
0@
1[!
1r
1I
1\!
0a!
1]!
#251000
1#
1E
1F
0.
#252000
0#
0E
0F
1.
03"
12"
0G
1q
0L
0H
1L
1H
1@
1M
0I
0M
1I
1N
0N
#253000
1#
1E
1F
0.
#254000
0#
0E
0F
1.
13"
1G
0q
0L
0H
0@
1M
0r
0I
1r
1N
#255000
1#
1E
1F
0.
#256000
0#
0E
0F
1.
03"
02"
11"
0G
1q
1L
1H
1O
0M
0H
1@
0O
1M
1I
1P
0N
0I
0P
1N
1Q
0Q
#257000
1#
1E
1F
0.
#258000
0#
0E
0F
1.
13"
1G
0q
1H
0@
1I
#259000
1#
1E
1F
0.
#260000
0#
0E
0F
1.
03"
12"
0G
1q
0L
0H
1L
1H
1@
1O
0M
0I
0O
1M
1I
1P
0N
0P
1N
1Q
0Q
#261000
1#
1E
1F
0.
#262000
0#
0E
0F
1.
13"
1G
0q
0L
0H
0@
1O
0M
0I
1P
0r
0N
1r
1Q
#263000
1#
1E
1F
0.
#264000
0#
0E
0F
1.
03"
02"
01"
10"
0G
1q
1L
1H
0O
1M
0R
0P
0H
1@
0M
1I
1R
1P
1N
1S
0Q
0I
0N
0S
1Q
1U
0U
#265000
1#
1E
1F
0.
#266000
0#
0E
0F
1.
13"
1G
0q
1H
0@
1I
#267000
1#
1E
1F
0.
#268000
0#
0E
0F
1.
03"
12"
0G
1q
0L
0H
1L
1H
1@
1M
0I
0M
1I
1N
0N
#269000
1#
1E
1F
0.
#270000
0#
0E
0F
1.
13"
1G
0q
0L
0H
0@
1M
0I
1N
#271000
1#
1E
1F
0.
#272000
0#
0E
0F
1.
03"
02"
11"
0G
1q
1L
1H
1O
0M
0H
1@
0O
1M
1I
0R
0P
0N
0I
1R
1P
1N
1S
0Q
0S
1Q
1U
0U
#273000
1#
1E
1F
0.
#274000
0#
0E
0F
1.
13"
1G
0q
1H
0@
1I
#275000
1#
1E
1F
0.
#276000
0#
0E
0F
1.
03"
12"
0G
1q
0L
0H
1L
1H
1@
1O
0M
0I
0O
1M
1I
0R
0P
0N
1R
1P
1N
1S
0Q
0S
1Q
1U
0U
#277000
1#
1E
1F
0.
#278000
0#
0E
0F
1.
13"
1G
0q
0L
0H
0@
1O
0M
0I
0R
0P
0N
1S
0r
0Q
1U
#279000
1#
1E
1F
0.
#280000
0#
0E
0F
1.
03"
02"
01"
00"
1/"
0G
1q
1L
1H
0O
1M
1R
1P
1V
0S
0H
1r
1@
0M
1I
0P
1N
0V
1S
1Q
1W
0U
0I
0N
0Q
0W
1U
1X
0X
#281000
1#
1E
1F
0.
#282000
0#
0E
0F
1.
13"
1G
0q
1H
0r
0@
1r
1I
#283000
1#
1E
1F
0.
#284000
0#
0E
0F
1.
03"
12"
0G
1q
0L
0H
1L
1H
1@
1M
0I
0M
1I
1N
0N
#285000
1#
1E
1F
0.
#286000
0#
0E
0F
1.
13"
1G
0q
0L
0H
0@
1M
0r
0I
1r
1N
#287000
1#
1E
1F
0.
#288000
0#
0E
0F
1.
03"
02"
11"
0G
1q
1L
1H
1O
0M
0H
1@
0O
1M
1I
1P
0N
0I
0P
1N
1Q
0Q
#289000
1#
1E
1F
0.
#290000
0#
0E
0F
1.
13"
1G
0q
1H
0@
1I
#291000
1#
1E
1F
0.
#292000
0#
0E
0F
1.
03"
12"
0G
1q
0L
0H
1L
1H
1@
1O
0M
0I
0O
1M
1I
1P
0N
0P
1N
1Q
0Q
#293000
1#
1E
1F
0.
#294000
0#
0E
0F
1.
13"
1G
0q
0L
0H
0@
1O
0M
0I
1P
0r
0N
1r
1Q
#295000
1#
1E
1F
0.
#296000
0#
0E
0F
1.
03"
02"
01"
10"
0G
1q
1L
1H
0O
1M
0R
0P
0H
1@
0M
1I
1R
1P
1N
1V
0S
0Q
0I
0N
0V
1S
1Q
1W
0U
0W
1U
1X
0X
#297000
1#
1E
1F
0.
#298000
0#
0E
0F
1.
13"
1G
0q
1H
0@
1I
#299000
1#
1E
1F
0.
#300000
1!
0#
1T
0E
0F
1.
0`!
1W!
0M!
0G!
0U
0Q
0I
0b!
1X!
0e!
0U!
0H!
03"
12"
1q!
0G
1q
0L
0H
0]!
0Z!
1I!
1L
1H
1M
0W!
1N!
0[!
1J!
0M
0X!
1O!
0\!
1]!
0I!
1W!
0N!
0J!
1X!
0O!
#301000
1#
1E
1F
0.
#302000
0#
0E
0F
1.
02"
00"
0/"
0H
0P
0S
#303000
1#
1E
1F
0.
#304000
0#
0E
0F
1.
#305000
1#
1E
1F
0.
#306000
0#
0E
0F
1.
#307000
1#
1E
1F
0.
#308000
0#
0E
0F
1.
#309000
1#
1E
1F
0.
#310000
0#
0E
0F
1.
#311000
1#
1E
1F
0.
#312000
0#
0E
0F
1.
#313000
1#
1E
1F
0.
#314000
0#
0E
0F
1.
#315000
1#
1E
1F
0.
#316000
0#
0E
0F
1.
#317000
1#
1E
1F
0.
#318000
0#
0E
0F
1.
#319000
1#
1E
1F
0.
#320000
0#
0E
0F
1.
#321000
1#
1E
1F
0.
#322000
0#
0E
0F
1.
#323000
1#
1E
1F
0.
#324000
0#
0E
0F
1.
#325000
1#
1E
1F
0.
#326000
0#
0E
0F
1.
#327000
1#
1E
1F
0.
#328000
0#
0E
0F
1.
#329000
1#
1E
1F
0.
#330000
0#
0E
0F
1.
#331000
1#
1E
1F
0.
#332000
0#
0E
0F
1.
#333000
1#
1E
1F
0.
#334000
0#
0E
0F
1.
#335000
1#
1E
1F
0.
#336000
0#
0E
0F
1.
#337000
1#
1E
1F
0.
#338000
0#
0E
0F
1.
#339000
1#
1E
1F
0.
#340000
0#
0E
0F
1.
#341000
1#
1E
1F
0.
#342000
0#
0E
0F
1.
#343000
1#
1E
1F
0.
#344000
0#
0E
0F
1.
#345000
1#
1E
1F
0.
#346000
0#
0E
0F
1.
#347000
1#
1E
1F
0.
#348000
0#
0E
0F
1.
#349000
1#
1E
1F
0.
#350000
0!
0#
0T
0E
0F
1.
0W!
1M!
1G!
1@
1e!
1U!
1H!
#351000
1#
1E
1F
0.
#352000
0#
0E
0F
1.
13"
1Y!
1G
0q
1Z!
1'
1H
0r
0@
1[!
1r
1I
1\!
0]!
1I!
1J!
#353000
1#
1E
1F
0.
#354000
0#
0E
0F
1.
03"
12"
0G
1q
0L
0H
1L
1H
1@
1M
0I
0M
1I
1N
0N
#355000
1#
1E
1F
0.
#356000
0#
0E
0F
1.
13"
1G
0q
0L
0H
0@
1M
0r
0I
1r
1N
#357000
1#
1E
1F
0.
#358000
0#
0E
0F
1.
03"
02"
11"
0G
1q
1L
1H
1O
0M
0H
1@
0O
1M
1I
1P
0N
0I
0P
1N
1Q
0Q
#359000
1#
1E
1F
0.
