short_or_long_signal_identifier/simulation/qsim/short_or_long_signal_identifier.msim.vcd
$comment
	File created using the following command:
		vcd file short_or_long_signal_identifier.msim.vcd -direction
$end
$date
	Mon Aug 19 16:29:06 2019
$end
$version
	ModelSim Version 10.1d
$end
$timescale
	1ps
$end
$scope module short_or_long_signal_identifier_vlg_vec_tst $end
$var reg 1 ! button_input $end
$var reg 1 " clock $end
$var wire 1 # output_value [31] $end
$var wire 1 $ output_value [30] $end
$var wire 1 % output_value [29] $end
$var wire 1 & output_value [28] $end
$var wire 1 ' output_value [27] $end
$var wire 1 ( output_value [26] $end
$var wire 1 ) output_value [25] $end
$var wire 1 * output_value [24] $end
$var wire 1 + output_value [23] $end
$var wire 1 , output_value [22] $end
$var wire 1 - output_value [21] $end
$var wire 1 . output_value [20] $end
$var wire 1 / output_value [19] $end
$var wire 1 0 output_value [18] $end
$var wire 1 1 output_value [17] $end
$var wire 1 2 output_value [16] $end
$var wire 1 3 output_value [15] $end
$var wire 1 4 output_value [14] $end
$var wire 1 5 output_value [13] $end
$var wire 1 6 output_value [12] $end
$var wire 1 7 output_value [11] $end
$var wire 1 8 output_value [10] $end
$var wire 1 9 output_value [9] $end
$var wire 1 : output_value [8] $end
$var wire 1 ; output_value [7] $end
$var wire 1 < output_value [6] $end
$var wire 1 = output_value [5] $end
$var wire 1 > output_value [4] $end
$var wire 1 ? output_value [3] $end
$var wire 1 @ output_value [2] $end
$var wire 1 A output_value [1] $end
$var wire 1 B output_value [0] $end
$var wire 1 C sampler $end
$scope module i1 $end
$var wire 1 D gnd $end
$var wire 1 E vcc $end
$var wire 1 F unknown $end
$var tri1 1 G devclrn $end
$var tri1 1 H devpor $end
$var tri1 1 I devoe $end
$var wire 1 J Add0~10_combout $end
$var wire 1 K Add0~12_combout $end
$var wire 1 L Add0~44_combout $end
$var wire 1 M Add0~52_combout $end
$var wire 1 N Add0~59 $end
$var wire 1 O Add0~60_combout $end
$var wire 1 P Add0~61 $end
$var wire 1 Q Add0~62_combout $end
$var wire 1 R LessThan0~3_combout $end
$var wire 1 S clock~combout $end
$var wire 1 T clock~clkctrl_outclk $end
$var wire 1 U button_input~combout $end
$var wire 1 V button_input~clkctrl_outclk $end
$var wire 1 W Add0~0_combout $end
$var wire 1 X Add0~1 $end
$var wire 1 Y Add0~2_combout $end
$var wire 1 Z Add0~3 $end
$var wire 1 [ Add0~4_combout $end
$var wire 1 \ Add0~5 $end
$var wire 1 ] Add0~7 $end
$var wire 1 ^ Add0~8_combout $end
$var wire 1 _ Add0~9 $end
$var wire 1 ` Add0~11 $end
$var wire 1 a Add0~13 $end
$var wire 1 b Add0~14_combout $end
$var wire 1 c Add0~15 $end
$var wire 1 d Add0~17 $end
$var wire 1 e Add0~18_combout $end
$var wire 1 f Add0~19 $end
$var wire 1 g Add0~21 $end
$var wire 1 h Add0~22_combout $end
$var wire 1 i Add0~23 $end
$var wire 1 j Add0~25 $end
$var wire 1 k Add0~26_combout $end
$var wire 1 l Add0~27 $end
$var wire 1 m Add0~28_combout $end
$var wire 1 n Add0~29 $end
$var wire 1 o Add0~30_combout $end
$var wire 1 p Add0~31 $end
$var wire 1 q Add0~32_combout $end
$var wire 1 r Add0~33 $end
$var wire 1 s Add0~34_combout $end
$var wire 1 t Add0~35 $end
$var wire 1 u Add0~36_combout $end
$var wire 1 v Add0~37 $end
$var wire 1 w Add0~39 $end
$var wire 1 x Add0~40_combout $end
$var wire 1 y Add0~41 $end
$var wire 1 z Add0~43 $end
$var wire 1 { Add0~45 $end
$var wire 1 | Add0~46_combout $end
$var wire 1 } Add0~42_combout $end
$var wire 1 ~ LessThan0~6_combout $end
$var wire 1 !! Add0~38_combout $end
$var wire 1 "! LessThan0~5_combout $end
$var wire 1 #! LessThan0~7_combout $end
$var wire 1 $! Add0~6_combout $end
$var wire 1 %! LessThan0~2_combout $end
$var wire 1 &! Add0~16_combout $end
$var wire 1 '! Add0~20_combout $end
$var wire 1 (! LessThan0~0_combout $end
$var wire 1 )! Add0~24_combout $end
$var wire 1 *! LessThan0~1_combout $end
$var wire 1 +! LessThan0~4_combout $end
$var wire 1 ,! Add0~47 $end
$var wire 1 -! Add0~49 $end
$var wire 1 .! Add0~50_combout $end
$var wire 1 /! Add0~51 $end
$var wire 1 0! Add0~53 $end
$var wire 1 1! Add0~54_combout $end
$var wire 1 2! Add0~55 $end
$var wire 1 3! Add0~57 $end
$var wire 1 4! Add0~58_combout $end
$var wire 1 5! Add0~56_combout $end
$var wire 1 6! Add0~48_combout $end
$var wire 1 7! LessThan0~8_combout $end
$var wire 1 8! LessThan0~9_combout $end
$var wire 1 9! LessThan0~10_combout $end
$var wire 1 :! output_value[0]~0_combout $end
$var wire 1 ;! output_value[0]~reg0_regout $end
$var wire 1 <! output_value[1]~reg0_regout $end
$var wire 1 =! count [31] $end
$var wire 1 >! count [30] $end
$var wire 1 ?! count [29] $end
$var wire 1 @! count [28] $end
$var wire 1 A! count [27] $end
$var wire 1 B! count [26] $end
$var wire 1 C! count [25] $end
$var wire 1 D! count [24] $end
$var wire 1 E! count [23] $end
$var wire 1 F! count [22] $end
$var wire 1 G! count [21] $end
$var wire 1 H! count [20] $end
$var wire 1 I! count [19] $end
$var wire 1 J! count [18] $end
$var wire 1 K! count [17] $end
$var wire 1 L! count [16] $end
$var wire 1 M! count [15] $end
$var wire 1 N! count [14] $end
$var wire 1 O! count [13] $end
$var wire 1 P! count [12] $end
$var wire 1 Q! count [11] $end
$var wire 1 R! count [10] $end
$var wire 1 S! count [9] $end
$var wire 1 T! count [8] $end
$var wire 1 U! count [7] $end
$var wire 1 V! count [6] $end
$var wire 1 W! count [5] $end
$var wire 1 X! count [4] $end
$var wire 1 Y! count [3] $end
$var wire 1 Z! count [2] $end
$var wire 1 [! count [1] $end
$var wire 1 \! count [0] $end
$upscope $end
$upscope $end
$enddefinitions $end
#0
$dumpvars
0!
1"
0B
0A
0@
0?
0>
0=
0<
0;
0:
09
08
07
06
05
04
03
02
01
00
0/
0.
0-
0,
0+
0*
0)
0(
0'
0&
0%
0$
0#
xC
0D
1E
xF
1G
1H
1I
0J
0K
0L
0M
1N
0O
0P
0Q
0R
1S
1T
0U
0V
1W
0X
0Y
1Z
0[
0\
1]
0^
0_
1`
0a
0b
1c
0d
0e
1f
0g
0h
1i
0j
0k
1l
0m
0n
0o
1p
0q
0r
0s
1t
0u
0v
1w
0x
0y
1z
0{
0|
0}
0~
0!!
0"!
0#!
0$!
0%!
0&!
0'!
0(!
0)!
0*!
0+!
1,!
0-!
0.!
1/!
00!
01!
12!
03!
04!
05!
06!
07!
08!
09!
1:!
0;!
0<!
0\!
0[!
0Z!
0Y!
0X!
0W!
0V!
0U!
0T!
0S!
0R!
0Q!
0P!
0O!
0N!
0M!
0L!
0K!
0J!
0I!
0H!
0G!
0F!
0E!
0D!
0C!
0B!
0A!
0@!
0?!
0>!
0=!
$end
#1000
0"
0S
0T
0C
1\!
1;!
1X
0W
1B
1Y
#2000
1"
1S
1T
1C
#3000
0"
0S
0T
0C
0\!
1[!
0X
1W
0Z
0Y
1Z
1Y
1[
0[
#4000
1"
1S
1T
1C
#5000
0"
0S
0T
0C
1\!
1X
0W
0Z
0Y
1[
#6000
1"
1S
1T
1C
#7000
0"
0S
0T
0C
0\!
0[!
1Z!
0X
1W
1Z
1Y
1\
0[
0Y
0\
1[
1$!
1%!
0$!
0%!
#8000
1"
1S
1T
1C
#9000
0"
0S
0T
0C
1\!
1X
0W
1Y
#10000
1"
1S
1T
1C
#11000
0"
0S
0T
0C
0\!
1[!
0X
1W
0Z
0Y
1Z
1Y
1\
0[
0\
1[
1$!
0$!
1%!
0%!
#12000
1"
1S
1T
1C
#13000
0"
0S
0T
0C
1\!
1X
0W
0Z
0Y
1\
0[
1$!
#14000
1"
1S
1T
1C
#15000
0"
0S
0T
0C
1Y!
0\!
0[!
0Z!
0]
0$!
0X
1W
1Z
1Y
0\
1[
1^
0Y
0[
1]
1$!
0^
#16000
1"
1S
1T
1C
#17000
0"
0S
0T
0C
1\!
1X
0W
1Y
#18000
1"
1S
1T
1C
#19000
0"
0S
0T
0C
0\!
1[!
0X
1W
0Z
0Y
1Z
1Y
1[
0[
1%!
#20000
1"
1S
1T
1C
#21000
0"
0S
0T
0C
1\!
1X
0W
0Z
0Y
0%!
1[
1%!
#22000
1"
1S
1T
1C
#23000
0"
0S
0T
0C
0\!
0[!
1Z!
0X
1W
1Z
1Y
1\
0[
0Y
0\
1[
0]
0$!
0%!
1]
1$!
1^
0^
1%!
#24000
1"
1S
1T
1C
#25000
0"
0S
0T
0C
1\!
1X
0W
1Y
#26000
1"
1S
1T
1C
#27000
0"
0S
0T
0C
0\!
1[!
0X
1W
0Z
0Y
1Z
1Y
1\
0[
0\
1[
0]
0$!
1]
1$!
0%!
1^
0^
1%!
#28000
1"
1S
1T
1C
#29000
0"
0S
0T
0C
1\!
1X
0W
0Z
0Y
1\
0[
0]
0$!
0%!
1^
#30000
1"
1S
1T
1C
#31000
0"
0S
0T
0C
0Y!
0\!
0[!
0Z!
1X!
1]
1$!
0X
1W
1Z
1Y
0\
1[
1_
0^
0_
1^
1%!
0Y
0[
0$!
1J
0J
0%!
#32000
1"
1S
1T
1C
#33000
0"
0S
0T
0C
1\!
1X
0W
1Y
#34000
1"
1S
1T
1C
#35000
0"
0S
0T
0C
0\!
1[!
0X
1W
0Z
0Y
1Z
1Y
1[
0[
#36000
1"
1S
1T
1C
#37000
0"
0S
0T
0C
1\!
1X
0W
0Z
0Y
1[
#38000
1"
1S
1T
1C
#39000
0"
0S
0T
0C
0\!
0[!
1Z!
0X
1W
1Z
1Y
1\
0[
0Y
0\
1[
1$!
1%!
0$!
0%!
#40000
1"
1S
1T
1C
#41000
0"
0S
0T
0C
1\!
1X
0W
1Y
#42000
1"
1S
1T
1C
#43000
0"
0S
0T
0C
0\!
1[!
0X
1W
0Z
0Y
1Z
1Y
1\
0[
0\
1[
1$!
0$!
1%!
0%!
#44000
1"
1S
1T
1C
#45000
0"
0S
0T
0C
1\!
1X
0W
0Z
0Y
1\
0[
1$!
#46000
1"
1S
1T
1C
#47000
0"
0S
0T
0C
1Y!
0\!
0[!
0Z!
0]
0$!
0X
1W
1Z
1Y
0\
1[
1_
0^
0Y
0[
1]
1$!
1J
0_
1^
0J
#48000
1"
1S
1T
1C
#49000
0"
0S
0T
0C
1\!
1X
0W
1Y
#50000
1"
1S
1T
1C
#51000
0"
0S
0T
0C
0\!
1[!
0X
1W
0Z
0Y
1Z
1Y
1[
0[
1%!
#52000
1"
1S
1T
1C
#53000
0"
0S
0T
0C
1\!
1X
0W
0Z
0Y
0%!
1[
1%!
#54000
1"
1S
1T
1C
#55000
0"
0S
0T
0C
0\!
0[!
1Z!
0X
1W
1Z
1Y
1\
0[
0Y
0\
1[
0]
0$!
0%!
1]
1$!
1_
0^
0_
1^
1%!
1J
0J
#56000
1"
1S
1T
1C
#57000
0"
0S
0T
0C
1\!
1X
0W
1Y
#58000
1"
1S
1T
1C
#59000
0"
0S
0T
0C
0\!
1[!
0X
1W
0Z
0Y
1Z
1Y
1\
0[
0\
1[
0]
0$!
1]
1$!
0%!
1_
0^
0_
1^
1%!
1J
0J
#60000
1"
1S
1T
1C
#61000
0"
0S
0T
0C
1\!
1X
0W
0Z
0Y
1\
0[
0]
0$!
0%!
1_
0^
1J
#62000
1"
1S
1T
1C
#63000
0"
0S
0T
0C
1W!
0Y!
0\!
0[!
0Z!
0X!
0`
0J
1]
1$!
0X
1W
1Z
1Y
0\
1[
0_
1^
1K
0^
1%!
0Y
0[
0$!
1`
1J
0%!
0K
#64000
1"
1S
1T
1C
#65000
0"
0S
0T
0C
1\!
1X
0W
1Y
#66000
1"
1S
1T
1C
#67000
0"
0S
0T
0C
0\!
1[!
0X
1W
0Z
0Y
1Z
1Y
1[
0[
#68000
1"
1S
1T
1C
#69000
0"
0S
0T
0C
1\!
1X
0W
0Z
0Y
1[
#70000
1"
1S
1T
1C
#71000
0"
0S
0T
0C
0\!
0[!
1Z!
0X
1W
1Z
1Y
1\
0[
0Y
0\
1[
1$!
1%!
0$!
0%!
#72000
1"
1S
1T
1C
#73000
0"
0S
0T
0C
1\!
1X
0W
1Y
#74000
1"
1S
1T
1C
#75000
0"
0S
0T
0C
0\!
1[!
0X
1W
0Z
0Y
1Z
1Y
1\
0[
0\
1[
1$!
0$!
1%!
0%!
#76000
1"
1S
1T
1C
#77000
0"
0S
0T
0C
1\!
1X
0W
0Z
0Y
1\
0[
1$!
#78000
1"
1S
1T
1C
#79000
0"
0S
0T
0C
1Y!
0\!
0[!
0Z!
0]
0$!
0X
1W
1Z
1Y
0\
1[
1^
0Y
0[
1]
1$!
0^
#80000
1"
1S
1T
1C
#81000
0"
0S
0T
0C
1\!
1X
0W
1Y
#82000
1"
1S
1T
1C
#83000
0"
0S
0T
0C
0\!
1[!
0X
1W
0Z
0Y
1Z
1Y
1[
0[
1%!
#84000
1"
1S
1T
1C
#85000
0"
0S
0T
0C
1\!
1X
0W
0Z
0Y
0%!
1[
1%!
#86000
1"
1S
1T
1C
#87000
0"
0S
0T
0C
0\!
0[!
1Z!
0X
1W
1Z
1Y
1\
0[
0Y
0\
1[
0]
0$!
0%!
1]
1$!
1^
0^
1%!
#88000
1"
1S
1T
1C
#89000
0"
0S
0T
0C
1\!
1X
0W
1Y
#90000
1"
1S
1T
1C
#91000
0"
0S
0T
0C
0\!
1[!
0X
1W
0Z
0Y
1Z
1Y
1\
0[
0\
1[
0]
0$!
1]
1$!
0%!
1^
0^
1%!
#92000
1"
1S
1T
1C
#93000
0"
0S
0T
0C
1\!
1X
0W
0Z
0Y
1\
0[
0]
0$!
0%!
1^
#94000
1"
1S
1T
1C
#95000
0"
0S
0T
0C
0Y!
0\!
0[!
0Z!
1X!
1]
1$!
0X
1W
1Z
1Y
0\
1[
1_
0^
0_
1^
1%!
0Y
0[
0$!
0`
0J
1`
1J
0%!
1K
0K
#96000
1"
1S
1T
1C
#97000
0"
0S
0T
0C
1\!
1X
0W
1Y
#98000
1"
1S
1T
1C
#99000
0"
0S
0T
0C
0\!
1[!
0X
1W
0Z
0Y
1Z
1Y
1[
0[
#100000
1"
1S
1T
1C
#101000
0"
0S
0T
0C
1\!
1X
0W
0Z
0Y
1[
#102000
1"
1S
1T
1C
#103000
0"
0S
0T
0C
0\!
0[!
1Z!
0X
1W
1Z
1Y
1\
0[
0Y
0\
1[
1$!
1%!
0$!
0%!
#104000
1"
1S
1T
1C
#105000
0"
0S
0T
0C
1\!
1X
0W
1Y
#106000
1"
1S
1T
1C
#107000
0"
0S
0T
0C
0\!
1[!
0X
1W
0Z
0Y
1Z
1Y
1\
0[
0\
1[
1$!
0$!
1%!
0%!
#108000
1"
1S
1T
1C
#109000
0"
0S
0T
0C
1\!
1X
0W
0Z
0Y
1\
0[
1$!
#110000
1"
1S
1T
1C
#111000
0"
0S
0T
0C
1Y!
0\!
0[!
0Z!
0]
0$!
0X
1W
1Z
1Y
0\
1[
1_
0^
0Y
0[
1]
1$!
0`
0J
0_
1^
1K
1`
1J
0K
#112000
1"
1S
1T
1C
#113000
0"
0S
0T
0C
1\!
1X
0W
1Y
#114000
1"
1S
1T
1C
#115000
0"
0S
0T
0C
0\!
1[!
0X
1W
0Z
0Y
1Z
1Y
1[
0[
1%!
#116000
1"
1S
1T
1C
#117000
0"
0S
0T
0C
1\!
1X
0W
0Z
0Y
0%!
1[
1%!
#118000
1"
1S
1T
1C
#119000
0"
0S
0T
0C
0\!
0[!
1Z!
0X
1W
1Z
1Y
1\
0[
0Y
0\
1[
0]
0$!
0%!
1]
1$!
1_
0^
0_
1^
1%!
0`
0J
1`
1J
1K
0K
#120000
1"
1S
1T
1C
#121000
0"
0S
0T
0C
1\!
1X
0W
1Y
#122000
1"
1S
1T
1C
#123000
0"
0S
0T
0C
0\!
1[!
0X
1W
0Z
0Y
1Z
1Y
1\
0[
0\
1[
0]
0$!
1]
1$!
0%!
1_
0^
0_
1^
1%!
0`
0J
1`
1J
1K
0K
#124000
1"
1S
1T
1C
#125000
0"
0S
0T
0C
1\!
1X
0W
0Z
0Y
1\
0[
0]
0$!
0%!
1_
0^
0`
0J
1K
#126000
1"
1S
1T
1C
#127000
0"
0S
0T
0C
1V!
0W!
0Y!
0\!
0[!
0Z!
0X!
1a
0K
1`
1J
1]
1$!
0X
1W
1Z
1Y
0\
1[
0_
1^
1b
0a
1K
0^
1%!
0Y
0[
0$!
0J
0b
0%!
#128000
1"
1S
1T
1C
#129000
0"
0S
0T
0C
1\!
1X
0W
1Y
#130000
1"
1S
1T
1C
#131000
0"
0S
0T
0C
0\!
1[!
0X
1W
0Z
0Y
1Z
1Y
1[
0[
#132000
1"
1S
1T
1C
#133000
0"
0S
0T
0C
1\!
1X
0W
0Z
0Y
1[
#134000
1"
1S
1T
1C
#135000
0"
0S
0T
0C
0\!
0[!
1Z!
0X
1W
1Z
1Y
1\
0[
0Y
0\
1[
1$!
1%!
0$!
0%!
#136000
1"
1S
1T
1C
#137000
0"
0S
0T
0C
1\!
1X
0W
1Y
#138000
1"
1S
1T
1C
#139000
0"
0S
0T
0C
0\!
1[!
0X
1W
0Z
0Y
1Z
1Y
1\
0[
0\
1[
1$!
0$!
1%!
0%!
#140000
1"
1S
1T
1C
#141000
0"
0S
0T
0C
1\!
1X
0W
0Z
0Y
1\
0[
1$!
#142000
1"
1S
1T
1C
#143000
0"
0S
0T
0C
1Y!
0\!
0[!
0Z!
0]
0$!
0X
1W
1Z
1Y
0\
1[
1^
0Y
0[
1]
1$!
0^
#144000
1"
1S
1T
1C
#145000
0"
0S
0T
0C
1\!
1X
0W
1Y
#146000
1"
1S
1T
1C
#147000
0"
0S
0T
0C
0\!
1[!
0X
1W
0Z
0Y
1Z
1Y
1[
0[
1%!
#148000
1"
1S
1T
1C
#149000
0"
0S
0T
0C
1\!
1X
0W
0Z
0Y
0%!
1[
1%!
#150000
1"
1S
1T
1C
#151000
0"
0S
0T
0C
0\!
0[!
1Z!
0X
1W
1Z
1Y
1\
0[
0Y
0\
1[
0]
0$!
0%!
1]
1$!
1^
0^
1%!
#152000
1"
1S
1T
1C
#153000
0"
0S
0T
0C
1\!
1X
0W
1Y
#154000
1"
1S
1T
1C
#155000
0"
0S
0T
0C
0\!
1[!
0X
1W
0Z
0Y
1Z
1Y
1\
0[
0\
1[
0]
0$!
1]
1$!
0%!
1^
0^
1%!
#156000
1"
1S
1T
1C
#157000
0"
0S
0T
0C
1\!
1X
0W
0Z
0Y
1\
0[
0]
0$!
0%!
1^
#158000
1"
1S
1T
1C
#159000
0"
0S
0T
0C
0Y!
0\!
0[!
0Z!
1X!
1]
1$!
0X
1W
1Z
1Y
0\
1[
1_
0^
0_
1^
1%!
0Y
0[
0$!
1J
0J
0%!
#160000
1"
1S
1T
1C
#161000
0"
0S
0T
0C
1\!
1X
0W
1Y
#162000
1"
1S
1T
1C
#163000
0"
0S
0T
0C
0\!
1[!
0X
1W
0Z
0Y
1Z
1Y
1[
0[
#164000
1"
1S
1T
1C
#165000
0"
0S
0T
0C
1\!
1X
0W
0Z
0Y
1[
#166000
1"
1S
1T
1C
#167000
0"
0S
0T
0C
0\!
0[!
1Z!
0X
1W
1Z
1Y
1\
0[
0Y
0\
1[
1$!
1%!
0$!
0%!
#168000
1"
1S
1T
1C
#169000
0"
0S
0T
0C
1\!
1X
0W
1Y
#170000
1"
1S
1T
1C
#171000
0"
0S
0T
0C
0\!
1[!
0X
1W
0Z
0Y
1Z
1Y
1\
0[
0\
1[
1$!
0$!
1%!
0%!
#172000
1"
1S
1T
1C
#173000
0"
0S
0T
0C
1\!
1X
0W
0Z
0Y
1\
0[
1$!
#174000
1"
1S
1T
1C
#175000
0"
0S
0T
0C
1Y!
0\!
0[!
0Z!
0]
0$!
0X
1W
1Z
1Y
0\
1[
1_
0^
0Y
0[
1]
1$!
1J
0_
1^
0J
#176000
1"
1S
1T
1C
#177000
0"
0S
0T
0C
1\!
1X
0W
1Y
#178000
1"
1S
1T
1C
#179000
0"
0S
0T
0C
0\!
1[!
0X
1W
0Z
0Y
1Z
1Y
1[
0[
1%!
#180000
1"
1S
1T
1C
#181000
0"
0S
0T
0C
1\!
1X
0W
0Z
0Y
0%!
1[
1%!
#182000
1"
1S
1T
1C
#183000
0"
0S
0T
0C
0\!
0[!
1Z!
0X
1W
1Z
1Y
1\
0[
0Y
0\
1[
0]
0$!
0%!
1]
1$!
1_
0^
0_
1^
1%!
1J
0J
#184000
1"
1S
1T
1C
#185000
0"
0S
0T
0C
1\!
1X
0W
1Y
#186000
1"
1S
1T
1C
#187000
0"
0S
0T
0C
0\!
1[!
0X
1W
0Z
0Y
1Z
1Y
1\
0[
0\
1[
0]
0$!
1]
1$!
0%!
1_
0^
0_
1^
1%!
1J
0J
#188000
1"
1S
1T
1C
#189000
0"
0S
0T
0C
1\!
1X
0W
0Z
0Y
1\
0[
0]
0$!
0%!
1_
0^
1J
#190000
1"
1S
1T
1C
#191000
0"
0S
0T
0C
1W!
0Y!
0\!
0[!
0Z!
0X!
0`
0J
1]
1$!
0X
1W
1Z
1Y
0\
1[
0_
1^
1a
0K
0^
1%!
0Y
0[
0$!
1`
1J
1b
0%!
0a
1K
0b
#192000
1"
1S
1T
1C
#193000
0"
0S
0T
0C
1\!
1X
0W
1Y
#194000
1"
1S
1T
1C
#195000
0"
0S
0T
0C
0\!
1[!
0X
1W
0Z
0Y
1Z
1Y
1[
0[
#196000
1"
1S
1T
1C
#197000
0"
0S
0T
0C
1\!
1X
0W
0Z
0Y
1[
#198000
1"
1S
1T
1C
#199000
0"
0S
0T
0C
0\!
0[!
1Z!
0X
1W
1Z
1Y
1\
0[
0Y
0\
1[
1$!
1%!
0$!
0%!
#200000
1"
1S
1T
1C
#201000
0"
0S
0T
0C
1\!
1X
0W
1Y
#202000
1"
1S
1T
1C
#203000
0"
0S
0T
0C
0\!
1[!
0X
1W
0Z
0Y
1Z
1Y
1\
0[
0\
1[
1$!
0$!
1%!
0%!
#204000
1"
1S
1T
1C
#205000
0"
0S
0T
0C
1\!
1X
0W
0Z
0Y
1\
0[
1$!
#206000
1"
1S
1T
1C
#207000
0"
0S
0T
0C
1Y!
0\!
0[!
0Z!
0]
0$!
0X
1W
1Z
1Y
0\
1[
1^
0Y
0[
1]
1$!
0^
#208000
1"
1S
1T
1C
#209000
0"
0S
0T
0C
1\!
1X
0W
1Y
#210000
1"
1S
1T
1C
#211000
0"
0S
0T
0C
0\!
1[!
0X
1W
0Z
0Y
1Z
1Y
1[
0[
1%!
#212000
1"
1S
1T
1C
#213000
0"
0S
0T
0C
1\!
1X
0W
0Z
0Y
0%!
1[
1%!
#214000
1"
1S
1T
1C
#215000
0"
0S
0T
0C
0\!
0[!
1Z!
0X
1W
1Z
1Y
1\
0[
0Y
0\
1[
0]
0$!
0%!
1]
1$!
1^
0^
1%!
#216000
1"
1S
1T
1C
#217000
0"
0S
0T
0C
1\!
1X
0W
1Y
#218000
1"
1S
1T
1C
#219000
0"
0S
0T
0C
0\!
1[!
0X
1W
0Z
0Y
1Z
1Y
1\
0[
0\
1[
0]
0$!
1]
1$!
0%!
1^
0^
1%!
#220000
1"
1S
1T
1C
#221000
0"
0S
0T
0C
1\!
1X
0W
0Z
0Y
1\
0[
0]
0$!
0%!
1^
#222000
1"
1S
1T
1C
#223000
0"
0S
0T
0C
0Y!
0\!
0[!
0Z!
1X!
1]
1$!
0X
1W
1Z
1Y
0\
1[
1_
0^
0_
1^
1%!
0Y
0[
0$!
0`
0J
1`
1J
0%!
1a
0K
0a
1K
1b
0b
1R
0R
#224000
1"
1S
1T
1C
#225000
0"
0S
0T
0C
1\!
1X
0W
1Y
#226000
1"
1S
1T
1C
#227000
0"
0S
0T
0C
0\!
1[!
0X
1W
0Z
0Y
1Z
1Y
1[
0[
#228000
1"
1S
1T
1C
#229000
0"
0S
0T
0C
1\!
1X
0W
0Z
0Y
1[
#230000
1"
1S
1T
1C
#231000
0"
0S
0T
0C
0\!
0[!
1Z!
0X
1W
1Z
1Y
1\
0[
0Y
0\
1[
1$!
1%!
0$!
0%!
#232000
1"
1S
1T
1C
#233000
0"
0S
0T
0C
1\!
1X
0W
1Y
#234000
1"
1S
1T
1C
#235000
0"
0S
0T
0C
0\!
1[!
0X
1W
0Z
0Y
1Z
1Y
1\
0[
0\
1[
1$!
0$!
1%!
0%!
#236000
1"
1S
1T
1C
#237000
0"
0S
0T
0C
1\!
1X
0W
0Z
0Y
1\
0[
1$!
#238000
1"
1S
1T
1C
#239000
0"
0S
0T
0C
1Y!
0\!
0[!
0Z!
0]
0$!
0X
1W
1Z
1Y
0\
1[
1_
0^
0Y
0[
1]
1$!
0`
0J
0_
1^
1a
0K
1`
1J
1b
0a
1K
1R
0b
0R
#240000
1"
1S
1T
1C
#241000
0"
0S
0T
0C
1\!
1X
0W
1Y
#242000
1"
1S
1T
1C
#243000
0"
0S
0T
0C
0\!
1[!
0X
1W
0Z
0Y
1Z
1Y
1[
0[
1%!
#244000
1"
1S
1T
1C
#245000
0"
0S
0T
0C
1\!
1X
0W
0Z
0Y
0%!
1[
1%!
#246000
1"
1S
1T
1C
#247000
0"
0S
0T
0C
0\!
0[!
1Z!
0X
1W
1Z
1Y
1\
0[
0Y
0\
1[
0]
0$!
0%!
1]
1$!
1_
0^
0_
1^
1%!
0`
0J
1`
1J
1a
0K
0a
1K
1b
0b
1R
0R
1+!
0+!
19!
09!
0:!
1:!
#248000
1"
1S
1T
1C
#249000
0"
0S
0T
0C
1\!
1X
0W
1Y
#250000
1"
1S
1T
1C
#251000
0"
0S
0T
0C
0\!
1[!
0X
1W
0Z
0Y
1Z
1Y
1\
0[
0\
1[
0]
0$!
1]
1$!
0%!
1_
0^
0_
1^
1%!
0`
0J
1`
1J
1a
0K
0a
1K
1b
0b
1R
0R
1+!
0+!
19!
09!
0:!
1:!
#252000
1"
1S
1T
1C
#253000
0"
0S
0T
0C
1\!
1X
0W
0Z
0Y
1\
0[
0]
0$!
0%!
1_
0^
0`
0J
1a
0K
1b
#254000
1"
1S
1T
1C
#255000
0"
0S
0T
0C
0V!
0W!
0Y!
0\!
0[!
0Z!
0X!
1U!
0a
1K
1`
1J
1]
1$!
0X
1W
1Z
1Y
0\
1[
0_
1^
0c
0b
1c
1b
0K
0^
1%!
0Y
0[
0$!
0J
1&!
0&!
0%!
1(!
0(!
1+!
0+!
19!
09!
0:!
1:!
#256000
1"
1S
1T
1C
#257000
0"
0S
0T
0C
1\!
1X
0W
1Y
#258000
1"
1S
1T
1C
#259000
0"
0S
0T
0C
0\!
1[!
0X
1W
0Z
0Y
1Z
1Y
1[
0[
#260000
1"
1S
1T
1C
#261000
0"
0S
0T
0C
1\!
1X
0W
0Z
0Y
1[
#262000
1"
1S
1T
1C
#263000
0"
0S
0T
0C
0\!
0[!
1Z!
0X
1W
1Z
1Y
1\
0[
0Y
0\
1[
1$!
1%!
0$!
0%!
#264000
1"
1S
1T
1C
#265000
0"
0S
0T
0C
1\!
1X
0W
1Y
#266000
1"
1S
1T
1C
#267000
0"
0S
0T
0C
0\!
1[!
0X
1W
0Z
0Y
1Z
1Y
1\
0[
0\
1[
1$!
0$!
1%!
0%!
#268000
1"
1S
1T
1C
#269000
0"
0S
0T
0C
1\!
1X
0W
0Z
0Y
1\
0[
1$!
#270000
1"
1S
1T
1C
#271000
0"
0S
0T
0C
1Y!
0\!
0[!
0Z!
0]
0$!
0X
1W
1Z
1Y
0\
1[
1^
0Y
0[
1]
1$!
0^
#272000
1"
1S
1T
1C
#273000
0"
0S
0T
0C
1\!
1X
0W
1Y
#274000
1"
1S
1T
1C
#275000
0"
0S
0T
0C
0\!
1[!
0X
1W
0Z
0Y
1Z
1Y
1[
0[
1%!
#276000
1"
1S
1T
1C
#277000
0"
0S
0T
0C
1\!
1X
0W
0Z
0Y
0%!
1[
1%!
#278000
1"
1S
1T
1C
#279000
0"
0S
0T
0C
0\!
0[!
1Z!
0X
1W
1Z
1Y
1\
0[
0Y
0\
1[
0]
0$!
0%!
1]
1$!
1^
0^
1%!
#280000
1"
1S
1T
1C
#281000
0"
0S
0T
0C
1\!
1X
0W
1Y
#282000
1"
1S
1T
1C
#283000
0"
0S
0T
0C
0\!
1[!
0X
1W
0Z
0Y
1Z
1Y
1\
0[
0\
1[
0]
0$!
1]
1$!
0%!
1^
0^
1%!
#284000
1"
1S
1T
1C
#285000
0"
0S
0T
0C
1\!
1X
0W
0Z
0Y
1\
0[
0]
0$!
0%!
1^
#286000
1"
1S
1T
1C
#287000
0"
0S
0T
0C
0Y!
0\!
0[!
0Z!
1X!
1]
1$!
0X
1W
1Z
1Y
0\
1[
1_
0^
0_
1^
1%!
0Y
0[
0$!
1J
0J
0%!
#288000
1"
1S
1T
1C
#289000
0"
0S
0T
0C
1\!
1X
0W
1Y
#290000
1"
1S
1T
1C
#291000
0"
0S
0T
0C
0\!
1[!
0X
1W
0Z
0Y
1Z
1Y
1[
0[
#292000
1"
1S
1T
1C
#293000
0"
0S
0T
0C
1\!
1X
0W
0Z
0Y
1[
#294000
1"
1S
1T
1C
#295000
0"
0S
0T
0C
0\!
0[!
1Z!
0X
1W
1Z
1Y
1\
0[
0Y
0\
1[
1$!
1%!
0$!
0%!
#296000
1"
1S
1T
1C
#297000
0"
0S
0T
0C
1\!
1X
0W
1Y
#298000
1"
1S
1T
1C
#299000
0"
0S
0T
0C
0\!
1[!
0X
1W
0Z
0Y
1Z
1Y
1\
0[
0\
1[
1$!
0$!
1%!
0%!
#300000
1"
1S
1T
1C
#301000
0"
0S
0T
0C
1\!
1X
0W
0Z
0Y
1\
0[
1$!
