short_or_long_signal_identifier/simulation/qsim/short_or_long_signal_identifier.msim.vcd
$comment
	File created using the following command:
		vcd file short_or_long_signal_identifier.msim.vcd -direction
$end
$date
	Thu Aug 22 10:56:36 2019
$end
$version
	ModelSim Version 10.1d
$end
$timescale
	1ps
$end
$scope module short_or_long_signal_identifier_vlg_vec_tst $end
$var reg 1 ! button_input $end
$var reg 1 " clock $end
$var wire 1 # code_current_index_test [1] $end
$var wire 1 $ code_current_index_test [0] $end
$var wire 1 % code_test0 [1] $end
$var wire 1 & code_test0 [0] $end
$var wire 1 ' code_test1 [1] $end
$var wire 1 ( code_test1 [0] $end
$var wire 1 ) code_test2 [1] $end
$var wire 1 * code_test2 [0] $end
$var wire 1 + code_test3 [1] $end
$var wire 1 , code_test3 [0] $end
$var wire 1 - code_test4 [1] $end
$var wire 1 . code_test4 [0] $end
$var wire 1 / index_test [2] $end
$var wire 1 0 index_test [1] $end
$var wire 1 1 index_test [0] $end
$var wire 1 2 sampler $end
$scope module i1 $end
$var wire 1 3 gnd $end
$var wire 1 4 vcc $end
$var wire 1 5 unknown $end
$var tri1 1 6 devclrn $end
$var tri1 1 7 devpor $end
$var tri1 1 8 devoe $end
$var wire 1 9 Add1~0_combout $end
$var wire 1 : Add1~6_combout $end
$var wire 1 ; Add1~8_combout $end
$var wire 1 < Add1~14_combout $end
$var wire 1 = LessThan0~0_combout $end
$var wire 1 > LessThan0~7_combout $end
$var wire 1 ? new_value~1_combout $end
$var wire 1 @ count~3_combout $end
$var wire 1 A count~5_combout $end
$var wire 1 B count~9_combout $end
$var wire 1 C count~17_combout $end
$var wire 1 D count~21_combout $end
$var wire 1 E count~24_combout $end
$var wire 1 F count~27_combout $end
$var wire 1 G count~28_combout $end
$var wire 1 H count~31_combout $end
$var wire 1 I clock~combout $end
$var wire 1 J clock~clkctrl_outclk $end
$var wire 1 K button_input~combout $end
$var wire 1 L count~0_combout $end
$var wire 1 M Add1~1 $end
$var wire 1 N Add1~2_combout $end
$var wire 1 O count~30_combout $end
$var wire 1 P Add1~3 $end
$var wire 1 Q Add1~4_combout $end
$var wire 1 R count~29_combout $end
$var wire 1 S Add1~5 $end
$var wire 1 T Add1~7 $end
$var wire 1 U Add1~9 $end
$var wire 1 V Add1~10_combout $end
$var wire 1 W count~26_combout $end
$var wire 1 X Add1~11 $end
$var wire 1 Y Add1~12_combout $end
$var wire 1 Z count~25_combout $end
$var wire 1 [ Add1~13 $end
$var wire 1 \ Add1~15 $end
$var wire 1 ] Add1~16_combout $end
$var wire 1 ^ count~23_combout $end
$var wire 1 _ Add1~17 $end
$var wire 1 ` Add1~18_combout $end
$var wire 1 a count~22_combout $end
$var wire 1 b Add1~19 $end
$var wire 1 c Add1~21 $end
$var wire 1 d Add1~22_combout $end
$var wire 1 e count~20_combout $end
$var wire 1 f Add1~23 $end
$var wire 1 g Add1~24_combout $end
$var wire 1 h count~19_combout $end
$var wire 1 i Add1~25 $end
$var wire 1 j Add1~26_combout $end
$var wire 1 k count~18_combout $end
$var wire 1 l Add1~27 $end
$var wire 1 m Add1~29 $end
$var wire 1 n Add1~30_combout $end
$var wire 1 o count~16_combout $end
$var wire 1 p Add1~31 $end
$var wire 1 q Add1~32_combout $end
$var wire 1 r count~15_combout $end
$var wire 1 s Add1~33 $end
$var wire 1 t Add1~34_combout $end
$var wire 1 u count~14_combout $end
$var wire 1 v Add1~35 $end
$var wire 1 w Add1~36_combout $end
$var wire 1 x count~13_combout $end
$var wire 1 y Add1~37 $end
$var wire 1 z Add1~38_combout $end
$var wire 1 { count~12_combout $end
$var wire 1 | Add1~39 $end
$var wire 1 } Add1~40_combout $end
$var wire 1 ~ count~11_combout $end
$var wire 1 !! Add1~41 $end
$var wire 1 "! Add1~42_combout $end
$var wire 1 #! count~10_combout $end
$var wire 1 $! Add1~43 $end
$var wire 1 %! Add1~45 $end
$var wire 1 &! Add1~46_combout $end
$var wire 1 '! count~8_combout $end
$var wire 1 (! Add1~47 $end
$var wire 1 )! Add1~48_combout $end
$var wire 1 *! count~7_combout $end
$var wire 1 +! Add1~49 $end
$var wire 1 ,! Add1~50_combout $end
$var wire 1 -! count~6_combout $end
$var wire 1 .! Add1~51 $end
$var wire 1 /! Add1~53 $end
$var wire 1 0! Add1~54_combout $end
$var wire 1 1! count~4_combout $end
$var wire 1 2! Add1~55 $end
$var wire 1 3! Add1~57 $end
$var wire 1 4! Add1~58_combout $end
$var wire 1 5! count~2_combout $end
$var wire 1 6! Add1~59 $end
$var wire 1 7! Add1~60_combout $end
$var wire 1 8! count~1_combout $end
$var wire 1 9! Add1~61 $end
$var wire 1 :! Add1~62_combout $end
$var wire 1 ;! Add1~52_combout $end
$var wire 1 <! Add1~56_combout $end
$var wire 1 =! LessThan0~6_combout $end
$var wire 1 >! LessThan0~1_combout $end
$var wire 1 ?! Add1~28_combout $end
$var wire 1 @! LessThan0~3_combout $end
$var wire 1 A! Add1~20_combout $end
$var wire 1 B! LessThan0~2_combout $end
$var wire 1 C! LessThan0~4_combout $end
$var wire 1 D! LessThan0~8_combout $end
$var wire 1 E! LessThan0~9_combout $end
$var wire 1 F! next_value~0_combout $end
$var wire 1 G! code[0][0]~feeder_combout $end
$var wire 1 H! index_variable~0_combout $end
$var wire 1 I! Add1~44_combout $end
$var wire 1 J! LessThan0~5_combout $end
$var wire 1 K! LessThan0~10_combout $end
$var wire 1 L! LessThan0~11_combout $end
$var wire 1 M! new_value~0_combout $end
$var wire 1 N! index_variable[0]~1_combout $end
$var wire 1 O! index_variable[1]~2_combout $end
$var wire 1 P! Mux1~0_combout $end
$var wire 1 Q! code[0][0]~regout $end
$var wire 1 R! next_value~1_combout $end
$var wire 1 S! code[0][1]~feeder_combout $end
$var wire 1 T! code[0][1]~regout $end
$var wire 1 U! code[1][0]~feeder_combout $end
$var wire 1 V! Mux1~1_combout $end
$var wire 1 W! code[1][0]~regout $end
$var wire 1 X! code[1][1]~feeder_combout $end
$var wire 1 Y! code[1][1]~regout $end
$var wire 1 Z! Mux1~2_combout $end
$var wire 1 [! code[2][0]~regout $end
$var wire 1 \! code[2][1]~feeder_combout $end
$var wire 1 ]! code[2][1]~regout $end
$var wire 1 ^! code[3][0]~feeder_combout $end
$var wire 1 _! Mux1~3_combout $end
$var wire 1 `! code[3][0]~regout $end
$var wire 1 a! code[3][1]~feeder_combout $end
$var wire 1 b! code[3][1]~regout $end
$var wire 1 c! Mux1~4_combout $end
$var wire 1 d! code[4][0]~regout $end
$var wire 1 e! code[4][1]~feeder_combout $end
$var wire 1 f! code[4][1]~regout $end
$var wire 1 g! index_variable~3_combout $end
$var wire 1 h! next_value [1] $end
$var wire 1 i! next_value [0] $end
$var wire 1 j! new_value [1] $end
$var wire 1 k! new_value [0] $end
$var wire 1 l! index_variable [2] $end
$var wire 1 m! index_variable [1] $end
$var wire 1 n! index_variable [0] $end
$var wire 1 o! count [31] $end
$var wire 1 p! count [30] $end
$var wire 1 q! count [29] $end
$var wire 1 r! count [28] $end
$var wire 1 s! count [27] $end
$var wire 1 t! count [26] $end
$var wire 1 u! count [25] $end
$var wire 1 v! count [24] $end
$var wire 1 w! count [23] $end
$var wire 1 x! count [22] $end
$var wire 1 y! count [21] $end
$var wire 1 z! count [20] $end
$var wire 1 {! count [19] $end
$var wire 1 |! count [18] $end
$var wire 1 }! count [17] $end
$var wire 1 ~! count [16] $end
$var wire 1 !" count [15] $end
$var wire 1 "" count [14] $end
$var wire 1 #" count [13] $end
$var wire 1 $" count [12] $end
$var wire 1 %" count [11] $end
$var wire 1 &" count [10] $end
$var wire 1 '" count [9] $end
$var wire 1 (" count [8] $end
$var wire 1 )" count [7] $end
$var wire 1 *" count [6] $end
$var wire 1 +" count [5] $end
$var wire 1 ," count [4] $end
$var wire 1 -" count [3] $end
$var wire 1 ." count [2] $end
$var wire 1 /" count [1] $end
$var wire 1 0" count [0] $end
$upscope $end
$upscope $end
$enddefinitions $end
#0
$dumpvars
1!
0"
0$
0#
0&
0%
0(
0'
0*
0)
0,
0+
0.
0-
01
00
0/
x2
03
14
x5
16
17
18
19
0:
0;
0<
0=
0>
0?
0@
0A
0B
0C
0D
0E
0F
0G
0H
0I
0J
1K
0L
0M
0N
0O
1P
0Q
0R
0S
1T
0U
0V
0W
1X
0Y
0Z
0[
1\
0]
0^
0_
0`
0a
1b
0c
0d
0e
1f
0g
0h
0i
0j
0k
1l
0m
0n
0o
1p
0q
0r
0s
0t
0u
1v
0w
0x
0y
0z
0{
1|
0}
0~
0!!
0"!
0#!
1$!
0%!
0&!
0'!
1(!
0)!
0*!
0+!
0,!
0-!
1.!
0/!
00!
01!
12!
03!
04!
05!
16!
07!
08!
09!
0:!
0;!
0<!
0=!
0>!
0?!
0@!
0A!
0B!
0C!
0D!
0E!
0F!
0G!
1H!
0I!
0J!
0K!
0L!
0M!
0N!
0O!
1P!
0Q!
0R!
0S!
0T!
0U!
0V!
0W!
0X!
0Y!
0Z!
0[!
0\!
0]!
0^!
0_!
0`!
0a!
0b!
0c!
0d!
0e!
0f!
0g!
0i!
0h!
0k!
0j!
0n!
0m!
0l!
00"
0/"
0."
0-"
0,"
0+"
0*"
0)"
0("
0'"
0&"
0%"
0$"
0#"
0""
0!"
0~!
0}!
0|!
0{!
0z!
0y!
0x!
0w!
0v!
0u!
0t!
0s!
0r!
0q!
0p!
0o!
$end
#1000
1"
1I
1J
02
#2000
0"
0I
0J
12
#3000
1"
1I
1J
02
#4000
0"
0I
0J
12
#5000
1"
1I
1J
02
#6000
0"
0I
0J
12
#7000
1"
1I
1J
02
#8000
0"
0I
0J
12
#9000
1"
1I
1J
02
#10000
0"
0I
0J
12
#11000
1"
1I
1J
02
#12000
0"
0I
0J
12
#13000
1"
1I
1J
02
#14000
0"
0I
0J
12
#15000
1"
1I
1J
02
#16000
0"
0I
0J
12
#17000
1"
1I
1J
02
#18000
0"
0I
0J
12
#19000
1"
1I
1J
02
#20000
0"
0I
0J
12
#21000
1"
1I
1J
02
#22000
0"
0I
0J
12
#23000
1"
1I
1J
02
#24000
0"
0I
0J
12
#25000
1"
1I
1J
02
#26000
0"
0I
0J
12
#27000
1"
1I
1J
02
#28000
0"
0I
0J
12
#29000
1"
1I
1J
02
#30000
0"
0I
0J
12
#31000
1"
1I
1J
02
#32000
0"
0I
0J
12
#33000
1"
1I
1J
02
#34000
0"
0I
0J
12
#35000
1"
1I
1J
02
#36000
0"
0I
0J
12
#37000
1"
1I
1J
02
#38000
0"
0I
0J
12
#39000
1"
1I
1J
02
#40000
0"
0I
0J
12
#41000
1"
1I
1J
02
#42000
0"
0I
0J
12
#43000
1"
1I
1J
02
#44000
0"
0I
0J
12
#45000
1"
1I
1J
02
#46000
0"
0I
0J
12
#47000
1"
1I
1J
02
#48000
0"
0I
0J
12
#49000
1"
1I
1J
02
#50000
0!
0"
0K
0I
0J
12
1M!
1F!
1H
#51000
1"
1I
1J
02
#52000
0"
0I
0J
12
10"
1i!
1k!
1M
09
1^!
1U!
1G!
1$
1N
0H
1O
#53000
1"
1I
1J
02
#54000
0"
0I
0J
12
00"
1/"
1Q!
0M
19
0P
0N
1&
1P
1N
1H
1Q
0O
0Q
1O
1R
0R
#55000
1"
1I
1J
02
#56000
0"
0I
0J
12
10"
1M
09
0P
0N
0H
1Q
0O
1R
#57000
1"
1I
1J
02
#58000
0"
0I
0J
12
00"
0/"
1."
0M
19
1P
1N
1S
0Q
0N
1H
0S
1Q
1O
1:
0R
0O
0:
1R
1G
0G
#59000
1"
1I
1J
02
#60000
0"
0I
0J
12
10"
1M
09
1N
0H
1O
#61000
1"
1I
1J
02
#62000
0"
0I
0J
12
00"
1/"
0M
19
0P
0N
1P
1N
1H
1S
0Q
0O
0S
1Q
1O
1:
0R
0:
1R
1G
0G
#63000
1"
1I
1J
02
#64000
0"
0I
0J
12
10"
1M
09
0P
0N
0H
1S
0Q
0O
1:
0R
1G
#65000
1"
1I
1J
02
#66000
0"
0I
0J
12
1-"
00"
0/"
0."
0T
0:
0M
19
1P
1N
0S
1Q
1;
0G
0N
1H
0Q
1O
1T
1:
1R
1F
0O
0R
0;
1G
0F
#67000
1"
1I
1J
02
#68000
0"
0I
0J
12
10"
1M
09
1N
0H
1O
#69000
1"
1I
1J
02
#70000
0"
0I
0J
12
00"
1/"
0M
19
0P
0N
1P
1N
1H
1Q
0O
0Q
1O
1R
0R
#71000
1"
1I
1J
02
#72000
0"
0I
0J
12
10"
1M
09
0P
0N
0H
1Q
0O
1R
#73000
1"
1I
1J
02
#74000
0"
0I
0J
12
00"
0/"
1."
0M
19
1P
1N
1S
0Q
0N
1H
0S
1Q
1O
0T
0:
0R
0O
1T
1:
1R
1;
0G
0;
1G
1=
1F
0F
0=
1C!
0C!
0M!
1E!
1?
1M!
0E!
0?
1R!
0F!
0R!
1F!
#75000
1"
1I
1J
02
#76000
0"
0I
0J
12
10"
1M
09
1N
0H
1O
#77000
1"
1I
1J
02
#78000
0"
0I
0J
12
00"
1/"
0M
19
0P
0N
1P
1N
1H
1S
0Q
0O
0S
1Q
1O
0T
0:
0R
1T
1:
1R
1;
0G
0;
1G
1=
1F
0F
0=
1C!
0C!
0M!
1E!
1?
1M!
0E!
0?
1R!
0F!
0R!
1F!
#79000
1"
1I
1J
02
#80000
0"
0I
0J
12
10"
1M
09
0P
0N
0H
1S
0Q
0O
0T
0:
0R
1;
0G
1F
#81000
1"
1I
1J
02
#82000
0"
0I
0J
12
1,"
0-"
00"
0/"
0."
1U
0;
1T
1:
0M
19
1P
1N
0S
1Q
1V
0F
0U
1;
1G
0N
1H
0Q
1O
0:
1R
1>!
1W
0V
1F
0O
0R
0G
1C!
0>!
0W
0M!
1E!
1?
0C!
1R!
0F!
1M!
0E!
0?
0R!
1F!
#83000
1"
1I
1J
02
#84000
0"
0I
0J
12
10"
1M
09
1N
0H
1O
#85000
1"
1I
1J
02
#86000
0"
0I
0J
12
00"
1/"
0M
19
0P
0N
1P
1N
1H
1Q
0O
0Q
1O
1R
0R
#87000
1"
1I
1J
02
#88000
0"
0I
0J
12
10"
1M
09
0P
0N
0H
1Q
0O
1R
#89000
1"
1I
1J
02
#90000
0"
0I
0J
12
00"
0/"
1."
0M
19
1P
1N
1S
0Q
0N
1H
0S
1Q
1O
1:
0R
0O
1=
0:
1R
1G
1C!
0G
0=
0M!
1E!
1?
0C!
1R!
0F!
1M!
0E!
0?
0R!
1F!
#91000
1"
1I
1J
02
#92000
0"
0I
0J
12
10"
1M
09
1N
0H
1O
#93000
1"
1I
1J
02
#94000
0"
0I
0J
12
00"
1/"
0M
19
0P
0N
1P
1N
1H
1S
0Q
0O
0S
1Q
1O
1:
0R
0:
1R
1=
1G
0G
0=
1C!
0C!
0M!
1E!
1?
1M!
0E!
0?
1R!
0F!
0R!
1F!
#95000
1"
1I
1J
02
#96000
0"
0I
0J
12
10"
1M
09
0P
0N
0H
1S
0Q
0O
1:
0R
1G
#97000
1"
1I
1J
02
#98000
0"
0I
0J
12
1-"
00"
0/"
0."
0T
0:
0M
19
1P
1N
0S
1Q
1U
0;
0G
0N
1H
0Q
1O
1T
1:
1R
1V
0F
0O
0R
0U
1;
1G
1>!
1W
0V
1F
1C!
0>!
0W
0M!
1E!
1?
0C!
1R!
0F!
1M!
0E!
0?
0R!
1F!
#99000
1"
1I
1J
02
#100000
0"
0I
0J
12
10"
1M
09
1N
0H
1O
1=
1C!
0M!
1E!
1?
1R!
0F!
#101000
1"
1I
1J
02
#102000
0"
0I
0J
12
1j!
00"
1/"
0i!
0k!
1h!
0M
19
0P
0N
0^!
0U!
0G!
1e!
1a!
1\!
1X!
1S!
0$
1#
1P
1N
1H
1Q
0O
0=
0Q
1O
1=
1R
0C!
0R
1C!
1M!
0E!
0?
0M!
1E!
1?
0R!
1F!
1R!
0F!
#103000
1"
1I
1J
02
#104000
0"
0I
0J
12
10"
0Q!
1T!
1M
09
0&
1%
0P
0N
0H
1Q
0O
0=
1R
1=
0C!
1C!
1M!
0E!
0?
0M!
1E!
1?
0R!
1F!
1R!
0F!
#105000
1"
1I
1J
02
#106000
0"
0I
0J
12
00"
0/"
1."
0M
19
1P
1N
1S
0Q
0N
1H
0S
1Q
1O
0T
0:
0R
0O
0=
1T
1:
1R
1U
0;
0G
0C!
0U
1;
1G
1V
0F
1M!
0E!
0?
0V
1F
1=
1>!
1W
0R!
1F!
0>!
0W
1C!
0M!
1E!
1?
1R!
0F!
#107000
1"
1I
1J
02
#108000
0"
0I
0J
12
10"
1M
09
1N
0H
1O
#109000
1"
1I
1J
02
#110000
0"
0I
0J
12
00"
1/"
0M
19
0P
0N
1P
1N
1H
1S
0Q
0O
0S
1Q
1O
0T
0:
0R
1T
1:
1R
0=
1U
0;
0G
0U
1;
1G
0C!
1V
0F
0V
1F
1=
1M!
0E!
0?
1>!
1W
0>!
0W
1C!
0R!
1F!
0M!
1E!
1?
1R!
0F!
#111000
1"
1I
1J
02
#112000
0"
0I
0J
12
10"
1M
09
0P
0N
0H
1S
0Q
0O
0T
0:
0R
0=
1U
0;
0G
0C!
1V
0F
1M!
0E!
0?
1>!
1W
0R!
1F!
1C!
0M!
1E!
1?
1R!
0F!
#113000
1"
1I
1J
02
#114000
0"
0I
0J
12
0,"
0-"
00"
0/"
0."
1+"
0U
1;
1T
1:
0M
19
1P
1N
0S
1Q
0X
0V
1X
1V
1F
1=
0;
1G
0N
1H
0Q
1O
0:
1R
1Y
0>!
0W
0Y
1>!
1W
0F
0=
0O
0R
0G
1Z
0Z
#115000
1"
1I
1J
02
#116000
0"
0I
0J
12
10"
1M
09
1N
0H
1O
#117000
1"
1I
1J
02
#118000
0"
0I
0J
12
00"
1/"
0M
19
0P
0N
1P
1N
1H
1Q
0O
0Q
1O
1R
0R
#119000
1"
1I
1J
02
#120000
0"
0I
0J
12
10"
1M
09
0P
0N
0H
1Q
0O
1R
#121000
1"
1I
1J
02
#122000
0"
0I
0J
12
00"
0/"
1."
0M
19
1P
1N
1S
0Q
0N
1H
0S
1Q
1O
1:
0R
0O
0:
1R
1G
0G
#123000
1"
1I
1J
02
#124000
0"
0I
0J
12
10"
1M
09
1N
0H
1O
#125000
1"
1I
1J
02
#126000
0"
0I
0J
12
00"
1/"
0M
19
0P
0N
1P
1N
1H
1S
0Q
0O
0S
1Q
1O
1:
0R
0:
1R
1G
0G
#127000
1"
1I
1J
02
#128000
0"
0I
0J
12
10"
1M
09
0P
0N
0H
1S
0Q
0O
1:
0R
1G
#129000
1"
1I
1J
02
#130000
0"
0I
0J
12
1-"
00"
0/"
0."
0T
0:
0M
19
1P
1N
0S
1Q
1;
0G
0N
1H
0Q
1O
1T
1:
1R
1F
0O
0R
0;
1G
0F
#131000
1"
1I
1J
02
#132000
0"
0I
0J
12
10"
1M
09
1N
0H
1O
#133000
1"
1I
1J
02
#134000
0"
0I
0J
12
00"
1/"
0M
19
0P
0N
1P
1N
1H
1Q
0O
0Q
1O
1R
0R
#135000
1"
1I
1J
02
#136000
0"
0I
0J
12
10"
1M
09
0P
0N
0H
1Q
0O
1R
#137000
1"
1I
1J
02
#138000
0"
0I
0J
12
00"
0/"
1."
0M
19
1P
1N
1S
0Q
0N
1H
0S
1Q
1O
0T
0:
0R
0O
1T
1:
1R
1;
0G
0;
1G
1=
1F
0F
0=
#139000
1"
1I
1J
02
#140000
0"
0I
0J
12
10"
1M
09
1N
0H
1O
#141000
1"
1I
1J
02
#142000
0"
0I
0J
12
00"
1/"
0M
19
0P
0N
1P
1N
1H
1S
0Q
0O
0S
1Q
1O
0T
0:
0R
1T
1:
1R
1;
0G
0;
1G
1=
1F
0F
0=
#143000
1"
1I
1J
02
#144000
0"
0I
0J
12
10"
1M
09
0P
0N
0H
1S
0Q
0O
0T
0:
0R
1;
0G
1F
#145000
1"
1I
1J
02
#146000
0"
0I
0J
12
1,"
0-"
00"
0/"
0."
1U
0;
1T
1:
0M
19
1P
1N
0S
1Q
0X
0V
0F
0U
1;
1G
0N
1H
0Q
1O
0:
1R
1Y
0>!
0W
1X
1V
1F
0O
0R
0G
1>!
1Z
0C!
0Y
1W
1C!
1M!
0E!
0?
0Z
0M!
1E!
1?
0R!
1F!
1R!
0F!
#147000
1"
1I
1J
02
#148000
0"
0I
0J
12
10"
1M
09
1N
0H
1O
#149000
1"
1I
1J
02
#150000
0"
0I
0J
12
00"
1/"
0M
19
0P
0N
1P
1N
1H
1Q
0O
0Q
1O
1R
0R
#151000
1"
1I
1J
02
#152000
0"
0I
0J
12
10"
1M
09
0P
0N
0H
1Q
0O
1R
#153000
1"
1I
1J
02
#154000
0"
0I
0J
12
00"
0/"
1."
0M
19
1P
1N
1S
0Q
0N
1H
0S
1Q
1O
1:
0R
0O
1=
0:
1R
1G
0G
0=
#155000
1"
1I
1J
02
#156000
0"
0I
0J
12
10"
1M
09
1N
0H
1O
#157000
1"
1I
1J
02
#158000
0"
0I
0J
12
00"
1/"
0M
19
0P
0N
1P
1N
1H
1S
0Q
0O
0S
1Q
1O
1:
0R
0:
1R
1=
1G
0G
0=
#159000
1"
1I
1J
02
#160000
0"
0I
0J
12
10"
1M
09
0P
0N
0H
1S
0Q
0O
1:
0R
1G
#161000
1"
1I
1J
02
#162000
0"
0I
0J
12
1-"
00"
0/"
0."
0T
0:
0M
19
1P
1N
0S
1Q
1U
0;
0G
0N
1H
0Q
1O
1T
1:
1R
0X
0V
0F
0O
0R
0U
1;
1G
1Y
0>!
0W
1X
1V
1F
1>!
1Z
0C!
0Y
1W
1C!
1M!
0E!
0?
0Z
0M!
1E!
1?
0R!
1F!
1R!
0F!
#163000
1"
1I
1J
02
#164000
0"
0I
0J
12
10"
1M
09
1N
0H
1O
1=
#165000
1"
1I
1J
02
#166000
0"
0I
0J
12
00"
1/"
0M
19
0P
0N
1P
1N
1H
1Q
0O
0=
0Q
1O
1=
1R
0R
#167000
1"
1I
1J
02
#168000
0"
0I
0J
12
10"
1M
09
0P
0N
0H
1Q
0O
0=
1R
1=
#169000
1"
1I
1J
02
#170000
0"
0I
0J
12
00"
0/"
1."
0M
19
1P
1N
1S
0Q
0N
1H
0S
1Q
1O
0T
0:
0R
0O
0=
1T
1:
1R
1U
0;
0G
0U
1;
1G
0X
0V
0F
1X
1V
1F
1=
1Y
0>!
0W
0Y
1>!
1W
1Z
0Z
#171000
1"
1I
1J
02
#172000
0"
0I
0J
12
10"
1M
09
1N
0H
1O
#173000
1"
1I
1J
02
#174000
0"
0I
0J
12
00"
1/"
0M
19
0P
0N
1P
1N
1H
1S
0Q
0O
0S
1Q
1O
0T
0:
0R
1T
1:
1R
0=
1U
0;
0G
0U
1;
1G
0X
0V
0F
1X
1V
1F
1=
1Y
0>!
0W
0Y
1>!
1W
1Z
0Z
#175000
1"
1I
1J
02
#176000
0"
0I
0J
12
10"
1M
09
0P
0N
0H
1S
0Q
0O
0T
0:
0R
0=
1U
0;
0G
0X
0V
0F
1Y
0>!
0W
1>!
1Z
0C!
1C!
1M!
0E!
0?
0M!
1E!
1?
0R!
1F!
1R!
0F!
#177000
1"
1I
1J
02
#178000
0"
0I
0J
12
0,"
0-"
00"
0/"
0."
0+"
1*"
0U
1;
1T
1:
0M
19
1P
1N
0S
1Q
1X
1V
1[
0Y
0V
1F
1=
0;
1G
0N
1H
0Q
1O
0:
1R
0[
1Y
1W
1<
0Z
0W
0F
0=
0O
0R
0G
0<
1Z
1E
0E
#179000
1"
1I
1J
02
#180000
0"
0I
0J
12
10"
1M
09
1N
0H
1O
#181000
1"
1I
1J
02
#182000
0"
0I
0J
12
00"
1/"
0M
19
0P
0N
1P
1N
1H
1Q
0O
0Q
1O
1R
0R
#183000
1"
1I
1J
02
#184000
0"
0I
0J
12
10"
1M
09
0P
0N
0H
1Q
0O
1R
#185000
1"
1I
1J
02
#186000
0"
0I
0J
12
00"
0/"
1."
0M
19
1P
1N
1S
0Q
0N
1H
0S
1Q
1O
1:
0R
0O
0:
1R
1G
0G
#187000
1"
1I
1J
02
#188000
0"
0I
0J
12
10"
1M
09
1N
0H
1O
#189000
1"
1I
1J
02
#190000
0"
0I
0J
12
00"
1/"
0M
19
0P
0N
1P
1N
1H
1S
0Q
0O
0S
1Q
1O
1:
0R
0:
1R
1G
0G
#191000
1"
1I
1J
02
#192000
0"
0I
0J
12
10"
1M
09
0P
0N
0H
1S
0Q
0O
1:
0R
1G
#193000
1"
1I
1J
02
#194000
0"
0I
0J
12
1-"
00"
0/"
0."
0T
0:
0M
19
1P
1N
0S
1Q
1;
0G
0N
1H
0Q
1O
1T
1:
1R
1F
0O
0R
0;
1G
0F
#195000
1"
1I
1J
02
#196000
0"
0I
0J
12
10"
1M
09
1N
0H
1O
#197000
1"
1I
1J
02
#198000
0"
0I
0J
12
00"
1/"
0M
19
0P
0N
1P
1N
1H
1Q
0O
0Q
1O
1R
0R
#199000
1"
1I
1J
02
#200000
1!
0"
1K
0I
0J
12
1N!
0Z
0O
0H
0G
0?
10"
1M
09
0P
0N
1Q
#201000
1"
1I
1J
02
#202000
0"
0I
0J
12
0j!
0-"
00"
0/"
0*"
1n!
0R!
0N!
0:
0M
19
1P
1N
0Y
1V!
0P!
1O!
0H!
11
0O!
0N
0Q
0>!
0C!
0E!
#203000
1"
1I
1J
02
#204000
0"
0I
0J
12
0h!
1Y!
0e!
0a!
0\!
0X!
0S!
0#
1'
#205000
1"
1I
1J
02
#206000
0"
0I
0J
12
0Y!
0'
#207000
1"
1I
1J
02
#208000
0"
0I
0J
12
#209000
1"
1I
1J
02
#210000
0"
0I
0J
12
#211000
1"
1I
1J
02
#212000
0"
0I
0J
12
#213000
1"
1I
1J
02
#214000
0"
0I
0J
12
#215000
1"
1I
1J
02
#216000
0"
0I
0J
12
#217000
1"
1I
1J
02
#218000
0"
0I
0J
12
#219000
1"
1I
1J
02
#220000
0"
0I
0J
12
#221000
1"
1I
1J
02
#222000
0"
0I
0J
12
#223000
1"
1I
1J
02
#224000
0"
0I
0J
12
#225000
1"
1I
1J
02
#226000
0"
0I
0J
12
#227000
1"
1I
1J
02
#228000
0"
0I
0J
12
#229000
1"
1I
1J
02
#230000
0"
0I
0J
12
#231000
1"
1I
1J
02
#232000
0"
0I
0J
12
#233000
1"
1I
1J
02
#234000
0"
0I
0J
12
#235000
1"
1I
1J
02
#236000
0"
0I
0J
12
#237000
1"
1I
1J
02
#238000
0"
0I
0J
12
#239000
1"
1I
1J
02
#240000
0"
0I
0J
12
#241000
1"
1I
1J
02
#242000
0"
0I
0J
12
#243000
1"
1I
1J
02
#244000
0"
0I
0J
12
#245000
1"
1I
1J
02
#246000
0"
0I
0J
12
#247000
1"
1I
1J
02
#248000
0"
0I
0J
12
#249000
1"
1I
1J
02
#250000
0!
0"
0K
0I
0J
12
1M!
1F!
1H
#251000
1"
1I
1J
02
#252000
0"
0I
0J
12
10"
1i!
1k!
1M
09
1^!
1U!
1G!
1$
1N
0H
1O
#253000
1"
1I
1J
02
#254000
0"
0I
0J
12
00"
1/"
1W!
0M
19
0P
0N
1(
1P
1N
1H
1Q
0O
0Q
1O
1R
0R
#255000
1"
1I
1J
02
#256000
0"
0I
0J
12
10"
1M
09
0P
0N
0H
1Q
0O
1R
#257000
1"
1I
1J
02
#258000
0"
0I
0J
12
00"
0/"
1."
0M
19
1P
1N
1S
0Q
0N
1H
0S
1Q
1O
1:
0R
0O
0:
1R
1G
0G
#259000
1"
1I
1J
02
#260000
0"
0I
0J
12
10"
1M
09
1N
0H
1O
#261000
1"
1I
1J
02
#262000
0"
0I
0J
12
00"
1/"
0M
19
0P
0N
1P
1N
1H
1S
0Q
0O
0S
1Q
1O
1:
0R
0:
1R
1G
0G
#263000
1"
1I
1J
02
#264000
0"
0I
0J
12
10"
1M
09
0P
0N
0H
1S
0Q
0O
1:
0R
1G
#265000
1"
1I
1J
02
#266000
0"
0I
0J
12
1-"
00"
0/"
0."
0T
0:
0M
19
1P
1N
0S
1Q
1;
0G
0N
1H
0Q
1O
1T
1:
1R
1F
0O
0R
0;
1G
0F
#267000
1"
1I
1J
02
#268000
0"
0I
0J
12
10"
1M
09
1N
0H
1O
#269000
1"
1I
1J
02
#270000
0"
0I
0J
12
00"
1/"
0M
19
0P
0N
1P
1N
1H
1Q
0O
0Q
1O
1R
0R
#271000
1"
1I
1J
02
#272000
0"
0I
0J
12
10"
1M
09
0P
0N
0H
1Q
0O
1R
#273000
1"
1I
1J
02
#274000
0"
0I
0J
12
00"
0/"
1."
0M
19
1P
1N
1S
0Q
0N
1H
0S
1Q
1O
0T
0:
0R
0O
1T
1:
1R
1;
0G
0;
1G
1=
1F
0F
0=
1C!
0C!
0M!
1E!
1?
1M!
0E!
0?
1R!
0F!
0R!
1F!
#275000
1"
1I
1J
02
#276000
0"
0I
0J
12
10"
1M
09
1N
0H
1O
#277000
1"
1I
1J
02
#278000
0"
0I
0J
12
00"
1/"
0M
19
0P
0N
1P
1N
1H
1S
0Q
0O
0S
1Q
1O
0T
0:
0R
1T
1:
1R
1;
0G
0;
1G
1=
1F
0F
0=
1C!
0C!
0M!
1E!
1?
1M!
0E!
0?
1R!
0F!
0R!
1F!
#279000
1"
1I
1J
02
#280000
0"
0I
0J
12
10"
1M
09
0P
0N
0H
1S
0Q
0O
0T
0:
0R
1;
0G
1F
#281000
1"
1I
1J
02
#282000
0"
0I
0J
12
1,"
0-"
00"
0/"
0."
1U
0;
1T
1:
0M
19
1P
1N
0S
1Q
1V
0F
0U
1;
1G
0N
1H
0Q
1O
0:
1R
1>!
1W
0V
1F
0O
0R
0G
1C!
0>!
0W
0M!
1E!
1?
0C!
1R!
0F!
1M!
0E!
0?
0R!
1F!
#283000
1"
1I
1J
02
#284000
0"
0I
0J
12
10"
1M
09
1N
0H
1O
