short_or_long_signal_identifier/simulation/qsim/short_or_long_signal_identifier.msim.vcd
$comment
	File created using the following command:
		vcd file short_or_long_signal_identifier.msim.vcd -direction
$end
$date
	Wed Aug 21 19:57:20 2019
$end
$version
	ModelSim Version 10.1d
$end
$timescale
	1ps
$end
$scope module short_or_long_signal_identifier_vlg_vec_tst $end
$var reg 1 ! button_input $end
$var reg 1 " clock $end
$var wire 1 # code_current_index_test [1] $end
$var wire 1 $ code_current_index_test [0] $end
$var wire 1 % code_test0 [1] $end
$var wire 1 & code_test0 [0] $end
$var wire 1 ' code_test1 [1] $end
$var wire 1 ( code_test1 [0] $end
$var wire 1 ) code_test2 [1] $end
$var wire 1 * code_test2 [0] $end
$var wire 1 + code_test3 [1] $end
$var wire 1 , code_test3 [0] $end
$var wire 1 - code_test4 [1] $end
$var wire 1 . code_test4 [0] $end
$var wire 1 / index_test [2] $end
$var wire 1 0 index_test [1] $end
$var wire 1 1 index_test [0] $end
$var wire 1 2 sampler $end
$scope module i1 $end
$var wire 1 3 gnd $end
$var wire 1 4 vcc $end
$var wire 1 5 unknown $end
$var tri1 1 6 devclrn $end
$var tri1 1 7 devpor $end
$var tri1 1 8 devoe $end
$var wire 1 9 Add1~12_combout $end
$var wire 1 : Add1~16_combout $end
$var wire 1 ; Add1~20_combout $end
$var wire 1 < Add1~34_combout $end
$var wire 1 = Add1~42_combout $end
$var wire 1 > Add1~44_combout $end
$var wire 1 ? Add1~46_combout $end
$var wire 1 @ LessThan0~1_combout $end
$var wire 1 A LessThan0~5_combout $end
$var wire 1 B count~8_combout $end
$var wire 1 C count~9_combout $end
$var wire 1 D count~10_combout $end
$var wire 1 E count~12_combout $end
$var wire 1 F count~14_combout $end
$var wire 1 G count~19_combout $end
$var wire 1 H count~21_combout $end
$var wire 1 I count~23_combout $end
$var wire 1 J count~25_combout $end
$var wire 1 K count~28_combout $end
$var wire 1 L count~29_combout $end
$var wire 1 M clock~combout $end
$var wire 1 N clock~clkctrl_outclk $end
$var wire 1 O button_input~combout $end
$var wire 1 P Add1~0_combout $end
$var wire 1 Q count~31_combout $end
$var wire 1 R Add1~1 $end
$var wire 1 S Add1~2_combout $end
$var wire 1 T count~30_combout $end
$var wire 1 U Add1~3 $end
$var wire 1 V Add1~4_combout $end
$var wire 1 W Add1~5 $end
$var wire 1 X Add1~6_combout $end
$var wire 1 Y count~27_combout $end
$var wire 1 Z Add1~7 $end
$var wire 1 [ Add1~8_combout $end
$var wire 1 \ LessThan0~0_combout $end
$var wire 1 ] count~20_combout $end
$var wire 1 ^ Add1~9 $end
$var wire 1 _ Add1~10_combout $end
$var wire 1 ` count~26_combout $end
$var wire 1 a Add1~11 $end
$var wire 1 b Add1~13 $end
$var wire 1 c Add1~14_combout $end
$var wire 1 d count~24_combout $end
$var wire 1 e Add1~15 $end
$var wire 1 f Add1~17 $end
$var wire 1 g Add1~18_combout $end
$var wire 1 h count~22_combout $end
$var wire 1 i Add1~19 $end
$var wire 1 j Add1~21 $end
$var wire 1 k Add1~22_combout $end
$var wire 1 l Add1~23 $end
$var wire 1 m Add1~24_combout $end
$var wire 1 n LessThan0~2_combout $end
$var wire 1 o count~15_combout $end
$var wire 1 p Add1~25 $end
$var wire 1 q Add1~26_combout $end
$var wire 1 r count~18_combout $end
$var wire 1 s Add1~27 $end
$var wire 1 t Add1~28_combout $end
$var wire 1 u count~17_combout $end
$var wire 1 v Add1~29 $end
$var wire 1 w Add1~30_combout $end
$var wire 1 x count~16_combout $end
$var wire 1 y Add1~31 $end
$var wire 1 z Add1~32_combout $end
$var wire 1 { LessThan0~3_combout $end
$var wire 1 | LessThan0~4_combout $end
$var wire 1 } count~6_combout $end
$var wire 1 ~ Add1~33 $end
$var wire 1 !! Add1~35 $end
$var wire 1 "! Add1~36_combout $end
$var wire 1 #! count~13_combout $end
$var wire 1 $! Add1~37 $end
$var wire 1 %! Add1~39 $end
$var wire 1 &! Add1~40_combout $end
$var wire 1 '! count~11_combout $end
$var wire 1 (! Add1~41 $end
$var wire 1 )! Add1~43 $end
$var wire 1 *! Add1~45 $end
$var wire 1 +! Add1~47 $end
$var wire 1 ,! Add1~48_combout $end
$var wire 1 -! count~7_combout $end
$var wire 1 .! Add1~49 $end
$var wire 1 /! Add1~50_combout $end
$var wire 1 0! count~3_combout $end
$var wire 1 1! Add1~51 $end
$var wire 1 2! Add1~52_combout $end
$var wire 1 3! count~5_combout $end
$var wire 1 4! Add1~53 $end
$var wire 1 5! Add1~54_combout $end
$var wire 1 6! count~4_combout $end
$var wire 1 7! Add1~55 $end
$var wire 1 8! Add1~56_combout $end
$var wire 1 9! LessThan0~6_combout $end
$var wire 1 :! Add1~38_combout $end
$var wire 1 ;! LessThan0~7_combout $end
$var wire 1 <! count~2_combout $end
$var wire 1 =! Add1~57 $end
$var wire 1 >! Add1~58_combout $end
$var wire 1 ?! count~1_combout $end
$var wire 1 @! Add1~59 $end
$var wire 1 A! Add1~60_combout $end
$var wire 1 B! LessThan0~10_combout $end
$var wire 1 C! LessThan0~11_combout $end
$var wire 1 D! new_value~0_combout $end
$var wire 1 E! new_value~1_combout $end
$var wire 1 F! index_variable[0]~1_combout $end
$var wire 1 G! index_variable[1]~2_combout $end
$var wire 1 H! index_variable~3_combout $end
$var wire 1 I! index_variable~0_combout $end
$var wire 1 J! Equal2~0_combout $end
$var wire 1 K! Equal2~0clkctrl_outclk $end
$var wire 1 L! LessThan0~8_combout $end
$var wire 1 M! LessThan0~9_combout $end
$var wire 1 N! next_value~0_combout $end
$var wire 1 O! code[0][0]~combout $end
$var wire 1 P! count~0_combout $end
$var wire 1 Q! Add1~61 $end
$var wire 1 R! Add1~62_combout $end
$var wire 1 S! next_value~1_combout $end
$var wire 1 T! code[0][1]~combout $end
$var wire 1 U! Equal2~1_combout $end
$var wire 1 V! Equal2~1clkctrl_outclk $end
$var wire 1 W! code[1][0]~combout $end
$var wire 1 X! code[1][1]~combout $end
$var wire 1 Y! Equal2~2_combout $end
$var wire 1 Z! Equal2~2clkctrl_outclk $end
$var wire 1 [! code[2][0]~combout $end
$var wire 1 \! code[2][1]~combout $end
$var wire 1 ]! Equal2~3_combout $end
$var wire 1 ^! Equal2~3clkctrl_outclk $end
$var wire 1 _! code[3][0]~combout $end
$var wire 1 `! code[3][1]~combout $end
$var wire 1 a! Equal2~4_combout $end
$var wire 1 b! Equal2~4clkctrl_outclk $end
$var wire 1 c! code[4][0]~combout $end
$var wire 1 d! code[4][1]~combout $end
$var wire 1 e! next_value [1] $end
$var wire 1 f! next_value [0] $end
$var wire 1 g! count [31] $end
$var wire 1 h! count [30] $end
$var wire 1 i! count [29] $end
$var wire 1 j! count [28] $end
$var wire 1 k! count [27] $end
$var wire 1 l! count [26] $end
$var wire 1 m! count [25] $end
$var wire 1 n! count [24] $end
$var wire 1 o! count [23] $end
$var wire 1 p! count [22] $end
$var wire 1 q! count [21] $end
$var wire 1 r! count [20] $end
$var wire 1 s! count [19] $end
$var wire 1 t! count [18] $end
$var wire 1 u! count [17] $end
$var wire 1 v! count [16] $end
$var wire 1 w! count [15] $end
$var wire 1 x! count [14] $end
$var wire 1 y! count [13] $end
$var wire 1 z! count [12] $end
$var wire 1 {! count [11] $end
$var wire 1 |! count [10] $end
$var wire 1 }! count [9] $end
$var wire 1 ~! count [8] $end
$var wire 1 !" count [7] $end
$var wire 1 "" count [6] $end
$var wire 1 #" count [5] $end
$var wire 1 $" count [4] $end
$var wire 1 %" count [3] $end
$var wire 1 &" count [2] $end
$var wire 1 '" count [1] $end
$var wire 1 (" count [0] $end
$var wire 1 )" new_value [1] $end
$var wire 1 *" new_value [0] $end
$var wire 1 +" index_variable [2] $end
$var wire 1 ," index_variable [1] $end
$var wire 1 -" index_variable [0] $end
$upscope $end
$upscope $end
$enddefinitions $end
#0
$dumpvars
1!
0"
0$
0#
0&
0%
x(
x'
x*
x)
x,
x+
x.
x-
01
00
0/
x2
03
14
x5
16
17
18
09
0:
0;
0<
0=
0>
0?
0@
0A
0B
0C
0D
0E
0F
0G
0H
0I
0J
0K
0L
0M
0N
1O
1P
0Q
0R
0S
0T
1U
0V
0W
0X
0Y
1Z
0[
0\
0]
0^
0_
0`
1a
0b
0c
0d
1e
0f
0g
0h
1i
0j
0k
1l
0m
0n
0o
0p
0q
0r
1s
0t
0u
0v
0w
0x
1y
0z
0{
0|
0}
0~
1!!
0"!
0#!
0$!
1%!
0&!
0'!
0(!
1)!
0*!
1+!
0,!
0-!
0.!
0/!
00!
11!
02!
03!
04!
05!
06!
17!
08!
09!
0:!
0;!
0<!
0=!
0>!
0?!
1@!
0A!
0B!
0C!
0D!
0E!
0F!
0G!
0H!
1I!
1J!
1K!
0L!
0M!
0N!
0O!
0P!
0Q!
0R!
0S!
0T!
0U!
0V!
xW!
xX!
0Y!
0Z!
x[!
x\!
0]!
0^!
x_!
x`!
0a!
0b!
xc!
xd!
0f!
0e!
0("
0'"
0&"
0%"
0$"
0#"
0""
0!"
0~!
0}!
0|!
0{!
0z!
0y!
0x!
0w!
0v!
0u!
0t!
0s!
0r!
0q!
0p!
0o!
0n!
0m!
0l!
0k!
0j!
0i!
0h!
0g!
0*"
0)"
0-"
0,"
0+"
$end
#1000
1"
1M
1N
02
#2000
0"
0M
0N
12
#3000
1"
1M
1N
02
#4000
0"
0M
0N
12
#5000
1"
1M
1N
02
#6000
0"
0M
0N
12
#7000
1"
1M
1N
02
#8000
0"
0M
0N
12
#9000
1"
1M
1N
02
#10000
0"
0M
0N
12
#11000
1"
1M
1N
02
#12000
0"
0M
0N
12
#13000
1"
1M
1N
02
#14000
0"
0M
0N
12
#15000
1"
1M
1N
02
#16000
0"
0M
0N
12
#17000
1"
1M
1N
02
#18000
0"
0M
0N
12
#19000
1"
1M
1N
02
#20000
0"
0M
0N
12
#21000
1"
1M
1N
02
#22000
0"
0M
0N
12
#23000
1"
1M
1N
02
#24000
0"
0M
0N
12
#25000
1"
1M
1N
02
#26000
0"
0M
0N
12
#27000
1"
1M
1N
02
#28000
0"
0M
0N
12
#29000
1"
1M
1N
02
#30000
0"
0M
0N
12
#31000
1"
1M
1N
02
#32000
0"
0M
0N
12
#33000
1"
1M
1N
02
#34000
0"
0M
0N
12
#35000
1"
1M
1N
02
#36000
0"
0M
0N
12
#37000
1"
1M
1N
02
#38000
0"
0M
0N
12
#39000
1"
1M
1N
02
#40000
0"
0M
0N
12
#41000
1"
1M
1N
02
#42000
0"
0M
0N
12
#43000
1"
1M
1N
02
#44000
0"
0M
0N
12
#45000
1"
1M
1N
02
#46000
0"
0M
0N
12
#47000
1"
1M
1N
02
#48000
0"
0M
0N
12
#49000
1"
1M
1N
02
#50000
0!
0"
0O
0M
0N
12
1N!
1D!
1Q
#51000
1"
1M
1N
02
#52000
0"
0M
0N
12
1("
1*"
1f!
1R
0P
1O!
1$
1S
0Q
1&
1T
#53000
1"
1M
1N
02
#54000
0"
0M
0N
12
0("
1'"
0R
1P
0U
0S
1U
1S
1Q
1V
0T
0V
1T
1L
0L
#55000
1"
1M
1N
02
#56000
0"
0M
0N
12
1("
1R
0P
0U
0S
0Q
1V
0T
1L
#57000
1"
1M
1N
02
#58000
0"
0M
0N
12
1&"
0("
0'"
1W
0V
0R
1P
1U
1S
1X
0L
0S
1Q
0W
1V
1T
1K
0T
0X
1L
0K
#59000
1"
1M
1N
02
#60000
0"
0M
0N
12
1("
1R
0P
1S
0Q
1T
#61000
1"
1M
1N
02
#62000
0"
0M
0N
12
0("
1'"
0R
1P
0U
0S
1U
1S
1Q
1W
0V
0T
0W
1V
1T
1X
0L
0X
1L
1K
0K
#63000
1"
1M
1N
02
#64000
0"
0M
0N
12
1("
1R
0P
0U
0S
0Q
1W
0V
0T
1X
0L
1K
#65000
1"
1M
1N
02
#66000
0"
0M
0N
12
1%"
0&"
0("
0'"
0Z
0X
0W
1V
0R
1P
1U
1S
1[
0K
1Z
1X
1L
0S
1Q
0V
1T
1Y
0[
1K
0T
0L
0Y
#67000
1"
1M
1N
02
#68000
0"
0M
0N
12
1("
1R
0P
1S
0Q
1T
#69000
1"
1M
1N
02
#70000
0"
0M
0N
12
0("
1'"
0R
1P
0U
0S
1U
1S
1Q
1V
0T
0V
1T
1L
0L
#71000
1"
1M
1N
02
#72000
0"
0M
0N
12
1("
1R
0P
0U
0S
0Q
1V
0T
1L
#73000
1"
1M
1N
02
#74000
0"
0M
0N
12
1&"
0("
0'"
1W
0V
0R
1P
1U
1S
0Z
0X
0L
0S
1Q
0W
1V
1T
1[
0K
0T
1Z
1X
1L
1\
1Y
0[
1K
1|
0\
0Y
1M!
1E!
0D!
0|
1S!
0N!
0M!
0E!
1D!
0S!
1N!
#75000
1"
1M
1N
02
#76000
0"
0M
0N
12
1("
1R
0P
1S
0Q
1T
#77000
1"
1M
1N
02
#78000
0"
0M
0N
12
0("
1'"
0R
1P
0U
0S
1U
1S
1Q
1W
0V
0T
0W
1V
1T
0Z
0X
0L
1Z
1X
1L
1[
0K
0[
1\
1K
1Y
0\
0Y
1|
0|
1M!
1E!
0D!
0M!
0E!
1D!
1S!
0N!
0S!
1N!
#79000
1"
1M
1N
02
#80000
0"
0M
0N
12
1("
1R
0P
0U
0S
0Q
1W
0V
0T
0Z
0X
0L
1[
0K
1Y
#81000
1"
1M
1N
02
#82000
0"
0M
0N
12
0%"
0&"
0("
0'"
1$"
1Z
1X
0W
1V
0R
1P
1U
1S
1^
0[
0^
1[
1K
0X
1L
0S
1Q
0V
1T
1_
0Y
0_
1Y
0K
0T
0L
1`
1@
0`
0@
1|
0|
1M!
1E!
0D!
0M!
0E!
1D!
1S!
0N!
0S!
1N!
#83000
1"
1M
1N
02
#84000
0"
0M
0N
12
1("
1R
0P
1S
0Q
1T
#85000
1"
1M
1N
02
#86000
0"
0M
0N
12
0("
1'"
0R
1P
0U
0S
1U
1S
1Q
1V
0T
0V
1T
1L
0L
#87000
1"
1M
1N
02
#88000
0"
0M
0N
12
1("
1R
0P
0U
0S
0Q
1V
0T
1L
#89000
1"
1M
1N
02
#90000
0"
0M
0N
12
1&"
0("
0'"
1W
0V
0R
1P
1U
1S
1X
0L
0S
1Q
0W
1V
1T
1\
1K
0T
0X
1L
1|
0\
0K
1M!
1E!
0D!
0|
1S!
0N!
0M!
0E!
1D!
0S!
1N!
#91000
1"
1M
1N
02
#92000
0"
0M
0N
12
1("
1R
0P
1S
0Q
1T
#93000
1"
1M
1N
02
#94000
0"
0M
0N
12
0("
1'"
0R
1P
0U
0S
1U
1S
1Q
1W
0V
0T
0W
1V
1T
1X
0L
0X
1\
1L
1K
0\
0K
1|
0|
1M!
1E!
0D!
0M!
0E!
1D!
1S!
0N!
0S!
1N!
#95000
1"
1M
1N
02
#96000
0"
0M
0N
12
1("
1R
0P
0U
0S
0Q
1W
0V
0T
1X
0L
1K
#97000
1"
1M
1N
02
#98000
0"
0M
0N
12
1%"
0&"
0("
0'"
0Z
0X
0W
1V
0R
1P
1U
1S
1^
0[
0K
1Z
1X
1L
0S
1Q
0V
1T
1_
0Y
0^
1[
1K
0T
0L
1`
1@
0_
1Y
1|
0`
0@
1M!
1E!
0D!
0|
1S!
0N!
0M!
0E!
1D!
0S!
1N!
#99000
1"
1M
1N
02
#100000
0"
0M
0N
12
1("
1R
0P
1S
0Q
1\
1T
1|
1M!
1E!
0D!
1S!
0N!
#101000
1"
1M
1N
02
#102000
0"
0M
0N
12
0("
1'"
0*"
1)"
0f!
1e!
0R
1P
0U
0S
0O!
1T!
0$
1#
1U
1S
1Q
1V
0\
0T
0&
1%
0V
1\
1T
1L
0|
0L
1|
0M!
0E!
1D!
1M!
1E!
0D!
0S!
1N!
1S!
0N!
#103000
1"
1M
1N
02
#104000
0"
0M
0N
12
1("
1R
0P
0U
0S
0Q
1V
0\
0T
1\
1L
0|
1|
0M!
0E!
1D!
1M!
1E!
0D!
0S!
1N!
1S!
0N!
#105000
1"
1M
1N
02
#106000
0"
0M
0N
12
1&"
0("
0'"
1W
0V
0R
1P
1U
1S
0Z
0X
0L
0S
1Q
0W
1V
1T
1^
0[
0\
0K
0T
1Z
1X
1L
1_
0Y
0|
0^
1[
1K
1`
1@
0M!
0E!
1D!
0_
1\
1Y
1|
0S!
1N!
0`
0@
1M!
1E!
0D!
1S!
0N!
#107000
1"
1M
1N
02
#108000
0"
0M
0N
12
1("
1R
0P
1S
0Q
1T
#109000
1"
1M
1N
02
#110000
0"
0M
0N
12
0("
1'"
0R
1P
0U
0S
1U
1S
1Q
1W
0V
0T
0W
1V
1T
0Z
0X
0L
1Z
1X
0\
1L
1^
0[
0K
0^
1[
1K
0|
1_
0Y
0_
1\
1Y
0M!
0E!
1D!
1`
1@
0`
0@
1|
0S!
1N!
1M!
1E!
0D!
1S!
0N!
#111000
1"
1M
1N
02
#112000
0"
0M
0N
12
1("
1R
0P
0U
0S
0Q
1W
0V
0T
0Z
0X
0\
0L
1^
0[
0K
0|
1_
0Y
0M!
0E!
1D!
1`
1@
0S!
1N!
1|
1M!
1E!
0D!
1S!
0N!
#113000
1"
1M
1N
02
#114000
0"
0M
0N
12
0%"
0&"
0("
0'"
0$"
1#"
1Z
1X
0W
1V
0R
1P
1U
1S
0^
1[
0a
0_
0[
1\
1K
0X
1L
0S
1Q
0V
1T
1a
1_
1Y
19
0`
0@
0\
0Y
0K
0T
0L
09
1`
1@
1J
0J
#115000
1"
1M
1N
02
#116000
0"
0M
0N
12
1("
1R
0P
1S
0Q
1T
#117000
1"
1M
1N
02
#118000
0"
0M
0N
12
0("
1'"
0R
1P
0U
0S
1U
1S
1Q
1V
0T
0V
1T
1L
0L
#119000
1"
1M
1N
02
#120000
0"
0M
0N
12
1("
1R
0P
0U
0S
0Q
1V
0T
1L
#121000
1"
1M
1N
02
#122000
0"
0M
0N
12
1&"
0("
0'"
1W
0V
0R
1P
1U
1S
1X
0L
0S
1Q
0W
1V
1T
1K
0T
0X
1L
0K
#123000
1"
1M
1N
02
#124000
0"
0M
0N
12
1("
1R
0P
1S
0Q
1T
#125000
1"
1M
1N
02
#126000
0"
0M
0N
12
0("
1'"
0R
1P
0U
0S
1U
1S
1Q
1W
0V
0T
0W
1V
1T
1X
0L
0X
1L
1K
0K
#127000
1"
1M
1N
02
#128000
0"
0M
0N
12
1("
1R
0P
0U
0S
0Q
1W
0V
0T
1X
0L
1K
#129000
1"
1M
1N
02
#130000
0"
0M
0N
12
1%"
0&"
0("
0'"
0Z
0X
0W
1V
0R
1P
1U
1S
1[
0K
1Z
1X
1L
0S
1Q
0V
1T
1Y
0[
1K
0T
0L
0Y
#131000
1"
1M
1N
02
#132000
0"
0M
0N
12
1("
1R
0P
1S
0Q
1T
#133000
1"
1M
1N
02
#134000
0"
0M
0N
12
0("
1'"
0R
1P
0U
0S
1U
1S
1Q
1V
0T
0V
1T
1L
0L
#135000
1"
1M
1N
02
#136000
0"
0M
0N
12
1("
1R
0P
0U
0S
0Q
1V
0T
1L
#137000
1"
1M
1N
02
#138000
0"
0M
0N
12
1&"
0("
0'"
1W
0V
0R
1P
1U
1S
0Z
0X
0L
0S
1Q
0W
1V
1T
1[
0K
0T
1Z
1X
1L
1\
1Y
0[
1K
0\
0Y
#139000
1"
1M
1N
02
#140000
0"
0M
0N
12
1("
1R
0P
1S
0Q
1T
#141000
1"
1M
1N
02
#142000
0"
0M
0N
12
0("
1'"
0R
1P
0U
0S
1U
1S
1Q
1W
0V
0T
0W
1V
1T
0Z
0X
0L
1Z
1X
1L
1[
0K
0[
1\
1K
1Y
0\
0Y
#143000
1"
1M
1N
02
#144000
0"
0M
0N
12
1("
1R
0P
0U
0S
0Q
1W
0V
0T
0Z
0X
0L
1[
0K
1Y
#145000
1"
1M
1N
02
#146000
0"
0M
0N
12
0%"
0&"
0("
0'"
1$"
1Z
1X
0W
1V
0R
1P
1U
1S
1^
0[
0^
1[
1K
0X
1L
0S
1Q
0V
1T
0a
0_
0Y
1a
1_
1Y
0K
0T
0L
19
0`
0@
09
1`
1@
1J
0|
0J
1|
0M!
0E!
1D!
1M!
1E!
0D!
0S!
1N!
1S!
0N!
#147000
1"
1M
1N
02
#148000
0"
0M
0N
12
1("
1R
0P
1S
0Q
1T
#149000
1"
1M
1N
02
#150000
0"
0M
0N
12
0("
1'"
0R
1P
0U
0S
1U
1S
1Q
1V
0T
0V
1T
1L
0L
#151000
1"
1M
1N
02
#152000
0"
0M
0N
12
1("
1R
0P
0U
0S
0Q
1V
0T
1L
#153000
1"
1M
1N
02
#154000
0"
0M
0N
12
1&"
0("
0'"
1W
0V
0R
1P
1U
1S
1X
0L
0S
1Q
0W
1V
1T
1\
1K
0T
0X
1L
0\
0K
#155000
1"
1M
1N
02
#156000
0"
0M
0N
12
1("
1R
0P
1S
0Q
1T
#157000
1"
1M
1N
02
#158000
0"
0M
0N
12
0("
1'"
0R
1P
0U
0S
1U
1S
1Q
1W
0V
0T
0W
1V
1T
1X
0L
0X
1\
1L
1K
0\
0K
#159000
1"
1M
1N
02
#160000
0"
0M
0N
12
1("
1R
0P
0U
0S
0Q
1W
0V
0T
1X
0L
1K
#161000
1"
1M
1N
02
#162000
0"
0M
0N
12
1%"
0&"
0("
0'"
0Z
0X
0W
1V
0R
1P
1U
1S
1^
0[
0K
1Z
1X
1L
0S
1Q
0V
1T
0a
0_
0Y
0^
1[
1K
0T
0L
19
0`
0@
1a
1_
1Y
1J
1@
0|
09
1`
1|
0M!
0E!
1D!
0J
1M!
1E!
0D!
0S!
1N!
1S!
0N!
#163000
1"
1M
1N
02
#164000
0"
0M
0N
12
1("
1R
0P
1S
0Q
1\
1T
#165000
1"
1M
1N
02
#166000
0"
0M
0N
12
0("
1'"
0R
1P
0U
0S
1U
1S
1Q
1V
0\
0T
0V
1\
1T
1L
0L
#167000
1"
1M
1N
02
#168000
0"
0M
0N
12
1("
1R
0P
0U
0S
0Q
1V
0\
0T
1\
1L
#169000
1"
1M
1N
02
#170000
0"
0M
0N
12
1&"
0("
0'"
1W
0V
0R
1P
1U
1S
0Z
0X
0L
0S
1Q
0W
1V
1T
1^
0[
0\
0K
0T
1Z
1X
1L
0a
0_
0Y
0^
1[
1K
19
0`
0@
1a
1_
1\
1Y
1J
1@
09
1`
0J
#171000
1"
1M
1N
02
#172000
0"
0M
0N
12
1("
1R
0P
1S
0Q
1T
#173000
1"
1M
1N
02
#174000
0"
0M
0N
12
0("
1'"
0R
1P
0U
0S
1U
1S
1Q
1W
0V
0T
0W
1V
1T
0Z
0X
0L
1Z
1X
0\
1L
1^
0[
0K
0^
1[
1K
0a
0_
0Y
1a
1_
1\
1Y
19
0`
0@
09
1`
1@
1J
0J
#175000
1"
1M
1N
02
#176000
0"
0M
0N
12
1("
1R
0P
0U
0S
0Q
1W
0V
0T
0Z
0X
0\
0L
1^
0[
0K
0a
0_
0Y
19
0`
0@
1J
1@
0|
1|
0M!
0E!
1D!
1M!
1E!
0D!
0S!
1N!
1S!
0N!
#177000
1"
1M
1N
02
#178000
0"
0M
0N
12
1""
0%"
0&"
0("
0'"
0$"
0#"
1b
09
1Z
1X
0W
1V
0R
1P
1U
1S
0^
1[
1a
1_
1c
0J
0[
1\
1K
0X
1L
0S
1Q
0V
1T
0_
1Y
0b
19
1`
1d
0\
0Y
0K
0T
0L
0`
0c
1J
0d
#179000
1"
1M
1N
02
#180000
0"
0M
0N
12
1("
1R
0P
1S
0Q
1T
#181000
1"
1M
1N
02
#182000
0"
0M
0N
12
0("
1'"
0R
1P
0U
0S
1U
1S
1Q
1V
0T
0V
1T
1L
0L
#183000
1"
1M
1N
02
#184000
0"
0M
0N
12
1("
1R
0P
0U
0S
0Q
1V
0T
1L
#185000
1"
1M
1N
02
#186000
0"
0M
0N
12
1&"
0("
0'"
1W
0V
0R
1P
1U
1S
1X
0L
0S
1Q
0W
1V
1T
1K
0T
0X
1L
0K
#187000
1"
1M
1N
02
#188000
0"
0M
0N
12
1("
1R
0P
1S
0Q
1T
#189000
1"
1M
1N
02
#190000
0"
0M
0N
12
0("
1'"
0R
1P
0U
0S
1U
1S
1Q
1W
0V
0T
0W
1V
1T
1X
0L
0X
1L
1K
0K
#191000
1"
1M
1N
02
#192000
0"
0M
0N
12
1("
1R
0P
0U
0S
0Q
1W
0V
0T
1X
0L
1K
#193000
1"
1M
1N
02
#194000
0"
0M
0N
12
1%"
0&"
0("
0'"
0Z
0X
0W
1V
0R
1P
1U
1S
1[
0K
1Z
1X
1L
0S
1Q
0V
1T
1Y
0[
1K
0T
0L
0Y
#195000
1"
1M
1N
02
#196000
0"
0M
0N
12
1("
1R
0P
1S
0Q
1T
#197000
1"
1M
1N
02
#198000
0"
0M
0N
12
0("
1'"
0R
1P
0U
0S
1U
1S
1Q
1V
0T
0V
1T
1L
0L
#199000
1"
1M
1N
02
#200000
1!
0"
1O
0M
0N
12
1F!
0E!
0T
0Q
0K
0J
1("
1R
0P
0U
0S
1V
#201000
1"
1M
1N
02
#202000
0"
0M
0N
12
0""
0%"
0("
0'"
0)"
1-"
09
0X
0R
1P
1U
1S
0S!
0F!
1U!
0J!
0I!
1G!
0K!
1V!
11
0@
0S
0V
0G!
1X!
0W!
0|
1'
0(
0M!
#203000
1"
1M
1N
02
#204000
0"
0M
0N
12
0e!
0X!
0#
0'
#205000
1"
1M
1N
02
#206000
0"
0M
0N
12
#207000
1"
1M
1N
02
#208000
0"
0M
0N
12
#209000
1"
1M
1N
02
#210000
0"
0M
0N
12
#211000
1"
1M
1N
02
#212000
0"
0M
0N
12
#213000
1"
1M
1N
02
#214000
0"
0M
0N
12
#215000
1"
1M
1N
02
#216000
0"
0M
0N
12
#217000
1"
1M
1N
02
#218000
0"
0M
0N
12
#219000
1"
1M
1N
02
#220000
0"
0M
0N
12
#221000
1"
1M
1N
02
#222000
0"
0M
0N
12
#223000
1"
1M
1N
02
#224000
0"
0M
0N
12
#225000
1"
1M
1N
02
#226000
0"
0M
0N
12
#227000
1"
1M
1N
02
#228000
0"
0M
0N
12
#229000
1"
1M
1N
02
#230000
0"
0M
0N
12
#231000
1"
1M
1N
02
#232000
0"
0M
0N
12
#233000
1"
1M
1N
02
#234000
0"
0M
0N
12
#235000
1"
1M
1N
02
#236000
0"
0M
0N
12
#237000
1"
1M
1N
02
#238000
0"
0M
0N
12
#239000
1"
1M
1N
02
#240000
0"
0M
0N
12
#241000
1"
1M
1N
02
#242000
0"
0M
0N
12
#243000
1"
1M
1N
02
#244000
0"
0M
0N
12
#245000
1"
1M
1N
02
#246000
0"
0M
0N
12
#247000
1"
1M
1N
02
#248000
0"
0M
0N
12
#249000
1"
1M
1N
02
#250000
0!
0"
0O
0M
0N
12
1N!
1D!
1Q
#251000
1"
1M
1N
02
#252000
0"
0M
0N
12
1("
1*"
1f!
1R
0P
1W!
1$
1S
0Q
1(
1T
#253000
1"
1M
1N
02
#254000
0"
0M
0N
12
0("
1'"
0R
1P
0U
0S
1U
1S
1Q
1V
0T
0V
1T
1L
0L
#255000
1"
1M
1N
02
#256000
0"
0M
0N
12
1("
1R
0P
0U
0S
0Q
1V
0T
1L
#257000
1"
1M
1N
02
#258000
0"
0M
0N
12
1&"
0("
0'"
1W
0V
0R
1P
1U
1S
1X
0L
0S
1Q
0W
1V
1T
1K
0T
0X
1L
0K
#259000
1"
1M
1N
02
#260000
0"
0M
0N
12
1("
1R
0P
1S
0Q
1T
#261000
1"
1M
1N
02
#262000
0"
0M
0N
12
0("
1'"
0R
1P
0U
0S
1U
1S
1Q
1W
0V
0T
0W
1V
1T
1X
0L
0X
1L
1K
0K
#263000
1"
1M
1N
02
#264000
0"
0M
0N
12
1("
1R
0P
0U
0S
0Q
1W
0V
0T
1X
0L
1K
#265000
1"
1M
1N
02
#266000
0"
0M
0N
12
1%"
0&"
0("
0'"
0Z
0X
0W
1V
0R
1P
1U
1S
1[
0K
1Z
1X
1L
0S
1Q
0V
1T
1Y
0[
1K
0T
0L
0Y
#267000
1"
1M
1N
02
#268000
0"
0M
0N
12
1("
1R
0P
1S
0Q
1T
#269000
1"
1M
1N
02
#270000
0"
0M
0N
12
0("
1'"
0R
1P
0U
0S
1U
1S
1Q
1V
0T
0V
1T
1L
0L
#271000
1"
1M
1N
02
#272000
0"
0M
0N
12
1("
1R
0P
0U
0S
0Q
1V
0T
1L
#273000
1"
1M
1N
02
#274000
0"
0M
0N
12
1&"
0("
0'"
1W
0V
0R
1P
1U
1S
0Z
0X
0L
0S
1Q
0W
1V
1T
1[
0K
0T
1Z
1X
1L
1\
1Y
0[
1K
1|
0\
0Y
1M!
1E!
0D!
0|
1S!
0N!
0M!
0E!
1D!
0S!
1N!
#275000
1"
1M
1N
02
#276000
0"
0M
0N
12
1("
1R
0P
1S
0Q
1T
#277000
1"
1M
1N
02
#278000
0"
0M
0N
12
0("
1'"
0R
1P
0U
0S
1U
1S
1Q
1W
0V
0T
0W
1V
1T
0Z
0X
0L
1Z
1X
1L
1[
0K
0[
1\
1K
1Y
0\
0Y
1|
0|
1M!
1E!
0D!
0M!
0E!
1D!
1S!
0N!
0S!
1N!
#279000
1"
1M
1N
02
#280000
0"
0M
0N
12
1("
1R
0P
0U
0S
0Q
1W
0V
0T
0Z
0X
0L
1[
0K
1Y
#281000
1"
1M
1N
02
#282000
0"
0M
0N
12
0%"
0&"
0("
0'"
1$"
1Z
1X
0W
1V
0R
1P
1U
1S
1^
0[
0^
1[
1K
0X
1L
0S
1Q
0V
1T
1_
0Y
0_
1Y
0K
0T
0L
1`
1@
0`
0@
1|
0|
1M!
1E!
0D!
0M!
0E!
1D!
1S!
0N!
0S!
1N!
#283000
1"
1M
1N
02
#284000
0"
0M
0N
12
1("
1R
0P
1S
0Q
1T
#285000
1"
1M
1N
02
