short_or_long_signal_identifier/simulation/qsim/short_or_long_signal_identifier.msim.vcd
$comment
	File created using the following command:
		vcd file short_or_long_signal_identifier.msim.vcd -direction
$end
$date
	Thu Aug 22 11:58:32 2019
$end
$version
	ModelSim Version 10.1d
$end
$timescale
	1ps
$end
$scope module short_or_long_signal_identifier_vlg_vec_tst $end
$var reg 1 ! button_input $end
$var reg 1 " clock $end
$var wire 1 # code_current_index_test [1] $end
$var wire 1 $ code_current_index_test [0] $end
$var wire 1 % code_test0 [1] $end
$var wire 1 & code_test0 [0] $end
$var wire 1 ' code_test1 [1] $end
$var wire 1 ( code_test1 [0] $end
$var wire 1 ) code_test2 [1] $end
$var wire 1 * code_test2 [0] $end
$var wire 1 + code_test3 [1] $end
$var wire 1 , code_test3 [0] $end
$var wire 1 - code_test4 [1] $end
$var wire 1 . code_test4 [0] $end
$var wire 1 / index_test [2] $end
$var wire 1 0 index_test [1] $end
$var wire 1 1 index_test [0] $end
$var wire 1 2 sampler $end
$scope module i1 $end
$var wire 1 3 gnd $end
$var wire 1 4 vcc $end
$var wire 1 5 unknown $end
$var tri1 1 6 devclrn $end
$var tri1 1 7 devpor $end
$var tri1 1 8 devoe $end
$var wire 1 9 Add1~0_combout $end
$var wire 1 : Add1~18_combout $end
$var wire 1 ; Add1~22_combout $end
$var wire 1 < Add1~38_combout $end
$var wire 1 = Add1~40_combout $end
$var wire 1 > Add1~48_combout $end
$var wire 1 ? Add1~50_combout $end
$var wire 1 @ LessThan0~2_combout $end
$var wire 1 A LessThan0~5_combout $end
$var wire 1 B code[0][1]~1_combout $end
$var wire 1 C Equal0~0_combout $end
$var wire 1 D Equal1~0_combout $end
$var wire 1 E count~3_combout $end
$var wire 1 F count~5_combout $end
$var wire 1 G count~7_combout $end
$var wire 1 H count~9_combout $end
$var wire 1 I count~11_combout $end
$var wire 1 J count~15_combout $end
$var wire 1 K count~16_combout $end
$var wire 1 L count~19_combout $end
$var wire 1 M count~20_combout $end
$var wire 1 N count~22_combout $end
$var wire 1 O count~24_combout $end
$var wire 1 P count~25_combout $end
$var wire 1 Q clock~combout $end
$var wire 1 R clock~clkctrl_outclk $end
$var wire 1 S button_input~combout $end
$var wire 1 T count~4_combout $end
$var wire 1 U Add1~1 $end
$var wire 1 V Add1~2_combout $end
$var wire 1 W count~2_combout $end
$var wire 1 X Add1~3 $end
$var wire 1 Y Add1~4_combout $end
$var wire 1 Z count~1_combout $end
$var wire 1 [ Add1~5 $end
$var wire 1 \ Add1~6_combout $end
$var wire 1 ] count~0_combout $end
$var wire 1 ^ Add1~7 $end
$var wire 1 _ Add1~8_combout $end
$var wire 1 ` LessThan0~0_combout $end
$var wire 1 a Add1~9 $end
$var wire 1 b Add1~11 $end
$var wire 1 c Add1~12_combout $end
$var wire 1 d count~6_combout $end
$var wire 1 e Add1~13 $end
$var wire 1 f Add1~15 $end
$var wire 1 g Add1~16_combout $end
$var wire 1 h count~8_combout $end
$var wire 1 i Add1~17 $end
$var wire 1 j Add1~19 $end
$var wire 1 k Add1~20_combout $end
$var wire 1 l count~10_combout $end
$var wire 1 m Add1~21 $end
$var wire 1 n Add1~23 $end
$var wire 1 o Add1~24_combout $end
$var wire 1 p count~12_combout $end
$var wire 1 q Add1~25 $end
$var wire 1 r Add1~26_combout $end
$var wire 1 s count~13_combout $end
$var wire 1 t Add1~27 $end
$var wire 1 u Add1~28_combout $end
$var wire 1 v count~14_combout $end
$var wire 1 w Add1~29 $end
$var wire 1 x Add1~30_combout $end
$var wire 1 y Add1~31 $end
$var wire 1 z Add1~32_combout $end
$var wire 1 { LessThan0~3_combout $end
$var wire 1 | Add1~14_combout $end
$var wire 1 } Add1~10_combout $end
$var wire 1 ~ LessThan0~1_combout $end
$var wire 1 !! LessThan0~4_combout $end
$var wire 1 "! count~31_combout $end
$var wire 1 #! Add1~33 $end
$var wire 1 $! Add1~34_combout $end
$var wire 1 %! count~17_combout $end
$var wire 1 &! Add1~35 $end
$var wire 1 '! Add1~36_combout $end
$var wire 1 (! count~18_combout $end
$var wire 1 )! Add1~37 $end
$var wire 1 *! Add1~39 $end
$var wire 1 +! Add1~41 $end
$var wire 1 ,! Add1~42_combout $end
$var wire 1 -! count~21_combout $end
$var wire 1 .! Add1~43 $end
$var wire 1 /! Add1~45 $end
$var wire 1 0! Add1~46_combout $end
$var wire 1 1! count~23_combout $end
$var wire 1 2! Add1~47 $end
$var wire 1 3! Add1~49 $end
$var wire 1 4! Add1~51 $end
$var wire 1 5! Add1~52_combout $end
$var wire 1 6! count~26_combout $end
$var wire 1 7! Add1~53 $end
$var wire 1 8! Add1~54_combout $end
$var wire 1 9! count~27_combout $end
$var wire 1 :! Add1~55 $end
$var wire 1 ;! Add1~56_combout $end
$var wire 1 <! count~28_combout $end
$var wire 1 =! Add1~57 $end
$var wire 1 >! Add1~58_combout $end
$var wire 1 ?! count~29_combout $end
$var wire 1 @! Add1~59 $end
$var wire 1 A! Add1~60_combout $end
$var wire 1 B! count~30_combout $end
$var wire 1 C! Add1~61 $end
$var wire 1 D! Add1~62_combout $end
$var wire 1 E! LessThan0~7_combout $end
$var wire 1 F! Add1~44_combout $end
$var wire 1 G! LessThan0~6_combout $end
$var wire 1 H! LessThan0~8_combout $end
$var wire 1 I! LessThan0~9_combout $end
$var wire 1 J! code~0_combout $end
$var wire 1 K! code~4_combout $end
$var wire 1 L! code[3][1]~feeder_combout $end
$var wire 1 M! code[3][0]~6_combout $end
$var wire 1 N! current_index~2_combout $end
$var wire 1 O! code[3][0]~10_combout $end
$var wire 1 P! code[3][0]~11_combout $end
$var wire 1 Q! code[3][1]~regout $end
$var wire 1 R! code[1][0]~5_combout $end
$var wire 1 S! code[1][0]~7_combout $end
$var wire 1 T! code[1][1]~regout $end
$var wire 1 U! code[0][1]~feeder_combout $end
$var wire 1 V! code[0][1]~regout $end
$var wire 1 W! Mux0~0_combout $end
$var wire 1 X! Mux0~1_combout $end
$var wire 1 Y! code[3][0]~regout $end
$var wire 1 Z! code[1][0]~regout $end
$var wire 1 [! Mux1~0_combout $end
$var wire 1 \! code[2][0]~feeder_combout $end
$var wire 1 ]! code[2][1]~8_combout $end
$var wire 1 ^! code[2][1]~9_combout $end
$var wire 1 _! code[2][0]~regout $end
$var wire 1 `! Mux1~1_combout $end
$var wire 1 a! Equal0~1_combout $end
$var wire 1 b! current_index~1_combout $end
$var wire 1 c! current_index[0]~feeder_combout $end
$var wire 1 d! current_index~0_combout $end
$var wire 1 e! code[4][0]~2_combout $end
$var wire 1 f! code[0][1]~3_combout $end
$var wire 1 g! code[0][0]~regout $end
$var wire 1 h! code[2][1]~feeder_combout $end
$var wire 1 i! code[2][1]~regout $end
$var wire 1 j! code[4][0]~12_combout $end
$var wire 1 k! code[4][0]~regout $end
$var wire 1 l! code[4][1]~regout $end
$var wire 1 m! count [31] $end
$var wire 1 n! count [30] $end
$var wire 1 o! count [29] $end
$var wire 1 p! count [28] $end
$var wire 1 q! count [27] $end
$var wire 1 r! count [26] $end
$var wire 1 s! count [25] $end
$var wire 1 t! count [24] $end
$var wire 1 u! count [23] $end
$var wire 1 v! count [22] $end
$var wire 1 w! count [21] $end
$var wire 1 x! count [20] $end
$var wire 1 y! count [19] $end
$var wire 1 z! count [18] $end
$var wire 1 {! count [17] $end
$var wire 1 |! count [16] $end
$var wire 1 }! count [15] $end
$var wire 1 ~! count [14] $end
$var wire 1 !" count [13] $end
$var wire 1 "" count [12] $end
$var wire 1 #" count [11] $end
$var wire 1 $" count [10] $end
$var wire 1 %" count [9] $end
$var wire 1 &" count [8] $end
$var wire 1 '" count [7] $end
$var wire 1 (" count [6] $end
$var wire 1 )" count [5] $end
$var wire 1 *" count [4] $end
$var wire 1 +" count [3] $end
$var wire 1 ," count [2] $end
$var wire 1 -" count [1] $end
$var wire 1 ." count [0] $end
$var wire 1 /" current_index [2] $end
$var wire 1 0" current_index [1] $end
$var wire 1 1" current_index [0] $end
$upscope $end
$upscope $end
$enddefinitions $end
#0
$dumpvars
1!
0"
0$
0#
0&
0%
0(
0'
0*
0)
0,
0+
0.
0-
01
00
0/
x2
03
14
x5
16
17
18
19
0:
0;
0<
0=
0>
0?
0@
0A
0B
0C
0D
0E
0F
0G
0H
0I
0J
0K
0L
0M
0N
0O
0P
0Q
0R
1S
0T
0U
0V
0W
1X
0Y
0Z
0[
0\
0]
1^
0_
0`
0a
1b
0c
0d
0e
1f
0g
0h
0i
1j
0k
0l
0m
1n
0o
0p
0q
0r
0s
1t
0u
0v
0w
0x
1y
0z
0{
0|
0}
0~
0!!
0"!
0#!
0$!
0%!
1&!
0'!
0(!
0)!
1*!
0+!
0,!
0-!
1.!
0/!
00!
01!
12!
03!
14!
05!
06!
07!
08!
09!
1:!
0;!
0<!
0=!
0>!
0?!
1@!
0A!
0B!
0C!
0D!
0E!
0F!
0G!
0H!
0I!
0J!
0K!
0L!
0M!
0N!
0O!
0P!
0Q!
0R!
0S!
0T!
0U!
0V!
0W!
0X!
0Y!
0Z!
0[!
0\!
0]!
0^!
0_!
0`!
0a!
0b!
0c!
0d!
1e!
1f!
0g!
0h!
0i!
0j!
0k!
0l!
0."
0-"
0,"
0+"
0*"
0)"
0("
0'"
0&"
0%"
0$"
0#"
0""
0!"
0~!
0}!
0|!
0{!
0z!
0y!
0x!
0w!
0v!
0u!
0t!
0s!
0r!
0q!
0p!
0o!
0n!
0m!
01"
00"
0/"
$end
#1000
1"
1Q
1R
02
#2000
0"
0Q
0R
12
#3000
1"
1Q
1R
02
#4000
0"
0Q
0R
12
#5000
1"
1Q
1R
02
#6000
0"
0Q
0R
12
#7000
1"
1Q
1R
02
#8000
0"
0Q
0R
12
#9000
1"
1Q
1R
02
#10000
0"
0Q
0R
12
#11000
1"
1Q
1R
02
#12000
0"
0Q
0R
12
#13000
1"
1Q
1R
02
#14000
0"
0Q
0R
12
#15000
1"
1Q
1R
02
#16000
0"
0Q
0R
12
#17000
1"
1Q
1R
02
#18000
0"
0Q
0R
12
#19000
1"
1Q
1R
02
#20000
0"
0Q
0R
12
#21000
1"
1Q
1R
02
#22000
0"
0Q
0R
12
#23000
1"
1Q
1R
02
#24000
0"
0Q
0R
12
#25000
1"
1Q
1R
02
#26000
0"
0Q
0R
12
#27000
1"
1Q
1R
02
#28000
0"
0Q
0R
12
#29000
1"
1Q
1R
02
#30000
0"
0Q
0R
12
#31000
1"
1Q
1R
02
#32000
0"
0Q
0R
12
#33000
1"
1Q
1R
02
#34000
0"
0Q
0R
12
#35000
1"
1Q
1R
02
#36000
0"
0Q
0R
12
#37000
1"
1Q
1R
02
#38000
0"
0Q
0R
12
#39000
1"
1Q
1R
02
#40000
0"
0Q
0R
12
#41000
1"
1Q
1R
02
#42000
0"
0Q
0R
12
#43000
1"
1Q
1R
02
#44000
0"
0Q
0R
12
#45000
1"
1Q
1R
02
#46000
0"
0Q
0R
12
#47000
1"
1Q
1R
02
#48000
0"
0Q
0R
12
#49000
1"
1Q
1R
02
#50000
0!
0"
0S
0Q
0R
12
0f!
1M!
1J!
1E
1B
1\!
1f!
#51000
1"
1Q
1R
02
#52000
0"
0Q
0R
12
1."
1g!
1U
09
1[!
1&
1V
0E
1`!
1W
1a!
0e!
1b!
1c!
#53000
1"
1Q
1R
02
#54000
0"
0Q
0R
12
0."
1-"
0U
19
0X
0V
1X
1V
1E
1Y
0W
0Y
1W
1Z
0Z
#55000
1"
1Q
1R
02
#56000
0"
0Q
0R
12
1."
1U
09
0X
0V
0E
1Y
0W
1Z
#57000
1"
1Q
1R
02
#58000
0"
0Q
0R
12
0."
0-"
1,"
0U
19
1X
1V
1[
0Y
0V
1E
0[
1Y
1W
1\
0Z
0W
0\
1Z
1]
0]
#59000
1"
1Q
1R
02
#60000
0"
0Q
0R
12
1."
1U
09
1V
0E
1W
#61000
1"
1Q
1R
02
#62000
0"
0Q
0R
12
0."
1-"
0U
19
0X
0V
1X
1V
1E
1[
0Y
0W
0[
1Y
1W
1\
0Z
0\
1Z
1]
0]
#63000
1"
1Q
1R
02
#64000
0"
0Q
0R
12
1."
1U
09
0X
0V
0E
1[
0Y
0W
1\
0Z
1]
#65000
1"
1Q
1R
02
#66000
0"
0Q
0R
12
0."
0-"
0,"
1+"
0U
19
1X
1V
0[
1Y
0^
0\
0V
1E
0Y
1W
1^
1\
1Z
1_
0]
0W
0Z
0_
1]
1T
0T
#67000
1"
1Q
1R
02
#68000
0"
0Q
0R
12
1."
1U
09
1V
0E
1W
#69000
1"
1Q
1R
02
#70000
0"
0Q
0R
12
0."
1-"
0U
19
0X
0V
1X
1V
1E
1Y
0W
0Y
1W
1Z
0Z
#71000
1"
1Q
1R
02
#72000
0"
0Q
0R
12
1."
1U
09
0X
0V
0E
1Y
0W
1Z
#73000
1"
1Q
1R
02
#74000
0"
0Q
0R
12
0."
0-"
1,"
0U
19
1X
1V
1[
0Y
0V
1E
0[
1Y
1W
0^
0\
0Z
0W
1^
1\
1Z
1_
0]
0_
1`
1]
1T
0`
0T
1!!
0!!
1K!
0J!
0K!
1J!
1h!
1U!
1L!
0\!
0h!
0U!
0L!
1\!
#75000
1"
1Q
1R
02
#76000
0"
0Q
0R
12
1."
1U
09
1V
0E
1W
#77000
1"
1Q
1R
02
#78000
0"
0Q
0R
12
0."
1-"
0U
19
0X
0V
1X
1V
1E
1[
0Y
0W
0[
1Y
1W
0^
0\
0Z
1^
1\
1Z
1_
0]
0_
1`
1]
1T
0`
0T
1!!
0!!
1K!
0J!
0K!
1J!
1h!
1U!
1L!
0\!
0h!
0U!
0L!
1\!
#79000
1"
1Q
1R
02
#80000
0"
0Q
0R
12
1."
1U
09
0X
0V
0E
1[
0Y
0W
0^
0\
0Z
1_
0]
1T
#81000
1"
1Q
1R
02
#82000
0"
0Q
0R
12
0."
1*"
0-"
0,"
0+"
0U
19
1a
0_
1X
1V
0[
1Y
1^
1\
0V
1E
1}
0T
0Y
1W
0\
1Z
0a
1_
1]
0W
1~
1F
0Z
0]
0}
1T
1!!
0~
0F
1K!
0J!
0!!
1h!
1U!
1L!
0\!
0K!
1J!
0h!
0U!
0L!
1\!
#83000
1"
1Q
1R
02
#84000
0"
0Q
0R
12
1."
1U
09
1V
0E
1W
#85000
1"
1Q
1R
02
#86000
0"
0Q
0R
12
0."
1-"
0U
19
0X
0V
1X
1V
1E
1Y
0W
0Y
1W
1Z
0Z
#87000
1"
1Q
1R
02
#88000
0"
0Q
0R
12
1."
1U
09
0X
0V
0E
1Y
0W
1Z
#89000
1"
1Q
1R
02
#90000
0"
0Q
0R
12
0."
0-"
1,"
0U
19
1X
1V
1[
0Y
0V
1E
0[
1Y
1W
1\
0Z
1`
0W
0\
1Z
1]
1!!
0`
0]
1K!
0J!
0!!
1h!
1U!
1L!
0\!
0K!
1J!
0h!
0U!
0L!
1\!
#91000
1"
1Q
1R
02
#92000
0"
0Q
0R
12
1."
1U
09
1V
0E
1W
#93000
1"
1Q
1R
02
#94000
0"
0Q
0R
12
0."
1-"
0U
19
0X
0V
1X
1V
1E
1[
0Y
0W
0[
1Y
1W
1\
0Z
0\
1`
1Z
1]
0`
0]
1!!
0!!
1K!
0J!
0K!
1J!
1h!
1U!
1L!
0\!
0h!
0U!
0L!
1\!
#95000
1"
1Q
1R
02
#96000
0"
0Q
0R
12
1."
1U
09
0X
0V
0E
1[
0Y
0W
1\
0Z
1]
#97000
1"
1Q
1R
02
#98000
0"
0Q
0R
12
0."
0-"
0,"
1+"
0U
19
1X
1V
0[
1Y
0^
0\
0V
1E
0Y
1W
1^
1\
1Z
1a
0_
0]
0W
0Z
0a
1_
1]
1}
0T
0}
1T
1~
1F
0~
0F
1!!
0!!
1K!
0J!
0K!
1J!
1h!
1U!
1L!
0\!
0h!
0U!
0L!
1\!
#99000
1"
1Q
1R
02
#100000
0"
0Q
0R
12
1."
1U
09
1V
0E
1`
1W
1!!
1K!
0J!
1h!
1U!
1L!
0\!
#101000
1"
1Q
1R
02
#102000
0"
0Q
0R
12
0."
1-"
1V!
0g!
0U
19
0X
0V
1W!
0[!
1%
0&
1X
1V
1E
1Y
0`
0W
1X!
0`!
0Y
1`
1W
1Z
0!!
0Z
1!!
0K!
1J!
1K!
0J!
0h!
0U!
0L!
1\!
1h!
1U!
1L!
0\!
#103000
1"
1Q
1R
02
#104000
0"
0Q
0R
12
1."
1U
09
0X
0V
0E
1Y
0`
0W
1`
1Z
0!!
1!!
0K!
1J!
1K!
0J!
0h!
0U!
0L!
1\!
1h!
1U!
1L!
0\!
#105000
1"
1Q
1R
02
#106000
0"
0Q
0R
12
0."
0-"
1,"
0U
19
1X
1V
1[
0Y
0V
1E
0[
1Y
1W
0^
0\
0Z
0`
0W
1^
1\
1Z
1a
0_
0]
0!!
0a
1_
1]
1}
0T
0K!
1J!
0}
1`
1T
1~
1F
0h!
0U!
0L!
1\!
0~
0F
1!!
1K!
0J!
1h!
1U!
1L!
0\!
#107000
1"
1Q
1R
02
#108000
0"
0Q
0R
12
1."
1U
09
1V
0E
1W
#109000
1"
1Q
1R
02
#110000
0"
0Q
0R
12
0."
1-"
0U
19
0X
0V
1X
1V
1E
1[
0Y
0W
0[
1Y
1W
0^
0\
0Z
1^
1\
0`
1Z
1a
0_
0]
0a
1_
1]
0!!
1}
0T
0}
1`
1T
0K!
1J!
1~
1F
0~
0F
1!!
0h!
0U!
0L!
1\!
1K!
0J!
1h!
1U!
1L!
0\!
#111000
1"
1Q
1R
02
#112000
0"
0Q
0R
12
1."
1U
09
0X
0V
0E
1[
0Y
0W
0^
0\
0`
0Z
1a
0_
0]
0!!
1}
0T
0K!
1J!
1~
1F
0h!
0U!
0L!
1\!
1!!
1K!
0J!
1h!
1U!
1L!
0\!
#113000
1"
1Q
1R
02
#114000
0"
0Q
0R
12
0."
1)"
0*"
0-"
0,"
0+"
0U
19
0b
0}
0a
1_
1X
1V
0[
1Y
1^
1\
0V
1E
1c
0~
0F
1b
1}
1`
1T
0Y
1W
0\
1Z
0_
1]
0`
0W
1~
1d
0c
1F
0Z
0]
0T
0d
#115000
1"
1Q
1R
02
#116000
0"
0Q
0R
12
1."
1U
09
1V
0E
1W
#117000
1"
1Q
1R
02
#118000
0"
0Q
0R
12
0."
1-"
0U
19
0X
0V
1X
1V
1E
1Y
0W
0Y
1W
1Z
0Z
#119000
1"
1Q
1R
02
#120000
0"
0Q
0R
12
1."
1U
09
0X
0V
0E
1Y
0W
1Z
#121000
1"
1Q
1R
02
#122000
0"
0Q
0R
12
0."
0-"
1,"
0U
19
1X
1V
1[
0Y
0V
1E
0[
1Y
1W
1\
0Z
0W
0\
1Z
1]
0]
#123000
1"
1Q
1R
02
#124000
0"
0Q
0R
12
1."
1U
09
1V
0E
1W
#125000
1"
1Q
1R
02
#126000
0"
0Q
0R
12
0."
1-"
0U
19
0X
0V
1X
1V
1E
1[
0Y
0W
0[
1Y
1W
1\
0Z
0\
1Z
1]
0]
#127000
1"
1Q
1R
02
#128000
0"
0Q
0R
12
1."
1U
09
0X
0V
0E
1[
0Y
0W
1\
0Z
1]
#129000
1"
1Q
1R
02
#130000
0"
0Q
0R
12
0."
0-"
0,"
1+"
0U
19
1X
1V
0[
1Y
0^
0\
0V
1E
0Y
1W
1^
1\
1Z
1_
0]
0W
0Z
0_
1]
1T
0T
#131000
1"
1Q
1R
02
#132000
0"
0Q
0R
12
1."
1U
09
1V
0E
1W
#133000
1"
1Q
1R
02
#134000
0"
0Q
0R
12
0."
1-"
0U
19
0X
0V
1X
1V
1E
1Y
0W
0Y
1W
1Z
0Z
#135000
1"
1Q
1R
02
#136000
0"
0Q
0R
12
1."
1U
09
0X
0V
0E
1Y
0W
1Z
#137000
1"
1Q
1R
02
#138000
0"
0Q
0R
12
0."
0-"
1,"
0U
19
1X
1V
1[
0Y
0V
1E
0[
1Y
1W
0^
0\
0Z
0W
1^
1\
1Z
1_
0]
0_
1`
1]
1T
0`
0T
#139000
1"
1Q
1R
02
#140000
0"
0Q
0R
12
1."
1U
09
1V
0E
1W
#141000
1"
1Q
1R
02
#142000
0"
0Q
0R
12
0."
1-"
0U
19
0X
0V
1X
1V
1E
1[
0Y
0W
0[
1Y
1W
0^
0\
0Z
1^
1\
1Z
1_
0]
0_
1`
1]
1T
0`
0T
#143000
1"
1Q
1R
02
#144000
0"
0Q
0R
12
1."
1U
09
0X
0V
0E
1[
0Y
0W
0^
0\
0Z
1_
0]
1T
#145000
1"
1Q
1R
02
#146000
0"
0Q
0R
12
0."
1*"
0-"
0,"
0+"
0U
19
1a
0_
1X
1V
0[
1Y
1^
1\
0V
1E
0b
0}
0T
0Y
1W
0\
1Z
0a
1_
1]
0W
1c
0~
0F
0Z
0]
1b
1}
1T
1~
1d
0!!
0c
1F
1!!
0K!
1J!
0d
1K!
0J!
0h!
0U!
0L!
1\!
1h!
1U!
1L!
0\!
#147000
1"
1Q
1R
02
#148000
0"
0Q
0R
12
1."
1U
09
1V
0E
1W
#149000
1"
1Q
1R
02
#150000
0"
0Q
0R
12
0."
1-"
0U
19
0X
0V
1X
1V
1E
1Y
0W
0Y
1W
1Z
0Z
#151000
1"
1Q
1R
02
#152000
0"
0Q
0R
12
1."
1U
09
0X
0V
0E
1Y
0W
1Z
#153000
1"
1Q
1R
02
#154000
0"
0Q
0R
12
0."
0-"
1,"
0U
19
1X
1V
1[
0Y
0V
1E
0[
1Y
1W
1\
0Z
1`
0W
0\
1Z
1]
0`
0]
#155000
1"
1Q
1R
02
#156000
0"
0Q
0R
12
1."
1U
09
1V
0E
1W
#157000
1"
1Q
1R
02
#158000
0"
0Q
0R
12
0."
1-"
0U
19
0X
0V
1X
1V
1E
1[
0Y
0W
0[
1Y
1W
1\
0Z
0\
1`
1Z
1]
0`
0]
#159000
1"
1Q
1R
02
#160000
0"
0Q
0R
12
1."
1U
09
0X
0V
0E
1[
0Y
0W
1\
0Z
1]
#161000
1"
1Q
1R
02
#162000
0"
0Q
0R
12
0."
0-"
0,"
1+"
0U
19
1X
1V
0[
1Y
0^
0\
0V
1E
0Y
1W
1^
1\
1Z
1a
0_
0]
0W
0Z
0a
1_
1]
0b
0}
0T
1b
1}
1T
1c
0~
0F
0c
1~
1F
1d
0!!
0d
1!!
0K!
1J!
1K!
0J!
0h!
0U!
0L!
1\!
1h!
1U!
1L!
0\!
#163000
1"
1Q
1R
02
#164000
0"
0Q
0R
12
1."
1U
09
1V
0E
1`
1W
#165000
1"
1Q
1R
02
#166000
0"
0Q
0R
12
0."
1-"
0U
19
0X
0V
1X
1V
1E
1Y
0`
0W
0Y
1`
1W
1Z
0Z
#167000
1"
1Q
1R
02
#168000
0"
0Q
0R
12
1."
1U
09
0X
0V
0E
1Y
0`
0W
1`
1Z
#169000
1"
1Q
1R
02
#170000
0"
0Q
0R
12
0."
0-"
1,"
0U
19
1X
1V
1[
0Y
0V
1E
0[
1Y
1W
0^
0\
0Z
0`
0W
1^
1\
1Z
1a
0_
0]
0a
1_
1]
0b
0}
0T
1b
1}
1`
1T
1c
0~
0F
0c
1~
1F
1d
0d
#171000
1"
1Q
1R
02
#172000
0"
0Q
0R
12
1."
1U
09
1V
0E
1W
#173000
1"
1Q
1R
02
#174000
0"
0Q
0R
12
0."
1-"
0U
19
0X
0V
1X
1V
1E
1[
0Y
0W
0[
1Y
1W
0^
0\
0Z
1^
1\
0`
1Z
1a
0_
0]
0a
1_
1]
0b
0}
0T
1b
1}
1`
1T
1c
0~
0F
0c
1~
1F
1d
0d
#175000
1"
1Q
1R
02
#176000
0"
0Q
0R
12
1."
1U
09
0X
0V
0E
1[
0Y
0W
0^
0\
0`
0Z
1a
0_
0]
0b
0}
0T
1c
0~
0F
1~
1d
0!!
1!!
0K!
1J!
1K!
0J!
0h!
0U!
0L!
1\!
1h!
1U!
1L!
0\!
#177000
1"
1Q
1R
02
#178000
0"
0Q
0R
12
0."
0)"
0*"
0-"
0,"
0+"
1("
0U
19
1b
1}
0a
1_
1X
1V
0[
1Y
1^
1\
1e
0c
0V
1E
0e
1c
1F
0}
1`
1T
0Y
1W
0\
1Z
0_
1]
1|
0d
0`
0W
0|
1d
0F
0Z
0]
0T
1G
0G
#179000
1"
1Q
1R
02
#180000
0"
0Q
0R
12
1."
1U
09
1V
0E
1W
#181000
1"
1Q
1R
02
#182000
0"
0Q
0R
12
0."
1-"
0U
19
0X
0V
1X
1V
1E
1Y
0W
0Y
1W
1Z
0Z
#183000
1"
1Q
1R
02
#184000
0"
0Q
0R
12
1."
1U
09
0X
0V
0E
1Y
0W
1Z
#185000
1"
1Q
1R
02
#186000
0"
0Q
0R
12
0."
0-"
1,"
0U
19
1X
1V
1[
0Y
0V
1E
0[
1Y
1W
1\
0Z
0W
0\
1Z
1]
0]
#187000
1"
1Q
1R
02
#188000
0"
0Q
0R
12
1."
1U
09
1V
0E
1W
#189000
1"
1Q
1R
02
#190000
0"
0Q
0R
12
0."
1-"
0U
19
0X
0V
1X
1V
1E
1[
0Y
0W
0[
1Y
1W
1\
0Z
0\
1Z
1]
0]
#191000
1"
1Q
1R
02
#192000
0"
0Q
0R
12
1."
1U
09
0X
0V
0E
1[
0Y
0W
1\
0Z
1]
#193000
1"
1Q
1R
02
#194000
0"
0Q
0R
12
0."
0-"
0,"
1+"
0U
19
1X
1V
0[
1Y
0^
0\
0V
1E
0Y
1W
1^
1\
1Z
1_
0]
0W
0Z
0_
1]
1T
0T
#195000
1"
1Q
1R
02
#196000
0"
0Q
0R
12
1."
1U
09
1V
0E
1W
#197000
1"
1Q
1R
02
#198000
0"
0Q
0R
12
0."
1-"
0U
19
0X
0V
1X
1V
1E
1Y
0W
0Y
1W
1Z
0Z
#199000
1"
1Q
1R
02
#200000
1!
0"
1S
0Q
0R
12
1R!
0M!
0K!
0d
0]
0W
0E
0B
1S!
0h!
0U!
0L!
0f!
1."
11"
1U
09
0b!
0W!
1N!
11
0X
0V
0c!
1]!
0R!
0X!
1Y
1^!
0S!
0a!
1b!
0N!
1c!
0]!
1R!
0^!
1S!
#201000
1"
1Q
1R
02
#202000
0"
0Q
0R
12
0."
0-"
0+"
0("
0U
19
1X
1V
0\
0c
0V
0Y
0~
0!!
#203000
1"
1Q
1R
02
#204000
0"
0Q
0R
12
#205000
1"
1Q
1R
02
#206000
0"
0Q
0R
12
#207000
1"
1Q
1R
02
#208000
0"
0Q
0R
12
#209000
1"
1Q
1R
02
#210000
0"
0Q
0R
12
#211000
1"
1Q
1R
02
#212000
0"
0Q
0R
12
#213000
1"
1Q
1R
02
#214000
0"
0Q
0R
12
#215000
1"
1Q
1R
02
#216000
0"
0Q
0R
12
#217000
1"
1Q
1R
02
#218000
0"
0Q
0R
12
#219000
1"
1Q
1R
02
#220000
0"
0Q
0R
12
#221000
1"
1Q
1R
02
#222000
0"
0Q
0R
12
#223000
1"
1Q
1R
02
#224000
0"
0Q
0R
12
#225000
1"
1Q
1R
02
#226000
0"
0Q
0R
12
#227000
1"
1Q
1R
02
#228000
0"
0Q
0R
12
#229000
1"
1Q
1R
02
#230000
0"
0Q
0R
12
#231000
1"
1Q
1R
02
#232000
0"
0Q
0R
12
#233000
1"
1Q
1R
02
#234000
0"
0Q
0R
12
#235000
1"
1Q
1R
02
#236000
0"
0Q
0R
12
#237000
1"
1Q
1R
02
#238000
0"
0Q
0R
12
#239000
1"
1Q
1R
02
#240000
0"
0Q
0R
12
#241000
1"
1Q
1R
02
#242000
0"
0Q
0R
12
#243000
1"
1Q
1R
02
#244000
0"
0Q
0R
12
#245000
1"
1Q
1R
02
#246000
0"
0Q
0R
12
#247000
1"
1Q
1R
02
#248000
0"
0Q
0R
12
#249000
1"
1Q
1R
02
#250000
0!
0"
0S
0Q
0R
12
0R!
1M!
1J!
1E
1\!
#251000
1"
1Q
1R
02
#252000
0"
0Q
0R
12
1."
1Z!
1U
09
1[!
1(
1V
0E
1`!
1W
1a!
0b!
1N!
0c!
#253000
1"
1Q
1R
02
#254000
0"
0Q
0R
12
0."
1-"
0U
19
0X
0V
1X
1V
1E
1Y
0W
0Y
1W
1Z
0Z
#255000
1"
1Q
1R
02
#256000
0"
0Q
0R
12
1."
1U
09
0X
0V
0E
1Y
0W
1Z
#257000
1"
1Q
1R
02
#258000
0"
0Q
0R
12
0."
0-"
1,"
0U
19
1X
1V
1[
0Y
0V
1E
0[
1Y
1W
1\
0Z
0W
0\
1Z
1]
0]
#259000
1"
1Q
1R
02
#260000
0"
0Q
0R
12
1."
1U
09
1V
0E
1W
#261000
1"
1Q
1R
02
#262000
0"
0Q
0R
12
0."
1-"
0U
19
0X
0V
1X
1V
1E
1[
0Y
0W
0[
1Y
1W
1\
0Z
0\
1Z
1]
0]
#263000
1"
1Q
1R
02
#264000
0"
0Q
0R
12
1."
1U
09
0X
0V
0E
1[
0Y
0W
1\
0Z
1]
#265000
1"
1Q
1R
02
#266000
0"
0Q
0R
12
0."
0-"
0,"
1+"
0U
19
1X
1V
0[
1Y
0^
0\
0V
1E
0Y
1W
1^
1\
1Z
1_
0]
0W
0Z
0_
1]
1T
0T
#267000
1"
1Q
1R
02
#268000
0"
0Q
0R
12
1."
1U
09
1V
0E
1W
#269000
1"
1Q
1R
02
#270000
0"
0Q
0R
12
0."
1-"
0U
19
0X
0V
1X
1V
1E
1Y
0W
0Y
1W
1Z
0Z
#271000
1"
1Q
1R
02
#272000
0"
0Q
0R
12
1."
1U
09
0X
0V
0E
1Y
0W
1Z
#273000
1"
1Q
1R
02
