short_or_long_signal_identifier/simulation/qsim/short_or_long_signal_identifier.msim.vcd
$comment
	File created using the following command:
		vcd file short_or_long_signal_identifier.msim.vcd -direction
$end
$date
	Tue Aug 20 22:02:05 2019
$end
$version
	ModelSim Version 10.1d
$end
$timescale
	1ps
$end
$scope module short_or_long_signal_identifier_vlg_vec_tst $end
$var reg 1 ! button_input $end
$var reg 1 " clock $end
$var reg 3 # index_in [2:0] $end
$var wire 1 $ index_out [2] $end
$var wire 1 % index_out [1] $end
$var wire 1 & index_out [0] $end
$var wire 1 ' output_value [1] $end
$var wire 1 ( output_value [0] $end
$var wire 1 ) sampler $end
$scope module i1 $end
$var wire 1 * gnd $end
$var wire 1 + vcc $end
$var wire 1 , unknown $end
$var tri1 1 - devclrn $end
$var tri1 1 . devpor $end
$var tri1 1 / devoe $end
$var wire 1 0 Add1~6_combout $end
$var wire 1 1 Add1~16_combout $end
$var wire 1 2 Add1~44_combout $end
$var wire 1 3 Add1~56_combout $end
$var wire 1 4 Add1~61 $end
$var wire 1 5 Add1~62_combout $end
$var wire 1 6 LessThan0~2_combout $end
$var wire 1 7 clock~combout $end
$var wire 1 8 clock~clkctrl_outclk $end
$var wire 1 9 Mux2~0_combout $end
$var wire 1 : button_input~combout $end
$var wire 1 ; Add1~0_combout $end
$var wire 1 < Add1~1 $end
$var wire 1 = Add1~2_combout $end
$var wire 1 > Add1~3 $end
$var wire 1 ? Add1~4_combout $end
$var wire 1 @ Add1~5 $end
$var wire 1 A Add1~7 $end
$var wire 1 B Add1~8_combout $end
$var wire 1 C Add1~9 $end
$var wire 1 D Add1~11 $end
$var wire 1 E Add1~13 $end
$var wire 1 F Add1~14_combout $end
$var wire 1 G Add1~15 $end
$var wire 1 H Add1~17 $end
$var wire 1 I Add1~18_combout $end
$var wire 1 J Add1~19 $end
$var wire 1 K Add1~21 $end
$var wire 1 L Add1~22_combout $end
$var wire 1 M Add1~20_combout $end
$var wire 1 N LessThan0~0_combout $end
$var wire 1 O Add1~23 $end
$var wire 1 P Add1~24_combout $end
$var wire 1 Q Add1~25 $end
$var wire 1 R Add1~26_combout $end
$var wire 1 S Add1~27 $end
$var wire 1 T Add1~28_combout $end
$var wire 1 U Add1~29 $end
$var wire 1 V Add1~30_combout $end
$var wire 1 W LessThan0~1_combout $end
$var wire 1 X Add1~10_combout $end
$var wire 1 Y Add1~12_combout $end
$var wire 1 Z LessThan0~3_combout $end
$var wire 1 [ LessThan0~4_combout $end
$var wire 1 \ Add1~31 $end
$var wire 1 ] Add1~32_combout $end
$var wire 1 ^ Add1~33 $end
$var wire 1 _ Add1~34_combout $end
$var wire 1 ` Add1~35 $end
$var wire 1 a Add1~36_combout $end
$var wire 1 b Add1~37 $end
$var wire 1 c Add1~38_combout $end
$var wire 1 d LessThan0~5_combout $end
$var wire 1 e Add1~39 $end
$var wire 1 f Add1~40_combout $end
$var wire 1 g Add1~41 $end
$var wire 1 h Add1~42_combout $end
$var wire 1 i LessThan0~6_combout $end
$var wire 1 j Add1~43 $end
$var wire 1 k Add1~45 $end
$var wire 1 l Add1~46_combout $end
$var wire 1 m LessThan0~7_combout $end
$var wire 1 n Add1~47 $end
$var wire 1 o Add1~49 $end
$var wire 1 p Add1~50_combout $end
$var wire 1 q Add1~51 $end
$var wire 1 r Add1~53 $end
$var wire 1 s Add1~54_combout $end
$var wire 1 t Add1~55 $end
$var wire 1 u Add1~57 $end
$var wire 1 v Add1~58_combout $end
$var wire 1 w Add1~59 $end
$var wire 1 x Add1~60_combout $end
$var wire 1 y Add1~48_combout $end
$var wire 1 z Add1~52_combout $end
$var wire 1 { LessThan0~8_combout $end
$var wire 1 | LessThan0~9_combout $end
$var wire 1 } LessThan0~10_combout $end
$var wire 1 ~ output_value[1]~reg0feeder_combout $end
$var wire 1 !! output_value[1]~reg0_regout $end
$var wire 1 "! output_value[0]~0_combout $end
$var wire 1 #! output_value[0]~reg0_regout $end
$var wire 1 $! index_out[2]~0_combout $end
$var wire 1 %! index_out[2]~0clkctrl_outclk $end
$var wire 1 &! index_out[0]$latch~combout $end
$var wire 1 '! Mux1~0_combout $end
$var wire 1 (! index_out[1]$latch~combout $end
$var wire 1 )! Mux0~0_combout $end
$var wire 1 *! index_out[2]$latch~combout $end
$var wire 1 +! count [31] $end
$var wire 1 ,! count [30] $end
$var wire 1 -! count [29] $end
$var wire 1 .! count [28] $end
$var wire 1 /! count [27] $end
$var wire 1 0! count [26] $end
$var wire 1 1! count [25] $end
$var wire 1 2! count [24] $end
$var wire 1 3! count [23] $end
$var wire 1 4! count [22] $end
$var wire 1 5! count [21] $end
$var wire 1 6! count [20] $end
$var wire 1 7! count [19] $end
$var wire 1 8! count [18] $end
$var wire 1 9! count [17] $end
$var wire 1 :! count [16] $end
$var wire 1 ;! count [15] $end
$var wire 1 <! count [14] $end
$var wire 1 =! count [13] $end
$var wire 1 >! count [12] $end
$var wire 1 ?! count [11] $end
$var wire 1 @! count [10] $end
$var wire 1 A! count [9] $end
$var wire 1 B! count [8] $end
$var wire 1 C! count [7] $end
$var wire 1 D! count [6] $end
$var wire 1 E! count [5] $end
$var wire 1 F! count [4] $end
$var wire 1 G! count [3] $end
$var wire 1 H! count [2] $end
$var wire 1 I! count [1] $end
$var wire 1 J! count [0] $end
$var wire 1 K! index_in~combout [2] $end
$var wire 1 L! index_in~combout [1] $end
$var wire 1 M! index_in~combout [0] $end
$upscope $end
$upscope $end
$enddefinitions $end
#0
$dumpvars
1!
0"
b100 #
x&
x%
x$
0(
0'
x)
0*
1+
x,
1-
1.
1/
00
01
02
03
04
05
06
07
08
19
1:
1;
0<
0=
1>
0?
0@
1A
0B
0C
1D
0E
0F
1G
0H
0I
1J
0K
0L
0M
0N
1O
0P
0Q
0R
1S
0T
0U
0V
0W
0X
0Y
0Z
0[
1\
0]
0^
0_
1`
0a
0b
0c
0d
1e
0f
0g
0h
0i
1j
0k
0l
0m
1n
0o
0p
1q
0r
0s
1t
0u
0v
1w
0x
0y
0z
0{
0|
0}
0~
0!!
1"!
0#!
0$!
0%!
x&!
0'!
x(!
0)!
x*!
0J!
0I!
0H!
0G!
0F!
0E!
0D!
0C!
0B!
0A!
0@!
0?!
0>!
0=!
0<!
0;!
0:!
09!
08!
07!
06!
05!
04!
03!
02!
01!
00!
0/!
0.!
0-!
0,!
0+!
0M!
0L!
1K!
$end
#1000
1"
17
18
0)
#2000
0"
07
08
1)
#3000
1"
17
18
0)
#4000
0"
07
08
1)
#5000
1"
17
18
0)
#6000
0"
07
08
1)
#7000
1"
17
18
0)
#8000
0"
07
08
1)
#9000
1"
17
18
0)
#10000
0"
07
08
1)
#11000
1"
17
18
0)
#12000
0"
07
08
1)
#13000
1"
17
18
0)
#14000
0"
07
08
1)
#15000
1"
17
18
0)
#16000
0"
07
08
1)
#17000
1"
17
18
0)
#18000
0"
07
08
1)
#19000
1"
17
18
0)
#20000
0"
07
08
1)
#21000
1"
17
18
0)
#22000
0"
07
08
1)
#23000
1"
17
18
0)
#24000
0"
07
08
1)
#25000
1"
17
18
0)
#26000
0"
07
08
1)
#27000
1"
17
18
0)
#28000
0"
07
08
1)
#29000
1"
17
18
0)
#30000
0"
07
08
1)
#31000
1"
17
18
0)
#32000
0"
07
08
1)
#33000
1"
17
18
0)
#34000
0"
07
08
1)
#35000
1"
17
18
0)
#36000
0"
07
08
1)
#37000
1"
17
18
0)
#38000
0"
07
08
1)
#39000
1"
17
18
0)
#40000
0"
07
08
1)
#41000
1"
17
18
0)
#42000
0"
07
08
1)
#43000
1"
17
18
0)
#44000
0"
07
08
1)
#45000
1"
17
18
0)
#46000
0"
07
08
1)
#47000
1"
17
18
0)
#48000
0"
07
08
1)
#49000
1"
17
18
0)
#50000
0!
0"
0:
07
08
1)
1#!
1J!
1<
0;
1(
1=
#51000
1"
17
18
0)
#52000
0"
07
08
1)
0J!
1I!
0<
1;
0>
0=
1>
1=
1?
0?
#53000
1"
17
18
0)
#54000
0"
07
08
1)
1J!
1<
0;
0>
0=
1?
#55000
1"
17
18
0)
#56000
0"
07
08
1)
0J!
0I!
1H!
0<
1;
1>
1=
1@
0?
0=
0@
1?
10
16
00
06
#57000
1"
17
18
0)
#58000
0"
07
08
1)
1J!
1<
0;
1=
#59000
1"
17
18
0)
#60000
0"
07
08
1)
0J!
1I!
0<
1;
0>
0=
1>
1=
1@
0?
0@
1?
10
00
16
06
#61000
1"
17
18
0)
#62000
0"
07
08
1)
1J!
1<
0;
0>
0=
1@
0?
10
#63000
1"
17
18
0)
#64000
0"
07
08
1)
1G!
0J!
0I!
0H!
0A
00
0<
1;
1>
1=
0@
1?
1B
0=
0?
1A
10
0B
#65000
1"
17
18
0)
#66000
0"
07
08
1)
1J!
1<
0;
1=
#67000
1"
17
18
0)
#68000
0"
07
08
1)
0J!
1I!
0<
1;
0>
0=
1>
1=
1?
0?
16
#69000
1"
17
18
0)
#70000
0"
07
08
1)
1J!
1<
0;
0>
0=
06
1?
16
#71000
1"
17
18
0)
#72000
0"
07
08
1)
0J!
0I!
1H!
0<
1;
1>
1=
1@
0?
0=
0@
1?
0A
00
06
1A
10
1B
0B
16
#73000
1"
17
18
0)
#74000
0"
07
08
1)
1J!
1<
0;
1=
#75000
1"
17
18
0)
#76000
0"
07
08
1)
0J!
1I!
0<
1;
0>
0=
1>
1=
1@
0?
0@
1?
0A
00
1A
10
06
1B
0B
16
#77000
1"
17
18
0)
#78000
0"
07
08
1)
1J!
1<
0;
0>
0=
1@
0?
0A
00
06
1B
#79000
1"
17
18
0)
#80000
0"
07
08
1)
0G!
0J!
0I!
0H!
1F!
1A
10
0<
1;
1>
1=
0@
1?
1C
0B
0C
1B
16
0=
0?
00
1X
0X
06
#81000
1"
17
18
0)
#82000
0"
07
08
1)
1J!
1<
0;
1=
#83000
1"
17
18
0)
#84000
0"
07
08
1)
0J!
1I!
0<
1;
0>
0=
1>
1=
1?
0?
#85000
1"
17
18
0)
#86000
0"
07
08
1)
1J!
1<
0;
0>
0=
1?
#87000
1"
17
18
0)
#88000
0"
07
08
1)
0J!
0I!
1H!
0<
1;
1>
1=
1@
0?
0=
0@
1?
10
16
00
06
#89000
1"
17
18
0)
#90000
0"
07
08
1)
1J!
1<
0;
1=
#91000
1"
17
18
0)
#92000
0"
07
08
1)
0J!
1I!
0<
1;
0>
0=
1>
1=
1@
0?
0@
1?
10
00
16
06
#93000
1"
17
18
0)
#94000
0"
07
08
1)
1J!
1<
0;
0>
0=
1@
0?
10
#95000
1"
17
18
0)
#96000
0"
07
08
1)
1G!
0J!
0I!
0H!
0A
00
0<
1;
1>
1=
0@
1?
1C
0B
0=
0?
1A
10
1X
0C
1B
0X
#97000
1"
17
18
0)
#98000
0"
07
08
1)
1J!
1<
0;
1=
#99000
1"
17
18
0)
#100000
0"
07
08
1)
0J!
1I!
0<
1;
0>
0=
1>
1=
1?
0?
16
#101000
1"
17
18
0)
#102000
0"
07
08
1)
1J!
1<
0;
0>
0=
06
1?
16
#103000
1"
17
18
0)
#104000
0"
07
08
1)
0J!
0I!
1H!
0<
1;
1>
1=
1@
0?
0=
0@
1?
0A
00
06
1A
10
1C
0B
0C
1B
16
1X
0X
#105000
1"
17
18
0)
#106000
0"
07
08
1)
1J!
1<
0;
1=
#107000
1"
17
18
0)
#108000
0"
07
08
1)
0J!
1I!
0<
1;
0>
0=
1>
1=
1@
0?
0@
1?
0A
00
1A
10
06
1C
0B
0C
1B
16
1X
0X
#109000
1"
17
18
0)
#110000
0"
07
08
1)
1J!
1<
0;
0>
0=
1@
0?
0A
00
06
1C
0B
1X
#111000
1"
17
18
0)
#112000
0"
07
08
1)
1E!
0G!
0J!
0I!
0H!
0F!
0D
0X
1A
10
0<
1;
1>
1=
0@
1?
0C
1B
1Y
0B
16
0=
0?
00
1D
1X
06
0Y
#113000
1"
17
18
0)
#114000
0"
07
08
1)
1J!
1<
0;
1=
#115000
1"
17
18
0)
#116000
0"
07
08
1)
0J!
1I!
0<
1;
0>
0=
1>
1=
1?
0?
#117000
1"
17
18
0)
#118000
0"
07
08
1)
1J!
1<
0;
0>
0=
1?
#119000
1"
17
18
0)
#120000
0"
07
08
1)
0J!
0I!
1H!
0<
1;
1>
1=
1@
0?
0=
0@
1?
10
16
00
06
#121000
1"
17
18
0)
#122000
0"
07
08
1)
1J!
1<
0;
1=
#123000
1"
17
18
0)
#124000
0"
07
08
1)
0J!
1I!
0<
1;
0>
0=
1>
1=
1@
0?
0@
1?
10
00
16
06
#125000
1"
17
18
0)
#126000
0"
07
08
1)
1J!
1<
0;
0>
0=
1@
0?
10
#127000
1"
17
18
0)
#128000
0"
07
08
1)
1G!
0J!
0I!
0H!
0A
00
0<
1;
1>
1=
0@
1?
1B
0=
0?
1A
10
0B
#129000
1"
17
18
0)
#130000
0"
07
08
1)
1J!
1<
0;
1=
#131000
1"
17
18
0)
#132000
0"
07
08
1)
0J!
1I!
0<
1;
0>
0=
1>
1=
1?
0?
16
#133000
1"
17
18
0)
#134000
0"
07
08
1)
1J!
1<
0;
0>
0=
06
1?
16
#135000
1"
17
18
0)
#136000
0"
07
08
1)
0J!
0I!
1H!
0<
1;
1>
1=
1@
0?
0=
0@
1?
0A
00
06
1A
10
1B
0B
16
#137000
1"
17
18
0)
#138000
0"
07
08
1)
1J!
1<
0;
1=
#139000
1"
17
18
0)
#140000
0"
07
08
1)
0J!
1I!
0<
1;
0>
0=
1>
1=
1@
0?
0@
1?
0A
00
1A
10
06
1B
0B
16
#141000
1"
17
18
0)
#142000
0"
07
08
1)
1J!
1<
0;
0>
0=
1@
0?
0A
00
06
1B
#143000
1"
17
18
0)
#144000
0"
07
08
1)
0G!
0J!
0I!
0H!
1F!
1A
10
0<
1;
1>
1=
0@
1?
1C
0B
0C
1B
16
0=
0?
00
0D
0X
1D
1X
06
1Y
0Y
#145000
1"
17
18
0)
#146000
0"
07
08
1)
1J!
1<
0;
1=
#147000
1"
17
18
0)
#148000
0"
07
08
1)
0J!
1I!
0<
1;
0>
0=
1>
1=
1?
0?
#149000
1"
17
18
0)
#150000
1!
0"
1:
07
08
1)
1$!
1%!
0*!
0(!
0&!
0$
0%
0&
0#!
0F!
0I!
0E!
0$!
0B
0=
0X
0%!
0(
#151000
1"
17
18
0)
#152000
0"
07
08
1)
#153000
1"
17
18
0)
#154000
0"
07
08
1)
#155000
1"
17
18
0)
#156000
0"
07
08
1)
#157000
1"
17
18
0)
#158000
0"
07
08
1)
#159000
1"
17
18
0)
#160000
0"
07
08
1)
#161000
1"
17
18
0)
#162000
0"
07
08
1)
#163000
1"
17
18
0)
#164000
0"
07
08
1)
#165000
1"
17
18
0)
#166000
0"
07
08
1)
#167000
1"
17
18
0)
#168000
0"
07
08
1)
#169000
1"
17
18
0)
#170000
0"
07
08
1)
#171000
1"
17
18
0)
#172000
0"
07
08
1)
#173000
1"
17
18
0)
#174000
0"
07
08
1)
#175000
1"
17
18
0)
#176000
0"
07
08
1)
#177000
1"
17
18
0)
#178000
0"
07
08
1)
#179000
1"
17
18
0)
#180000
0"
07
08
1)
#181000
1"
17
18
0)
#182000
0"
07
08
1)
#183000
1"
17
18
0)
#184000
0"
07
08
1)
#185000
1"
17
18
0)
#186000
0"
07
08
1)
#187000
1"
17
18
0)
#188000
0"
07
08
1)
#189000
1"
17
18
0)
#190000
0"
07
08
1)
#191000
1"
17
18
0)
#192000
0"
07
08
1)
#193000
1"
17
18
0)
#194000
0"
07
08
1)
#195000
1"
17
18
0)
#196000
0"
07
08
1)
#197000
1"
17
18
0)
#198000
0"
07
08
1)
#199000
1"
17
18
0)
#200000
0!
0"
0:
07
08
1)
1#!
1J!
1<
0;
1(
1=
#201000
1"
17
18
0)
#202000
0"
07
08
1)
0J!
1I!
0<
1;
0>
0=
1>
1=
1?
0?
#203000
1"
17
18
0)
#204000
0"
07
08
1)
1J!
1<
0;
0>
0=
1?
#205000
1"
17
18
0)
#206000
0"
07
08
1)
0J!
0I!
1H!
0<
1;
1>
1=
1@
0?
0=
0@
1?
10
16
00
06
#207000
1"
17
18
0)
#208000
0"
07
08
1)
1J!
1<
0;
1=
#209000
1"
17
18
0)
#210000
0"
07
08
1)
0J!
1I!
0<
1;
0>
0=
1>
1=
1@
0?
0@
1?
10
00
16
06
#211000
1"
17
18
0)
#212000
0"
07
08
1)
1J!
1<
0;
0>
0=
1@
0?
10
#213000
1"
17
18
0)
#214000
0"
07
08
1)
1G!
0J!
0I!
0H!
0A
00
0<
1;
1>
1=
0@
1?
1B
0=
0?
1A
10
0B
#215000
1"
17
18
0)
#216000
0"
07
08
1)
1J!
1<
0;
1=
#217000
1"
17
18
0)
#218000
0"
07
08
1)
0J!
1I!
0<
1;
0>
0=
1>
1=
1?
0?
16
#219000
1"
17
18
0)
#220000
0"
07
08
1)
1J!
1<
0;
0>
0=
06
1?
16
#221000
1"
17
18
0)
#222000
0"
07
08
1)
0J!
0I!
1H!
0<
1;
1>
1=
1@
0?
0=
0@
1?
0A
00
06
1A
10
1B
0B
16
#223000
1"
17
18
0)
#224000
0"
07
08
1)
1J!
1<
0;
1=
#225000
1"
17
18
0)
#226000
0"
07
08
1)
0J!
1I!
0<
1;
0>
0=
1>
1=
1@
0?
0@
1?
0A
00
1A
10
06
1B
0B
16
#227000
1"
17
18
0)
#228000
0"
07
08
1)
1J!
1<
0;
0>
0=
1@
0?
0A
00
06
1B
#229000
1"
17
18
0)
#230000
0"
07
08
1)
0G!
0J!
0I!
0H!
1F!
1A
10
0<
1;
1>
1=
0@
1?
1C
0B
0C
1B
16
0=
0?
00
1X
0X
06
#231000
1"
17
18
0)
#232000
0"
07
08
1)
1J!
1<
0;
1=
#233000
1"
17
18
0)
#234000
0"
07
08
1)
0J!
1I!
0<
1;
0>
0=
1>
1=
1?
0?
#235000
1"
17
18
0)
#236000
0"
07
08
1)
1J!
1<
0;
0>
0=
1?
#237000
1"
17
18
0)
#238000
0"
07
08
1)
0J!
0I!
1H!
0<
1;
1>
1=
1@
0?
0=
0@
1?
10
16
00
06
#239000
1"
17
18
0)
#240000
0"
07
08
1)
1J!
1<
0;
1=
#241000
1"
17
18
0)
#242000
0"
07
08
1)
0J!
1I!
0<
1;
0>
0=
1>
1=
1@
0?
0@
1?
10
00
16
06
#243000
1"
17
18
0)
#244000
0"
07
08
1)
1J!
1<
0;
0>
0=
1@
0?
10
#245000
1"
17
18
0)
#246000
0"
07
08
1)
1G!
0J!
0I!
0H!
0A
00
0<
1;
1>
1=
0@
1?
1C
0B
0=
0?
1A
10
1X
0C
1B
0X
#247000
1"
17
18
0)
#248000
0"
07
08
1)
1J!
1<
0;
1=
#249000
1"
17
18
0)
#250000
0"
07
08
1)
0J!
1I!
0<
1;
0>
0=
1>
1=
1?
0?
16
#251000
1"
17
18
0)
#252000
0"
07
08
1)
1J!
1<
0;
0>
0=
06
1?
16
#253000
1"
17
18
0)
#254000
0"
07
08
1)
0J!
0I!
1H!
0<
1;
1>
1=
1@
0?
0=
0@
1?
0A
00
06
1A
10
1C
0B
0C
1B
16
1X
0X
#255000
1"
17
18
0)
#256000
0"
07
08
1)
1J!
1<
0;
1=
#257000
1"
17
18
0)
#258000
0"
07
08
1)
0J!
1I!
0<
1;
0>
0=
1>
1=
1@
0?
0@
1?
0A
00
1A
10
06
1C
0B
0C
1B
16
1X
0X
#259000
1"
17
18
0)
#260000
0"
07
08
1)
1J!
1<
0;
0>
0=
1@
0?
0A
00
06
1C
0B
1X
#261000
1"
17
18
0)
#262000
0"
07
08
1)
1E!
0G!
0J!
0I!
0H!
0F!
0D
0X
1A
10
0<
1;
1>
1=
0@
1?
0C
1B
1Y
0B
16
0=
0?
00
1D
1X
06
0Y
#263000
1"
17
18
0)
#264000
0"
07
08
1)
1J!
1<
0;
1=
#265000
1"
17
18
0)
#266000
0"
07
08
1)
0J!
1I!
0<
1;
0>
0=
1>
1=
1?
0?
#267000
1"
17
18
0)
#268000
0"
07
08
1)
1J!
1<
0;
0>
0=
1?
#269000
1"
17
18
0)
#270000
0"
07
08
1)
0J!
0I!
1H!
0<
1;
1>
1=
1@
0?
0=
0@
1?
10
16
00
06
#271000
1"
17
18
0)
#272000
0"
07
08
1)
1J!
1<
0;
1=
#273000
1"
17
18
0)
#274000
0"
07
08
1)
0J!
1I!
0<
1;
0>
0=
1>
1=
1@
0?
0@
1?
10
00
16
06
#275000
1"
17
18
0)
#276000
0"
07
08
1)
1J!
1<
0;
0>
0=
1@
0?
10
#277000
1"
17
18
0)
#278000
0"
07
08
1)
1G!
0J!
0I!
0H!
0A
00
0<
1;
1>
1=
0@
1?
1B
0=
0?
1A
10
0B
#279000
1"
17
18
0)
#280000
0"
07
08
1)
1J!
1<
0;
1=
#281000
1"
17
18
0)
#282000
0"
07
08
1)
0J!
1I!
0<
1;
0>
0=
1>
1=
1?
0?
16
#283000
1"
17
18
0)
#284000
0"
07
08
1)
1J!
1<
0;
0>
0=
06
1?
16
#285000
1"
17
18
0)
#286000
0"
07
08
1)
0J!
0I!
1H!
0<
1;
1>
1=
1@
0?
0=
0@
1?
0A
00
06
1A
10
1B
0B
16
#287000
1"
17
18
0)
#288000
0"
07
08
1)
1J!
1<
0;
1=
#289000
1"
17
18
0)
#290000
0"
07
08
1)
0J!
1I!
0<
1;
0>
0=
1>
1=
1@
0?
0@
1?
0A
00
1A
10
06
1B
0B
16
#291000
1"
17
18
0)
#292000
0"
07
08
1)
1J!
1<
0;
0>
0=
1@
0?
0A
00
06
1B
#293000
1"
17
18
0)
#294000
0"
07
08
1)
0G!
0J!
0I!
0H!
1F!
1A
10
0<
1;
1>
1=
0@
1?
1C
0B
0C
1B
16
0=
0?
00
0D
0X
1D
1X
06
1Y
0Y
#295000
1"
17
18
0)
#296000
0"
07
08
1)
1J!
1<
0;
1=
#297000
1"
17
18
0)
#298000
0"
07
08
1)
0J!
1I!
0<
1;
0>
0=
1>
1=
1?
0?
#299000
1"
17
18
0)
#300000
1!
0"
1:
07
08
1)
1$!
1%!
0#!
0F!
0I!
0E!
0$!
0B
0=
0X
0%!
0(
#301000
1"
17
18
0)
#302000
0"
07
08
1)
#303000
1"
17
18
0)
#304000
0"
07
08
1)
#305000
1"
17
18
0)
#306000
0"
07
08
1)
#307000
1"
17
18
0)
#308000
0"
07
08
1)
#309000
1"
17
18
0)
#310000
0"
07
08
1)
#311000
1"
17
18
0)
#312000
0"
07
08
1)
#313000
1"
17
18
0)
#314000
0"
07
08
1)
#315000
1"
17
18
0)
#316000
0"
07
08
1)
#317000
1"
17
18
0)
#318000
0"
07
08
1)
#319000
1"
17
18
0)
#320000
0"
07
08
1)
#321000
1"
17
18
0)
#322000
0"
07
08
1)
#323000
1"
17
18
0)
#324000
0"
07
08
1)
#325000
1"
17
18
0)
#326000
0"
07
08
1)
#327000
1"
17
18
0)
#328000
0"
07
08
1)
#329000
1"
17
18
0)
#330000
0"
07
08
1)
#331000
1"
17
18
0)
#332000
0"
07
08
1)
#333000
1"
17
18
0)
#334000
0"
07
08
1)
#335000
1"
17
18
0)
#336000
0"
07
08
1)
#337000
1"
17
18
0)
#338000
0"
07
08
1)
#339000
1"
17
18
0)
#340000
0"
07
08
1)
#341000
1"
17
18
0)
#342000
0"
07
08
1)
#343000
1"
17
18
0)
#344000
0"
07
08
1)
#345000
1"
17
18
0)
#346000
0"
07
08
1)
#347000
1"
17
18
0)
#348000
0"
07
08
1)
#349000
1"
17
18
0)
#350000
0!
0"
0:
07
08
1)
1#!
1J!
1<
0;
1(
1=
#351000
1"
17
18
0)
#352000
0"
07
08
1)
0J!
1I!
0<
1;
0>
0=
1>
1=
1?
0?
#353000
1"
17
18
0)
#354000
0"
07
08
1)
1J!
1<
0;
0>
0=
1?
#355000
1"
17
18
0)
#356000
0"
07
08
1)
0J!
0I!
1H!
0<
1;
1>
1=
1@
0?
0=
0@
1?
10
16
00
06
#357000
1"
17
18
0)
#358000
0"
07
08
1)
1J!
1<
0;
1=
#359000
1"
17
18
0)
#360000
0"
07
08
1)
0J!
1I!
0<
1;
0>
0=
1>
1=
1@
0?
0@
1?
10
00
16
06
#361000
1"
17
18
0)
#362000
0"
07
08
1)
1J!
1<
0;
0>
0=
1@
0?
10
#363000
1"
17
18
0)
#364000
0"
07
08
1)
1G!
0J!
0I!
0H!
0A
00
0<
1;
1>
1=
0@
1?
1B
0=
0?
1A
10
0B
#365000
1"
17
18
0)
#366000
0"
07
08
1)
1J!
1<
0;
1=
#367000
1"
17
18
0)
#368000
0"
07
08
1)
0J!
1I!
0<
1;
0>
0=
1>
1=
1?
0?
16
#369000
1"
17
18
0)
#370000
0"
07
08
1)
1J!
1<
0;
0>
0=
06
1?
16
#371000
1"
17
18
0)
#372000
0"
07
08
1)
0J!
0I!
1H!
0<
1;
1>
1=
1@
0?
0=
0@
1?
0A
00
06
1A
10
1B
0B
16
#373000
1"
17
18
0)
#374000
0"
07
08
1)
1J!
1<
0;
1=
#375000
1"
17
18
0)
#376000
0"
07
08
1)
0J!
1I!
0<
1;
0>
0=
1>
1=
1@
0?
0@
1?
0A
00
1A
10
06
1B
0B
16
#377000
1"
17
18
0)
#378000
0"
07
08
1)
1J!
1<
0;
0>
0=
1@
0?
0A
00
06
1B
#379000
1"
17
18
0)
#380000
0"
07
08
1)
0G!
0J!
0I!
0H!
1F!
1A
10
0<
1;
1>
1=
0@
1?
1C
0B
0C
1B
16
0=
0?
00
1X
0X
06
#381000
1"
17
18
0)
#382000
0"
07
08
1)
1J!
1<
0;
1=
#383000
1"
17
18
0)
#384000
0"
07
08
1)
0J!
1I!
0<
1;
0>
0=
1>
1=
1?
0?
#385000
1"
17
18
0)
#386000
0"
07
08
1)
1J!
1<
0;
0>
0=
1?
#387000
1"
17
18
0)
#388000
0"
07
08
1)
0J!
0I!
1H!
0<
1;
1>
1=
1@
0?
0=
0@
1?
10
16
00
06
#389000
1"
17
18
0)
#390000
0"
07
08
1)
1J!
1<
0;
1=
#391000
1"
17
18
0)
#392000
0"
07
08
1)
0J!
1I!
0<
1;
0>
0=
1>
1=
1@
0?
0@
1?
10
00
16
06
#393000
1"
17
18
0)
#394000
0"
07
08
1)
1J!
1<
0;
0>
0=
1@
0?
10
#395000
1"
17
18
0)
#396000
0"
07
08
1)
1G!
0J!
0I!
0H!
0A
00
0<
1;
1>
1=
0@
1?
1C
0B
0=
0?
1A
10
1X
0C
1B
0X
#397000
1"
17
18
0)
#398000
0"
07
08
1)
1J!
1<
0;
1=
#399000
1"
17
18
0)
#400000
1!
0"
1:
07
08
1)
1$!
1%!
0#!
0F!
0J!
0G!
0$!
0B
0<
1;
00
0%!
0(
0=
#401000
1"
17
18
0)
#402000
0"
07
08
1)
#403000
1"
17
18
0)
#404000
0"
07
08
1)
#405000
1"
17
18
0)
#406000
0"
07
08
1)
#407000
1"
17
18
0)
#408000
0"
07
08
1)
#409000
1"
17
18
0)
#410000
0"
07
08
1)
#411000
1"
17
18
0)
#412000
0"
07
08
1)
#413000
1"
17
18
0)
#414000
0"
07
08
1)
#415000
1"
17
18
0)
#416000
0"
07
08
1)
#417000
1"
17
18
0)
#418000
0"
07
08
1)
#419000
1"
17
18
0)
#420000
0"
07
08
1)
#421000
1"
17
18
0)
#422000
0"
07
08
1)
#423000
1"
17
18
0)
#424000
0"
07
08
1)
#425000
1"
17
18
0)
#426000
0"
07
08
1)
#427000
1"
17
18
0)
#428000
0"
07
08
1)
#429000
1"
17
18
0)
#430000
0"
07
08
1)
#431000
1"
17
18
0)
#432000
0"
07
08
1)
#433000
1"
17
18
0)
#434000
0"
07
08
1)
#435000
1"
17
18
0)
#436000
0"
07
08
1)
#437000
1"
17
18
0)
#438000
0"
07
08
1)
#439000
1"
17
18
0)
#440000
0"
07
08
1)
#441000
1"
17
18
0)
#442000
0"
07
08
1)
#443000
1"
17
18
0)
#444000
0"
07
08
1)
#445000
1"
17
18
0)
#446000
0"
07
08
1)
#447000
1"
17
18
0)
#448000
0"
07
08
1)
#449000
1"
17
18
0)
#450000
0"
07
08
1)
#451000
1"
17
18
0)
#452000
0"
07
08
1)
#453000
1"
17
18
0)
#454000
0"
07
08
1)
#455000
1"
17
18
0)
#456000
0"
07
08
1)
#457000
1"
17
18
0)
#458000
0"
07
08
1)
#459000
1"
17
18
0)
#460000
0"
07
08
1)
#461000
1"
17
18
0)
#462000
0"
07
08
1)
#463000
1"
17
18
0)
#464000
0"
07
08
1)
#465000
1"
17
18
0)
#466000
0"
07
08
1)
#467000
1"
17
18
0)
#468000
0"
07
08
1)
#469000
1"
17
18
0)
#470000
0"
07
08
1)
#471000
1"
17
18
0)
#472000
0"
07
08
1)
#473000
1"
17
18
0)
#474000
0"
07
08
1)
#475000
1"
17
18
0)
#476000
0"
07
08
1)
#477000
1"
17
18
0)
#478000
0"
07
08
1)
#479000
1"
17
18
0)
#480000
0"
07
08
1)
#481000
1"
17
18
0)
#482000
0"
07
08
1)
#483000
1"
17
18
0)
#484000
0"
07
08
1)
#485000
1"
17
18
0)
#486000
0"
07
08
1)
#487000
1"
17
18
0)
#488000
0"
07
08
1)
#489000
1"
17
18
0)
#490000
0"
07
08
1)
#491000
1"
17
18
0)
#492000
0"
07
08
1)
#493000
1"
17
18
0)
#494000
0"
07
08
1)
#495000
1"
17
18
0)
#496000
0"
07
08
1)
#497000
1"
17
18
0)
#498000
0"
07
08
1)
#499000
1"
17
18
0)
#500000
0!
0"
0:
07
08
1)
1#!
1J!
1<
0;
1(
1=
#501000
1"
17
18
0)
#502000
0"
07
08
1)
0J!
1I!
0<
1;
0>
0=
1>
1=
1?
0?
#503000
1"
17
18
0)
#504000
0"
07
08
1)
1J!
1<
0;
0>
0=
1?
#505000
1"
17
18
0)
